ResultadosOndaP/ResultadosVelocidadOndaPProctorsPabloMajo/M1_25_Mod_Run#1.csv

#Digilent WaveForms Oscilloscope Acquisition
#Device Name: Discovery2
#Serial Number: SN:210321AD1806
#Date Time: 2023-11-30 21:48:34.918
#Sample rate: 884956Hz
#Samples: 8192
#Trigger: Source: Channel 2 Type: Edge Condition: Rising Level: 135 mV Hyst.: Auto HoldOff: 0 s
#Channel 1: Range: 20 mV/div Offset: 14 mV Attenuation: 1 X Sample Mode: Average
#Channel 2: Range: 100 mV/div Offset: 35 mV Attenuation: 1 X Sample Mode: Average

Time (s),Channel 1 (V),Channel 2 (V)
-0.003196996400562288,-0.005933869911343247,-0.001086244685560143
-0.003195866400562288,-0.005595588485869594,-0.0007474507088440372
-0.003194736400562288,-0.005933869911343093,-0.00108624468555999
-0.003193606400562288,-0.00559558848586944,-0.001425038662276404
-0.003192476400562288,-0.005257307060395634,-0.001425038662276404
-0.003191346400562288,-0.005933869911343093,-0.001086244685559989
-0.003190216400562288,-0.00559558848586944,-0.0007474507088438831
-0.003189086400562288,-0.00559558848586944,-0.001086244685560143
-0.003187956400562288,-0.00559558848586944,-0.001086244685560143
-0.003186826400562288,-0.00559558848586944,-0.0007474507088440372
-0.003185696400562288,-0.00559558848586944,-0.001425038662276404
-0.003184566400562288,-0.005933869911343247,-0.001763832638992664
-0.003183436400562288,-0.005933869911343247,-0.001425038662276404
-0.003182306400562288,-0.005595588485869594,-0.000408656732128085
-0.003181176400562288,-0.005933869911343247,-0.0004086567321276227
-0.003180046400562288,-0.00559558848586944,-0.0007474507088438831
-0.003178916400562288,-0.005595588485869594,-0.001086244685560143
-0.003177786400562288,-0.005933869911343093,-0.001086244685560143
-0.003176656400562288,-0.005933869911343247,-0.001086244685560143
-0.003175526400562288,-0.00559558848586944,-0.001086244685560143
-0.003174396400562288,-0.005595588485869594,-0.00142503866227625
-0.003173266400562288,-0.005933869911343093,-0.001086244685560297
-0.003172136400562288,-0.005933869911343247,-0.001086244685560143
-0.003171006400562288,-0.00559558848586944,-0.001086244685560143
-0.003169876400562288,-0.005257307060395787,-0.001425038662276404
-0.003168746400562288,-0.00559558848586944,-0.001425038662276404
-0.003167616400562288,-0.005933869911343247,-0.001763832638992664
-0.003166486400562288,-0.00559558848586944,-0.001086244685560143
-0.003165356400562288,-0.00559558848586944,-0.001763832638992356
-0.003164226400562288,-0.00559558848586944,-0.0007474507088438831
-0.003163096400562288,-0.00559558848586944,-0.0007474507088438831
-0.003161966400562288,-0.005933869911343247,-0.001086244685560143
-0.003160836400562288,-0.005933869911343247,-0.001086244685560143
-0.003159706400562288,-0.005933869911343247,-0.0007474507088438831
-0.003158576400562288,-0.005933869911343247,-0.001086244685560143
-0.003157446400562288,-0.005933869911342939,-0.00142503866227625
-0.003156316400562288,-0.005257307060395942,-0.001086244685560297
-0.003155186400562288,-0.005933869911343247,-0.0007474507088438831
-0.003154056400562288,-0.005933869911343247,-0.001763832638992664
-0.003152926400562288,-0.005933869911343093,-0.001425038662276404
-0.003151796400562288,-0.005595588485869594,-0.001425038662276404
-0.003150666400562288,-0.00559558848586944,-0.001086244685560143
-0.003149536400562288,-0.005933869911343247,-0.001425038662276404
-0.003148406400562288,-0.005933869911343247,-0.001086244685560298
-0.003147276400562288,-0.005933869911343247,-0.001425038662276404
-0.003146146400562288,-0.00559558848586944,-0.001425038662276404
-0.003145016400562288,-0.00559558848586944,-0.001763832638992664
-0.003143886400562288,-0.00559558848586944,-0.001086244685560452
-0.003142756400562288,-0.00559558848586944,-0.001763832638992664
-0.003141626400562288,-0.006272151336817054,-0.001425038662276404
-0.003140496400562288,-0.005933869911343247,-0.001425038662276404
-0.003139366400562288,-0.005933869911343247,-0.001425038662276404
-0.003138236400562288,-0.006272151336817054,-0.001086244685560143
-0.003137106400562288,-0.005933869911343247,-0.001086244685560143
-0.003135976400562288,-0.0062721513368169,-0.001425038662276404
-0.003134846400562288,-0.005933869911343401,-0.001425038662276404
-0.003133716400562288,-0.005933869911343247,-0.001425038662276404
-0.003132586400562288,-0.005933869911343247,-0.001086244685560143
-0.003131456400562288,-0.00559558848586944,-0.0007474507088438831
-0.003130326400562288,-0.00559558848586944,-0.0007474507088438831
-0.003129196400562288,-0.005933869911343247,-0.001086244685560143
-0.003128066400562288,-0.00559558848586944,-0.001425038662276404
-0.003126936400562288,-0.005257307060395787,-0.001425038662276404
-0.003125806400562288,-0.00559558848586944,-0.001425038662276404
-0.003124676400562288,-0.00559558848586944,-0.001425038662276404
-0.003123546400562288,-0.00559558848586944,-0.001425038662276404
-0.003122416400562288,-0.005933869911343247,-0.001763832638992356
-0.003121286400562288,-0.005933869911343247,-0.001086244685560143
-0.003120156400562288,-0.006272151336817054,-0.001086244685560143
-0.003119026400562288,-0.005933869911343247,-0.0007474507088438831
-0.003117896400562288,-0.005933869911343247,-0.0007474507088438831
-0.003116766400562288,-0.00559558848586944,-0.0007474507088438831
-0.003115636400562288,-0.00559558848586944,-0.001086244685560143
-0.003114506400562288,-0.005257307060395942,-0.001425038662276404
-0.003113376400562288,-0.005933869911342939,-0.001425038662276404
-0.003112246400562288,-0.005933869911343247,-0.001425038662276404
-0.003111116400562288,-0.005933869911343247,-0.001763832638992664
-0.003109986400562288,-0.005595588485869594,-0.001086244685560298
-0.003108856400562288,-0.005933869911343093,-0.00142503866227625
-0.003107726400562288,-0.00559558848586944,-0.001425038662276404
-0.003106596400562288,-0.006272151336817054,-0.001425038662276404
-0.003105466400562288,-0.006272151336816746,-0.00142503866227625
-0.003104336400562288,-0.005595588485869748,-0.001086244685560297
-0.003103206400562288,-0.005933869911343247,-0.001425038662276404
-0.003102076400562288,-0.00559558848586944,-0.001425038662276404
-0.003100946400562288,-0.005933869911343247,-0.001086244685560143
-0.003099816400562288,-0.005933869911343247,-0.001086244685560143
-0.003098686400562288,-0.00559558848586944,-0.001763832638992664
-0.003097556400562288,-0.00559558848586944,-0.001425038662276404
-0.003096426400562288,-0.00559558848586944,-0.001425038662276404
-0.003095296400562288,-0.00559558848586944,-0.001763832638992664
-0.003094166400562288,-0.00559558848586944,-0.001763832638992664
-0.003093036400562288,-0.005595588485869594,-0.001086244685560298
-0.003091906400562288,-0.005933869911343093,-0.00142503866227625
-0.003090776400562288,-0.005257307060395634,-0.001086244685560143
-0.003089646400562288,-0.005933869911343247,-0.001425038662276404
-0.003088516400562288,-0.005595588485869594,-0.00142503866227625
-0.003087386400562288,-0.005933869911343093,-0.001086244685560297
-0.003086256400562288,-0.005933869911343247,-0.0007474507088438831
-0.003085126400562288,-0.005933869911343247,-0.001763832638992664
-0.003083996400562288,-0.005933869911343247,-0.001086244685560143
-0.003082866400562288,-0.005933869911343247,-0.001086244685560143
-0.003081736400562288,-0.005257307060395634,-0.0007474507088438831
-0.003080606400562288,-0.005933869911343247,-0.001425038662276404
-0.003079476400562288,-0.005933869911342939,-0.001425038662276404
-0.003078346400562288,-0.005257307060395634,-0.001425038662276404
-0.003077216400562288,-0.00559558848586944,-0.001425038662276404
-0.003076086400562288,-0.00559558848586944,-0.001763832638992664
-0.003074956400562288,-0.00559558848586944,-0.001425038662276558
-0.003073826400562288,-0.005257307060395634,-0.001425038662276404
-0.003072696400562288,-0.005257307060395634,-0.001425038662276404
-0.003071566400562288,-0.005595588485869594,-0.001086244685560143
-0.003070436400562288,-0.005933869911343093,-0.001086244685560143
-0.003069306400562288,-0.00559558848586944,-0.001086244685560143
-0.003068176400562288,-0.005257307060395634,-0.0007474507088438831
-0.003067046400562288,-0.005257307060395787,-0.0007474507088440372
-0.003065916400562288,-0.005595588485869287,-0.00108624468555999
-0.003064786400562288,-0.005257307060395634,-0.001763832638992664
-0.003063656400562288,-0.00559558848586944,-0.001086244685560143
-0.003062526400562288,-0.005933869911343247,-0.00142503866227625
-0.003061396400562288,-0.005933869911343247,-0.001086244685560297
-0.003060266400562288,-0.005933869911343247,-0.001425038662276404
-0.003059136400562288,-0.006272151336817054,-0.001086244685560143
-0.003058006400562288,-0.005933869911343247,-0.001425038662276096
-0.003056876400562288,-0.005933869911343247,-0.0007474507088438831
-0.003055746400562288,-0.006272151336817054,-0.0007474507088438831
-0.003054616400562288,-0.005933869911343247,-0.0007474507088438831
-0.003053486400562288,-0.005595588485869594,-0.00108624468555999
-0.003052356400562288,-0.005933869911343247,-0.001086244685560143
-0.003051226400562288,-0.00559558848586944,-0.001763832638992664
-0.003050096400562288,-0.00559558848586944,-0.00142503866227625
-0.003048966400562288,-0.00559558848586944,-0.001086244685560297
-0.003047836400562288,-0.005933869911343247,-0.0007474507088438831
-0.003046706400562288,-0.005933869911343247,-0.001086244685560143
-0.003045576400562288,-0.005933869911343247,-0.001086244685560298
-0.003044446400562288,-0.005933869911343247,-0.00142503866227625
-0.003043316400562288,-0.00559558848586944,-0.001763832638992664
-0.003042186400562288,-0.005933869911343247,-0.001425038662276404
-0.003041056400562288,-0.00559558848586944,-0.00142503866227625
-0.003039926400562288,-0.00559558848586944,-0.001086244685560297
-0.003038796400562288,-0.00559558848586944,-0.001086244685560143
-0.003037666400562288,-0.005933869911343247,-0.001086244685560143
-0.003036536400562288,-0.005933869911343247,-0.001086244685560298
-0.003035406400562288,-0.005933869911343247,-0.001425038662276404
-0.003034276400562288,-0.00559558848586944,-0.001425038662276404
-0.003033146400562288,-0.00559558848586944,-0.001425038662276404
-0.003032016400562288,-0.005257307060395787,-0.0007474507088441912
-0.003030886400562288,-0.005257307060395634,-0.001425038662276404
-0.003029756400562288,-0.005933869911343247,-0.001086244685560143
-0.003028626400562288,-0.005933869911343093,-0.001086244685560298
-0.003027496400562288,-0.005595588485869594,-0.00142503866227625
-0.003026366400562288,-0.00559558848586944,-0.001086244685560143
-0.003025236400562288,-0.00559558848586944,-0.001086244685560143
-0.003024106400562288,-0.005933869911343247,-0.001425038662276096
-0.003022976400562288,-0.005933869911343247,-0.0007474507088441912
-0.003021846400562288,-0.005933869911343247,-0.001086244685560143
-0.003020716400562288,-0.005933869911343247,-0.0007474507088438831
-0.003019586400562288,-0.005933869911343093,-0.0007474507088438831
-0.003018456400562288,-0.005595588485869594,-0.0007474507088438831
-0.003017326400562288,-0.005933869911343247,-0.001086244685560143
-0.003016196400562288,-0.00559558848586944,-0.001086244685560143
-0.003015066400562288,-0.005933869911343401,-0.001425038662276404
-0.003013936400562288,-0.006272151336817054,-0.001425038662276404
-0.003012806400562288,-0.006272151336817054,-0.001763832638992664
-0.003011676400562288,-0.006272151336817054,-0.001086244685560143
-0.003010546400562288,-0.006272151336817054,-0.00142503866227625
-0.003009416400562288,-0.00559558848586944,-0.001425038662276404
-0.003008286400562288,-0.005257307060395634,-0.001086244685560143
-0.003007156400562288,-0.0062721513368169,-0.001425038662276096
-0.003006026400562288,-0.005933869911343401,-0.0007474507088441912
-0.003004896400562288,-0.00559558848586944,-0.001086244685560143
-0.003003766400562288,-0.006272151336817054,-0.001086244685560143
-0.003002636400562288,-0.005933869911343401,-0.001086244685559989
-0.003001506400562288,-0.0062721513368169,-0.0007474507088440372
-0.003000376400562288,-0.006272151336817054,-0.0007474507088438831
-0.002999246400562288,-0.00559558848586944,-0.001086244685560143
-0.002998116400562288,-0.00559558848586944,-0.001086244685560143
-0.002996986400562288,-0.00559558848586944,-0.001086244685560143
-0.002995856400562288,-0.00559558848586944,-0.001425038662276404
-0.002994726400562288,-0.005933869911343247,-0.001425038662276404
-0.002993596400562288,-0.005933869911342939,-0.001086244685560143
-0.002992466400562288,-0.005257307060395634,-0.001086244685560143
-0.002991336400562288,-0.005933869911343247,-0.001086244685560143
-0.002990206400562288,-0.006272151336817054,-0.001086244685560143
-0.002989076400562288,-0.005933869911343401,-0.00142503866227625
-0.002987946400562288,-0.00559558848586944,-0.001086244685560143
-0.002986816400562288,-0.00559558848586944,-0.001086244685560143
-0.002985686400562288,-0.005933869911343247,-0.0004086567321279308
-0.002984556400562288,-0.005933869911343247,-0.001086244685559835
-0.002983426400562288,-0.006272151336817054,-0.001425038662276404
-0.002982296400562288,-0.005933869911343247,-0.001086244685560143
-0.002981166400562288,-0.005933869911343247,-0.001425038662276558
-0.002980036400562288,-0.005933869911343247,-0.00176383263899251
-0.002978906400562288,-0.006272151336817054,-0.001086244685560143
-0.002977776400562288,-0.005933869911343247,-0.001086244685560143
-0.002976646400562288,-0.005933869911343093,-0.0007474507088441912
-0.002975516400562288,-0.005595588485869594,-0.001425038662276096
-0.002974386400562288,-0.00559558848586944,-0.001086244685560143
-0.002973256400562288,-0.005257307060395634,-0.001086244685560143
-0.002972126400562288,-0.00559558848586944,-0.0007474507088440372
-0.002970996400562288,-0.00559558848586944,-0.001086244685560143
-0.002969866400562288,-0.00559558848586944,-0.001086244685560143
-0.002968736400562288,-0.00559558848586944,-0.001425038662276404
-0.002967606400562288,-0.006272151336816746,-0.001086244685560297
-0.002966476400562288,-0.005933869911343247,-0.001425038662276404
-0.002965346400562288,-0.005933869911343247,-0.0007474507088438831
-0.002964216400562288,-0.005595588485869594,-0.001763832638992356
-0.002963086400562288,-0.005933869911343093,-0.001086244685560452
-0.002961956400562288,-0.005933869911343247,-0.001086244685560143
-0.002960826400562288,-0.005933869911343247,-0.001086244685560143
-0.002959696400562288,-0.005933869911343401,-0.001086244685559989
-0.002958566400562288,-0.0062721513368169,-0.0007474507088440372
-0.002957436400562288,-0.005933869911343247,-0.001086244685560143
-0.002956306400562288,-0.005933869911343247,-0.001086244685560143
-0.002955176400562288,-0.005933869911343093,-0.00142503866227625
-0.002954046400562288,-0.005595588485869594,-0.001086244685560297
-0.002952916400562288,-0.00559558848586944,-0.001425038662276404
-0.002951786400562288,-0.005933869911343247,-0.001425038662276404
-0.002950656400562288,-0.0062721513368169,-0.00142503866227625
-0.002949526400562288,-0.005933869911343247,-0.001086244685560143
-0.002948396400562288,-0.006272151336817054,-0.0007474507088438831
-0.002947266400562288,-0.00559558848586944,-0.001086244685560143
-0.002946136400562288,-0.00559558848586944,-0.0007474507088440372
-0.002945006400562288,-0.00559558848586944,-0.001086244685560143
-0.002943876400562288,-0.005933869911343247,-0.001425038662276404
-0.002942746400562288,-0.00559558848586944,-0.001425038662276404
-0.002941616400562288,-0.00559558848586944,-0.00176383263899251
-0.002940486400562288,-0.00559558848586944,-0.001425038662276404
-0.002939356400562288,-0.00559558848586944,-0.001086244685560143
-0.002938226400562288,-0.005933869911343093,-0.001086244685560452
-0.002937096400562288,-0.005595588485869594,-0.001763832638992356
-0.002935966400562288,-0.00559558848586944,-0.001086244685560143
-0.002934836400562288,-0.005933869911343247,-0.001086244685560143
-0.002933706400562288,-0.005933869911343247,-0.0007474507088438831
-0.002932576400562288,-0.005933869911343247,-0.0007474507088438831
-0.002931446400562288,-0.006272151336817054,-0.0007474507088438831
-0.002930316400562288,-0.005933869911343247,-0.001086244685560143
-0.002929186400562288,-0.005933869911343093,-0.0007474507088438831
-0.002928056400562288,-0.00559558848586944,-0.0007474507088438831
-0.002926926400562288,-0.00559558848586944,-0.0007474507088438831
-0.002925796400562288,-0.00559558848586944,-0.001086244685560143
-0.002924666400562288,-0.00559558848586944,-0.0007474507088440372
-0.002923536400562288,-0.00559558848586944,-0.001086244685560143
-0.002922406400562288,-0.00559558848586944,-0.0004086567321276227
-0.002921276400562288,-0.005933869911343247,-0.0004086567321276227
-0.002920146400562288,-0.005933869911343247,-0.000747450708843729
-0.002919016400562288,-0.005933869911343247,-0.001763832638992664
-0.002917886400562288,-0.005933869911343247,-0.0007474507088438831
-0.002916756400562288,-0.00559558848586944,-0.0007474507088438831
-0.002915626400562288,-0.00559558848586944,-0.0007474507088438831
-0.002914496400562288,-0.005257307060395634,-0.001425038662276404
-0.002913366400562288,-0.005933869911343247,-0.001425038662276404
-0.002912236400562288,-0.005595588485869287,-0.001425038662276096
-0.002911106400562288,-0.005257307060395787,-0.0007474507088441912
-0.002909976400562288,-0.00559558848586944,-0.001086244685560143
-0.002908846400562288,-0.005933869911343247,-0.001425038662276404
-0.002907716400562288,-0.00559558848586944,-0.001425038662276096
-0.002906586400562288,-0.00559558848586944,-0.0007474507088438831
-0.002905456400562288,-0.00559558848586944,-0.001425038662276404
-0.002904326400562288,-0.005933869911343247,-0.001086244685560143
-0.002903196400562288,-0.005595588485869594,-0.001086244685559989
-0.002902066400562288,-0.005933869911343247,-0.0007474507088438831
-0.002900936400562288,-0.006272151336817054,-0.001086244685560143
-0.002899806400562288,-0.006272151336817054,-0.0007474507088438831
-0.002898676400562288,-0.006272151336817054,-0.0004086567321277768
-0.002897546400562288,-0.006272151336817054,-0.001086244685560143
-0.002896416400562288,-0.005933869911343247,-0.001086244685560143
-0.002895286400562288,-0.005933869911343247,-0.001086244685560298
-0.002894156400562288,-0.005933869911343247,-0.00142503866227625
-0.002893026400562288,-0.005933869911343247,-0.001763832638992664
-0.002891896400562288,-0.005933869911343247,-0.0007474507088438831
-0.002890766400562288,-0.00559558848586944,-0.001086244685560452
-0.002889636400562288,-0.00559558848586944,-0.001763832638992356
-0.002888506400562288,-0.00559558848586944,-0.001763832638992664
-0.002887376400562288,-0.006272151336817054,-0.001425038662276404
-0.002886246400562288,-0.005933869911343247,-0.0007474507088441912
-0.002885116400562288,-0.005933869911343247,-0.001425038662276096
-0.002883986400562288,-0.00559558848586944,-0.0007474507088438831
-0.002882856400562288,-0.00559558848586944,-0.0004086567321276227
-0.002881726400562288,-0.005595588485869594,-0.0007474507088440372
-0.002880596400562288,-0.005933869911343247,-0.001086244685560143
-0.002879466400562288,-0.005933869911343247,-0.001086244685560143
-0.002878336400562288,-0.00559558848586944,-0.001086244685560143
-0.002877206400562288,-0.005933869911343093,-0.001763832638992356
-0.002876076400562288,-0.005933869911343247,-0.001425038662276404
-0.002874946400562288,-0.00559558848586944,-0.001086244685560143
-0.002873816400562288,-0.005933869911343093,-0.00176383263899251
-0.002872686400562288,-0.005595588485869594,-0.001425038662276558
-0.002871556400562288,-0.005933869911343247,-0.0007474507088438831
-0.002870426400562288,-0.00559558848586944,-0.001086244685560143
-0.002869296400562288,-0.005933869911343247,-0.0007474507088438831
-0.002868166400562288,-0.005933869911343247,-0.0007474507088438831
-0.002867036400562288,-0.005933869911343247,-0.0004086567321276227
-0.002865906400562288,-0.005933869911343247,-0.0007474507088438831
-0.002864776400562288,-0.005933869911343093,-0.0007474507088438831
-0.002863646400562288,-0.005595588485869594,-0.0007474507088438831
