ResultadosOndaP/ResultadosVelocidadOndaPProctorsPabloMajo/M1_56_Mod_Run#5.csv

#Digilent WaveForms Oscilloscope Acquisition
#Device Name: Discovery2
#Serial Number: SN:210321AD1806
#Date Time: 2023-11-30 21:57:41.602
#Sample rate: 884956Hz
#Samples: 8192
#Trigger: Source: Channel 2 Type: Edge Condition: Rising Level: 135 mV Hyst.: Auto HoldOff: 0 s
#Channel 1: Range: 20 mV/div Offset: 14 mV Attenuation: 1 X Sample Mode: Average
#Channel 2: Range: 100 mV/div Offset: 35 mV Attenuation: 1 X Sample Mode: Average

Time (s),Channel 1 (V),Channel 2 (V)
-0.003197712067228954,-0.001536211380183759,-0.0004086567321276227
-0.003196582067228954,-0.001197929954709644,-0.0004086567321276227
-0.003195452067228955,-0.0005213671037626467,-0.0004086567321276227
-0.003194322067228954,-0.001197929954709952,-0.0004086567321276227
-0.003193192067228954,-0.001536211380183759,-0.0007474507088438831
-0.003192062067228954,-0.0008596485292361455,-0.000747450708843729
-0.003190932067228955,-0.0008596485292361455,-0.0004086567321276227
-0.003189802067228954,-0.001536211380183759,-0.001086244685560143
-0.003188672067228954,-0.001197929954709952,-0.001086244685560143
-0.003187542067228955,-0.0008596485292362994,-0.0004086567321279308
-0.003186412067228955,-0.001197929954709952,-0.0004086567321276227
-0.003185282067228954,-0.001197929954709952,-0.0007474507088438831
-0.003184152067228954,-0.000521367103762339,-0.0007474507088438831
-0.003183022067228955,-0.0008596485292359917,-0.0007474507088438831
-0.003181892067228955,-0.0008596485292361455,-0.0004086567321276227
-0.003180762067228954,-0.001197929954709952,-6.986275541136233e-05
-0.003179632067228954,-0.0008596485292362994,-6.986275541136233e-05
-0.003178502067228955,-0.001197929954709798,-6.986275541136233e-05
-0.003177372067228955,-0.001197929954709952,-0.0004086567321276227
-0.003176242067228954,-0.001197929954709952,-0.0004086567321276227
-0.003175112067228954,-0.0008596485292362994,-0.000747450708843729
-0.003173982067228955,-0.001197929954709798,-0.0004086567321277768
-0.003172852067228954,-0.000521367103762339,-0.0007474507088438831
-0.003171722067228954,-0.000521367103762339,-6.986275541136233e-05
-0.003170592067228954,-0.0005213671037626467,-0.0004086567321274686
-0.003169462067228955,-0.001197929954709952,-6.986275541136233e-05
-0.003168332067228954,-0.0008596485292361455,-6.986275541136233e-05
-0.003167202067228954,-0.0008596485292361455,-6.986275541136233e-05
-0.003166072067228955,-0.0008596485292361455,-0.000747450708843575
-0.003164942067228955,-0.0008596485292361455,-6.986275541136233e-05
-0.003163812067228954,-0.000521367103762339,-0.0004086567321276227
-0.003162682067228954,-0.001197929954709952,-0.0007474507088438831
-0.003161552067228955,-0.001197929954709952,-0.0004086567321277768
-0.003160422067228955,-0.001197929954709952,-0.0004086567321276227
-0.003159292067228954,-0.0008596485292361455,-0.0004086567321276227
-0.003158162067228954,-0.001197929954709952,-0.0004086567321277768
-0.003157032067228955,-0.001197929954709952,-0.000747450708843729
-0.003155902067228955,-0.0008596485292361455,-0.0004086567321276227
-0.003154772067228954,-0.0008596485292361455,-0.0004086567321276227
-0.003153642067228954,-0.0005213671037624929,-0.0007474507088440372
-0.003152512067228955,-0.0008596485292359917,-0.00108624468555999
-0.003151382067228954,-0.000521367103762339,-0.001086244685560143
-0.003150252067228954,-0.001536211380183759,-0.0004086567321276227
-0.003149122067228954,-0.001536211380183605,-0.001086244685559835
-0.003147992067228955,-0.001197929954709952,-0.0004086567321276227
-0.003146862067228954,-0.001197929954709952,-0.0004086567321276227
-0.003145732067228954,-0.0008596485292361455,-0.0007474507088438831
-0.003144602067228954,-0.0008596485292362994,-0.000747450708843729
-0.003143472067228955,-0.001197929954709952,-0.0004086567321276227
-0.003142342067228954,-0.001197929954709952,-0.0007474507088438831
-0.003141212067228954,-0.001197929954709952,-6.986275541136233e-05
-0.003140082067228955,-0.0008596485292362994,-0.0004086567321274686
-0.003138952067228955,-0.0008596485292361455,-0.0004086567321276227
-0.003137822067228954,-0.0001830856782885325,-0.0004086567321276227
-0.003136692067228954,-0.0005213671037624929,-0.0004086567321279308
-0.003135562067228955,-0.0008596485292359917,-0.001086244685559835
-0.003134432067228955,-0.001197929954709952,-0.001086244685560143
-0.003133302067228954,-0.000521367103762339,-0.001086244685560143
-0.003132172067228954,-0.0005213671037624929,-0.0007474507088438831
-0.003131042067228955,-0.0008596485292359917,-0.0007474507088438831
-0.003129912067228954,-0.0008596485292361455,-0.0007474507088438831
-0.003128782067228954,-0.0008596485292361455,-0.0007474507088438831
-0.003127652067228954,-0.0008596485292361455,-0.000747450708843575
-0.003126522067228955,-0.0008596485292361455,-6.986275541136233e-05
-0.003125392067228954,-0.0008596485292361455,-0.001086244685560143
-0.003124262067228954,-0.000521367103762339,-0.001086244685560143
-0.003123132067228954,-0.0008596485292359917,-6.98627554115164e-05
-0.003122002067228955,-0.000521367103762339,-0.0004086567321276227
-0.003120872067228954,-0.000521367103762339,-0.0007474507088438831
-0.003119742067228954,-0.0008596485292361455,-0.0007474507088438831
-0.003118612067228955,-0.001197929954709798,-0.0004086567321277768
-0.003117482067228955,-0.0008596485292361455,-0.0007474507088438831
-0.003116352067228954,-0.0008596485292361455,-0.0007474507088438831
-0.003115222067228954,-0.001197929954709798,-0.0004086567321277768
-0.003114092067228955,-0.0008596485292362994,-0.000747450708843729
-0.003112962067228955,-0.0008596485292361455,-0.0007474507088438831
-0.003111832067228954,-0.0008596485292361455,-0.001086244685560143
-0.003110702067228954,-0.0005213671037626467,-0.0007474507088438831
-0.003109572067228955,-0.001197929954709644,-0.0007474507088438831
-0.003108442067228954,-0.001197929954709952,-0.0007474507088438831
-0.003107312067228954,-0.0008596485292361455,-0.0004086567321276227
-0.003106182067228954,-0.001197929954709952,-0.000747450708843575
-0.003105052067228955,-0.001197929954709952,-6.986275541167046e-05
-0.003103922067228954,-0.0008596485292361455,-0.0004086567321276227
-0.003102792067228954,-0.0008596485292361455,-0.0007474507088438831
-0.003101662067228954,-0.0005213671037621852,-0.0004086567321277768
-0.003100532067228955,-0.0001830856782885325,-0.0007474507088438831
-0.003099402067228954,-0.000521367103762339,-0.0007474507088438831
-0.003098272067228954,-0.000521367103762339,-0.001086244685560143
-0.003097142067228955,-0.001197929954709644,-0.00142503866227625
-0.003096012067228955,-0.0008596485292361455,-0.0007474507088438831
-0.003094882067228954,-0.000521367103762339,-0.0007474507088438831
-0.003093752067228954,-0.0001830856782886863,-0.0004086567321276227
-0.003092622067228955,-0.0005213671037621852,-0.0004086567321276227
-0.003091492067228955,-0.0008596485292361455,-0.0007474507088438831
-0.003090362067228954,-0.000521367103762339,-0.0004086567321276227
-0.003089232067228954,-0.0008596485292361455,-0.001086244685560143
-0.003088102067228955,-0.0008596485292361455,-0.001086244685560143
-0.003086972067228955,-0.001197929954709952,-0.0007474507088438831
-0.003085842067228954,-0.001197929954709952,-0.0007474507088438831
-0.003084712067228954,-0.0008596485292361455,-0.0004086567321277768
-0.003083582067228955,-0.0008596485292361455,-0.000747450708843729
-0.003082452067228954,-0.0008596485292361455,-0.0007474507088438831
-0.003081322067228954,-0.001536211380183759,-0.001425038662276404
-0.003080192067228954,-0.0008596485292361455,-0.0004086567321279308
-0.003079062067228955,-0.0008596485292361455,-0.001086244685560143
-0.003077932067228954,-0.0008596485292361455,-0.001086244685560143
-0.003076802067228954,-0.0008596485292361455,-0.0007474507088438831
-0.003075672067228955,-0.0008596485292361455,-0.0004086567321277768
-0.003074542067228955,-0.001197929954709952,-0.0004086567321276227
-0.003073412067228954,-0.001197929954709952,-0.0004086567321276227
-0.003072282067228954,-0.0005213671037626467,-0.000747450708843729
-0.003071152067228955,-0.001197929954709644,-0.0004086567321277768
-0.003070022067228955,-0.001197929954709952,-6.986275541136233e-05
-0.003068892067228954,-0.001197929954709952,-6.986275541136233e-05
-0.003067762067228954,-0.0008596485292362994,-0.001086244685559989
-0.003066632067228955,-0.001197929954709798,-0.0007474507088440372
-0.003065502067228955,-0.0008596485292361455,-0.001086244685560143
-0.003064372067228954,-0.000521367103762339,-0.0004086567321276227
-0.003063242067228954,-0.0008596485292361455,-0.0007474507088438831
-0.003062112067228955,-0.0008596485292361455,-0.0007474507088438831
-0.003060982067228954,-0.0008596485292361455,-0.001086244685560143
-0.003059852067228954,-0.0008596485292361455,-0.0007474507088438831
-0.003058722067228954,-0.0008596485292362994,-0.001086244685559989
-0.003057592067228955,-0.001197929954709952,-0.0007474507088438831
-0.003056462067228954,-0.000521367103762339,-0.0004086567321276227
-0.003055332067228954,-0.0008596485292361455,-0.0004086567321276227
-0.003054202067228955,-0.001197929954709798,-0.0004086567321276227
-0.003053072067228955,-0.001536211380183759,-0.0004086567321276227
-0.003051942067228954,-0.001197929954709952,-0.0007474507088438831
-0.003050812067228954,-0.001197929954709798,-0.0004086567321276227
-0.003049682067228955,-0.0008596485292362994,-0.0004086567321276227
-0.003048552067228955,-0.0008596485292361455,-0.0004086567321276227
-0.003047422067228954,-0.0008596485292361455,-0.0007474507088438831
-0.003046292067228954,-0.0008596485292359917,-0.0007474507088438831
-0.003045162067228955,-0.0005213671037624929,-0.0007474507088438831
-0.003044032067228955,-0.0008596485292361455,-0.0007474507088438831
-0.003042902067228954,-0.0008596485292361455,-0.0007474507088438831
-0.003041772067228954,-0.000521367103762339,-0.0007474507088438831
-0.003040642067228955,-0.000521367103762339,-0.0007474507088438831
-0.003039512067228954,-0.001197929954709952,-0.0004086567321276227
-0.003038382067228954,-0.0008596485292361455,-0.0007474507088438831
-0.003037252067228954,-0.001197929954710106,-0.0004086567321274686
-0.003036122067228955,-0.001536211380183759,-6.986275541136233e-05
-0.003034992067228954,-0.0008596485292361455,-0.0004086567321276227
-0.003033862067228954,-0.0008596485292361455,-0.0004086567321276227
-0.003032732067228955,-0.0008596485292361455,-6.98627554115164e-05
-0.003031602067228955,-0.001197929954709952,0.000268931221304898
-0.003030472067228954,-0.001197929954709952,-6.986275541136233e-05
-0.003029342067228954,-0.0008596485292361455,-0.0007474507088438831
-0.003028212067228955,-0.0008596485292361455,-0.0007474507088438831
-0.003027082067228955,-0.0008596485292361455,-0.0004086567321276227
-0.003025952067228954,-0.0008596485292361455,-0.0007474507088438831
-0.003024822067228954,-0.001197929954709644,-0.000747450708843729
-0.003023692067228955,-0.0005213671037626467,-0.0004086567321277768
-0.003022562067228955,-0.0008596485292361455,-0.0004086567321276227
-0.003021432067228954,-0.001197929954709952,-0.0004086567321276227
-0.003020302067228954,-0.001197929954709644,-0.001086244685559989
-0.003019172067228955,-0.0005213671037626467,-0.0007474507088440372
-0.003018042067228954,-0.001197929954709952,-0.0004086567321276227
-0.003016912067228954,-0.0008596485292361455,-0.0004086567321276227
-0.003015782067228954,-0.001197929954709952,-6.98627554115164e-05
-0.003014652067228955,-0.001197929954709952,-0.0004086567321276227
-0.003013522067228954,-0.001197929954709952,-0.0007474507088438831
-0.003012392067228954,-0.001197929954709952,-0.001425038662276404
-0.003011262067228955,-0.001197929954709952,-0.0007474507088441912
-0.003010132067228955,-0.001197929954709952,-0.0004086567321276227
-0.003009002067228954,-0.001197929954709952,-0.0004086567321276227
-0.003007872067228954,-0.0008596485292359917,-6.98627554115164e-05
-0.003006742067228955,-0.0005213671037624929,-0.0004086567321274686
-0.003005612067228955,-0.001536211380183759,-0.0007474507088438831
-0.003004482067228954,-0.0008596485292361455,-0.0007474507088438831
-0.003003352067228954,-0.001197929954709952,-0.0007474507088438831
-0.003002222067228955,-0.001197929954709952,-0.0007474507088438831
-0.003001092067228955,-0.001197929954709952,-0.001425038662276404
-0.002999962067228954,-0.001197929954709952,-0.0004086567321276227
-0.002998832067228954,-0.001197929954709952,-0.0004086567321277768
-0.002997702067228955,-0.001197929954709952,-0.000747450708843729
-0.002996572067228954,-0.0008596485292361455,-0.0004086567321276227
-0.002995442067228954,-0.0008596485292361455,-0.0004086567321276227
-0.002994312067228954,-0.0008596485292361455,-0.0004086567321277768
-0.002993182067228955,-0.0008596485292361455,-0.0007474507088438831
-0.002992052067228954,-0.001197929954709952,-0.0007474507088438831
-0.002990922067228954,-0.0008596485292361455,-0.0004086567321276227
-0.002989792067228955,-0.0005213671037624929,-0.000747450708843729
-0.002988662067228955,-0.0008596485292361455,-0.0004086567321276227
-0.002987532067228954,-0.001197929954709952,-0.001086244685560143
-0.002986402067228954,-0.001197929954709952,-0.001086244685559989
-0.002985272067228955,-0.001197929954709952,-0.0007474507088440372
-0.002984142067228955,-0.001197929954709952,-0.0007474507088438831
-0.002983012067228954,-0.001197929954709952,-0.0007474507088438831
-0.002981882067228954,-0.001197929954709644,-0.000747450708843729
-0.002980752067228955,-0.0005213671037626467,-0.0004086567321277768
-0.002979622067228955,-0.0008596485292361455,-0.0004086567321276227
-0.002978492067228954,-0.0008596485292361455,-0.0007474507088438831
-0.002977362067228954,-0.001197929954709798,-0.0004086567321277768
-0.002976232067228955,-0.0008596485292362994,-0.000747450708843729
-0.002975102067228954,-0.0008596485292361455,-0.0004086567321276227
-0.002973972067228954,-0.0008596485292361455,-0.001086244685560143
-0.002972842067228954,-0.0008596485292361455,-0.001086244685559989
-0.002971712067228955,-0.0008596485292361455,-0.0007474507088438831
-0.002970582067228954,-0.001197929954709952,-0.0007474507088438831
-0.002969452067228954,-0.0008596485292361455,-0.0004086567321276227
-0.002968322067228955,-0.001197929954709798,-6.98627554115164e-05
-0.002967192067228955,-0.0008596485292361455,-0.0007474507088438831
-0.002966062067228954,-0.0008596485292361455,-0.0004086567321276227
-0.002964932067228954,-0.0005213671037624929,-0.001086244685559989
-0.002963802067228955,-0.0008596485292359917,-0.0007474507088440372
-0.002962672067228955,-0.001197929954709952,-6.986275541136233e-05
-0.002961542067228954,-0.000521367103762339,-0.0007474507088438831
-0.002960412067228954,-0.0008596485292362994,-0.0004086567321274686
-0.002959282067228955,-0.001197929954709798,-6.98627554115164e-05
-0.002958152067228955,-0.001197929954709952,-0.0007474507088438831
-0.002957022067228954,-0.001197929954709952,-0.0004086567321276227
-0.002955892067228954,-0.001197929954709798,-0.0004086567321276227
-0.002954762067228955,-0.0008596485292362994,-0.0004086567321276227
-0.002953632067228954,-0.0008596485292361455,-0.0007474507088438831
-0.002952502067228954,-0.0008596485292361455,-0.0004086567321276227
-0.002951372067228954,-0.0008596485292359917,-0.000747450708843575
-0.002950242067228955,-0.000521367103762339,-6.986275541136233e-05
-0.002949112067228954,-0.0008596485292361455,-0.0007474507088438831
-0.002947982067228954,-0.0008596485292361455,-0.001086244685560143
-0.002946852067228955,-0.0005213671037624929,-0.001086244685560143
-0.002945722067228955,-0.001197929954709952,-0.001086244685560143
-0.002944592067228954,-0.000521367103762339,-0.001086244685560143
-0.002943462067228954,-0.000521367103762339,-0.001086244685560143
-0.002942332067228955,-0.0008596485292359917,-0.001086244685560143
-0.002941202067228955,-0.001197929954709952,-0.0004086567321276227
-0.002940072067228954,-0.0008596485292361455,-0.0007474507088438831
-0.002938942067228954,-0.001197929954709798,-0.001086244685559989
-0.002937812067228955,-0.0008596485292362994,-0.0007474507088440372
-0.002936682067228955,-0.001197929954709952,-0.0004086567321276227
-0.002935552067228954,-0.0008596485292361455,-0.0007474507088438831
-0.002934422067228954,-0.0008596485292361455,-0.001086244685560143
-0.002933292067228955,-0.0008596485292361455,-0.001086244685560143
-0.002932162067228954,-0.0008596485292361455,-0.0007474507088438831
-0.002931032067228954,-0.000521367103762339,-0.0007474507088438831
-0.002929902067228954,-0.0008596485292361455,-0.0007474507088438831
-0.002928772067228955,-0.0008596485292361455,-0.0007474507088438831
-0.002927642067228954,-0.000521367103762339,-0.0007474507088438831
-0.002926512067228954,-0.000521367103762339,-0.0007474507088438831
-0.002925382067228955,-0.000521367103762339,-0.0007474507088438831
-0.002924252067228955,-0.000521367103762339,-0.0007474507088438831
-0.002923122067228954,-0.000521367103762339,-0.001086244685560143
-0.002921992067228954,-0.0008596485292361455,-0.001086244685560143
-0.002920862067228955,-0.0008596485292361455,-0.0007474507088440372
-0.002919732067228955,-0.0008596485292361455,-0.0004086567321276227
-0.002918602067228954,-0.001197929954709952,-0.0004086567321276227
-0.002917472067228954,-0.0008596485292362994,-0.000747450708843729
-0.002916342067228955,-0.001197929954709798,-0.0004086567321277768
-0.002915212067228955,-0.0008596485292361455,-0.0007474507088438831
-0.002914082067228954,-0.0008596485292361455,-0.0004086567321276227
-0.002912952067228954,-0.0008596485292362994,-0.000747450708843729
-0.002911822067228955,-0.001197929954709798,-0.0004086567321277768
-0.002910692067228954,-0.0008596485292361455,-0.0007474507088438831
-0.002909562067228954,-0.0008596485292361455,-0.0007474507088438831
-0.002908432067228954,-0.0008596485292361455,-0.0004086567321276227
-0.002907302067228955,-0.0008596485292361455,-0.0004086567321276227
-0.002906172067228954,-0.0008596485292361455,-0.0007474507088438831
-0.002905042067228954,-0.0008596485292361455,-0.0007474507088438831
-0.002903912067228954,-0.001197929954709798,-0.0007474507088440372
-0.002902782067228955,-0.0008596485292361455,-0.001086244685560143
-0.002901652067228954,-0.000521367103762339,-0.001086244685560143
-0.002900522067228954,-0.0008596485292361455,-0.001425038662276404
-0.002899392067228955,-0.001197929954709798,-0.001086244685560297
-0.002898262067228955,-0.0008596485292361455,-0.0007474507088438831
-0.002897132067228954,-0.001536211380183759,-0.0004086567321276227
-0.002896002067228954,-0.001197929954709798,-0.0007474507088440372
-0.002894872067228955,-0.0008596485292362994,-0.00108624468555999
-0.002893742067228955,-0.0008596485292361455,-0.001086244685560143
-0.002892612067228954,-0.000521367103762339,-0.0007474507088438831
-0.002891482067228954,-0.0005213671037628006,-0.0007474507088438831
-0.002890352067228955,-0.001536211380183297,-0.0007474507088438831
-0.002889222067228954,-0.001197929954709952,-0.0007474507088438831
-0.002888092067228954,-0.0008596485292361455,-0.0007474507088438831
-0.002886962067228954,-0.001197929954709798,-0.0007474507088438831
-0.002885832067228955,-0.0008596485292362994,-0.0007474507088438831
-0.002884702067228954,-0.000521367103762339,-0.0004086567321276227
-0.002883572067228954,-0.0008596485292361455,-0.0004086567321276227
-0.002882442067228954,-0.001197929954709952,-0.0004086567321279308
-0.002881312067228955,-0.001197929954709952,-0.001086244685560143
-0.002880182067228954,-0.000521367103762339,-0.001763832638992664
-0.002879052067228954,-0.0008596485292361455,-0.001086244685560143
-0.002877922067228955,-0.0005213671037624929,-0.0007474507088440372
-0.002876792067228955,-0.001197929954709952,-0.0004086567321276227
-0.002875662067228954,-0.001197929954709952,-0.0007474507088438831
-0.002874532067228954,-0.001197929954709644,-0.001086244685560143
-0.002873402067228955,-0.0005213671037626467,-0.001086244685560143
-0.002872272067228955,-0.0008596485292361455,-0.001086244685560143
-0.002871142067228954,-0.001197929954709952,-0.001086244685560143
