ResultadosOndaP/ResultadosVelocidadOndaPProctorsPabloMajo/M3_56_Mod_Run#3.csv

#Digilent WaveForms Oscilloscope Acquisition
#Device Name: Discovery2
#Serial Number: SN:210321AD1806
#Date Time: 2023-11-30 22:06:10.478
#Sample rate: 884956Hz
#Samples: 8192
#Trigger: Source: Channel 2 Type: Edge Condition: Rising Level: 135 mV Hyst.: Auto HoldOff: 0 s
#Channel 1: Range: 20 mV/div Offset: 14 mV Attenuation: 1 X Sample Mode: Average
#Channel 2: Range: 100 mV/div Offset: 65 mV Attenuation: 1 X Sample Mode: Average

Time (s),Channel 1 (V),Channel 2 (V)
-0.003196931829133717,-0.001874492805657567,9.410061067816056e-05
-0.003195801829133716,-0.001874492805657259,0.0007716885641106813
-0.003194671829133717,-0.00119792995471026,0.0007716885641106813
-0.003193541829133717,-0.001197929954709952,0.001110482540826935
-0.003192411829133717,-0.001874492805657567,0.0007716885641106813
-0.003191281829133716,-0.001197929954709798,0.0007716885641106813
-0.003190151829133717,-0.0008596485292361455,0.0007716885641106813
-0.003189021829133717,-0.001197929954709952,0.000432894587394414
-0.003187891829133717,-0.001197929954709952,0.000432894587394414
-0.003186761829133717,-0.001197929954709952,0.000432894587394414
-0.003185631829133717,-0.001197929954709952,0.000432894587394414
-0.003184501829133717,-0.001197929954709952,0.0007716885641106813
-0.003183371829133716,-0.001197929954709952,0.0007716885641106813
-0.003182241829133717,-0.0008596485292362994,0.001449276517542894
-0.003181111829133717,-0.001874492805657567,0.001449276517543202
-0.003179981829133717,-0.001197929954709952,0.001449276517543202
-0.003178851829133716,-0.001197929954709952,0.001449276517543202
-0.003177721829133717,-0.001197929954709952,0.001449276517543202
-0.003176591829133717,-0.001536211380183759,0.001449276517543202
-0.003175461829133717,-0.0008596485292361455,0.001110482540826935
-0.003174331829133716,-0.0008596485292362994,0.001110482540826781
-0.003173201829133717,-0.001197929954709798,0.0007716885641108354
-0.003172071829133717,-0.001197929954709952,0.0007716885641106813
-0.003170941829133717,-0.001197929954709952,0.0007716885641106813
-0.003169811829133716,-0.001536211380183605,0.0007716885641108354
-0.003168681829133717,-0.001197929954709952,0.001110482540826935
-0.003167551829133717,-0.001536211380183759,0.001110482540826935
-0.003166421829133717,-0.001197929954709952,0.0007716885641106813
-0.003165291829133717,-0.001197929954709952,0.0007716885641106813
-0.003164161829133717,-0.001536211380183759,0.001110482540826935
-0.003163031829133717,-0.001197929954709952,0.001110482540826935
-0.003161901829133716,-0.001536211380183759,0.001110482540826935
-0.003160771829133717,-0.001197929954710106,0.001110482540826935
-0.003159641829133717,-0.001197929954709952,0.0007716885641106813
-0.003158511829133717,-0.001197929954709952,0.001449276517543202
-0.003157381829133716,-0.001536211380183759,0.001788070494259147
-0.003156251829133717,-0.001536211380183759,0.001110482540827243
-0.003155121829133717,-0.001197929954709952,0.0007716885641106813
-0.003153991829133717,-0.0008596485292361455,0.001110482540826935
-0.003152861829133716,-0.001197929954709952,0.001449276517543202
-0.003151731829133717,-0.001197929954709952,0.001449276517543202
-0.003150601829133717,-0.001197929954709952,0.0007716885641106813
-0.003149471829133717,-0.0008596485292361455,0.0007716885641106813
-0.003148341829133716,-0.001197929954710106,0.001110482540826781
-0.003147211829133717,-0.001536211380183759,0.0007716885641106813
-0.003146081829133717,-0.001536211380183759,0.0007716885641106813
-0.003144951829133717,-0.001874492805657567,0.001449276517543202
-0.003143821829133716,-0.001536211380183605,0.001110482540826781
-0.003142691829133717,-0.001197929954709952,0.0007716885641106813
-0.003141561829133717,-0.001536211380183759,0.000432894587394414
-0.003140431829133716,-0.001536211380183759,0.001110482540826935
-0.003139301829133717,-0.001197929954710106,0.001110482540826935
-0.003138171829133717,-0.0008596485292361455,0.0007716885641106813
-0.003137041829133717,-0.000521367103762339,0.001110482540826935
-0.003135911829133716,-0.001197929954709952,0.001110482540826935
-0.003134781829133717,-0.001197929954709952,0.001110482540826935
-0.003133651829133717,-0.0008596485292361455,0.0007716885641106813
-0.003132521829133717,-0.001197929954709952,0.001110482540826935
-0.003131391829133716,-0.001197929954709952,0.001110482540826781
-0.003130261829133717,-0.001197929954709952,0.0007716885641108354
-0.003129131829133717,-0.0008596485292361455,0.0007716885641106813
-0.003128001829133717,-0.0008596485292361455,0.001110482540826935
-0.003126871829133716,-0.001197929954709952,0.001449276517543202
-0.003125741829133717,-0.001197929954709952,0.001449276517543202
-0.003124611829133717,-0.001197929954709952,0.001110482540826935
-0.003123481829133717,-0.001197929954709952,0.001110482540826935
-0.003122351829133716,-0.001197929954709952,0.0007716885641108354
-0.003121221829133717,-0.001197929954709952,0.001110482540826935
-0.003120091829133717,-0.0008596485292361455,0.0007716885641106813
-0.003118961829133717,-0.001197929954709952,0.0007716885641106813
-0.003117831829133717,-0.001536211380183605,0.0007716885641106813
-0.003116701829133717,-0.001536211380183759,0.001449276517543202
-0.003115571829133717,-0.001197929954709952,0.001110482540826935
-0.003114441829133716,-0.001197929954709798,0.0007716885641106813
-0.003113311829133717,-0.0008596485292362994,0.0007716885641106813
-0.003112181829133717,-0.001536211380183759,0.0007716885641106813
-0.003111051829133717,-0.001197929954709952,0.001110482540826935
-0.003109921829133716,-0.0008596485292362994,0.0007716885641108354
-0.003108791829133717,-0.001197929954709798,0.001110482540826781
-0.003107661829133717,-0.001197929954709952,0.001110482540826935
-0.003106531829133717,-0.0008596485292361455,0.001110482540826935
-0.003105401829133716,-0.00119792995471026,0.001449276517542894
-0.003104271829133717,-0.001874492805657259,0.0007716885641109894
-0.003103141829133717,-0.001536211380183759,0.001110482540826935
-0.003102011829133717,-0.001197929954709952,0.0007716885641106813
-0.003100881829133716,-0.001536211380183759,0.000432894587394414
-0.003099751829133717,-0.001536211380183759,0.000432894587394414
-0.003098621829133717,-0.001197929954709952,0.001110482540826935
-0.003097491829133717,-0.001197929954709952,0.001110482540826935
-0.003096361829133717,-0.001536211380183605,0.0007716885641108354
-0.003095231829133717,-0.001536211380183759,0.0007716885641106813
-0.003094101829133717,-0.001197929954709952,0.001449276517543202
-0.003092971829133716,-0.001536211380183605,0.001788070494259147
-0.003091841829133717,-0.001197929954710106,0.001110482540827243
-0.003090711829133717,-0.0008596485292361455,0.001110482540826935
-0.003089581829133717,-0.001536211380183759,0.0007716885641106813
-0.003088451829133716,-0.001197929954709952,0.001110482540826627
-0.003087321829133717,-0.001197929954709952,0.0004328945873947221
-0.003086191829133717,-0.001197929954709952,0.0007716885641106813
-0.003085061829133717,-0.001197929954709952,0.0007716885641106813
-0.003083931829133716,-0.001197929954710106,0.0007716885641108354
-0.003082801829133717,-0.001536211380183605,0.001110482540826781
-0.003081671829133717,-0.001197929954709952,0.001110482540826935
-0.003080541829133717,-0.0008596485292361455,0.0007716885641106813
-0.003079411829133716,-0.001197929954709952,0.001110482540826781
-0.003078281829133717,-0.001197929954709952,0.0007716885641106813
-0.003077151829133717,-0.001536211380183759,0.001110482540826935
-0.003076021829133717,-0.001197929954709952,0.0007716885641106813
-0.003074891829133717,-0.0008596485292362994,0.0007716885641106813
-0.003073761829133717,-0.001536211380183759,0.0007716885641106813
-0.003072631829133717,-0.001197929954709952,0.0007716885641106813
-0.003071501829133716,-0.001536211380183605,0.0007716885641108354
-0.003070371829133717,-0.001197929954710106,0.001110482540826781
-0.003069241829133717,-0.0008596485292361455,0.001110482540826935
-0.003068111829133717,-0.0008596485292361455,0.0007716885641106813
-0.003066981829133716,-0.0008596485292364532,0.001110482540827089
-0.003065851829133717,-0.001536211380183451,0.001449276517543048
-0.003064721829133717,-0.001197929954709952,0.001449276517543202
-0.003063591829133717,-0.001197929954709952,0.001110482540826935
-0.003062461829133716,-0.0008596485292364532,0.001110482540826935
-0.003061331829133717,-0.001536211380183451,0.001110482540826935
-0.003060201829133717,-0.0008596485292361455,0.0007716885641106813
-0.003059071829133717,-0.0008596485292361455,0.0007716885641106813
-0.003057941829133716,-0.0005213671037626467,0.001110482540826935
-0.003056811829133717,-0.001197929954709952,0.001110482540826935
-0.003055681829133717,-0.001197929954709952,0.001110482540826935
-0.003054551829133717,-0.001197929954709952,0.001110482540826935
-0.003053421829133717,-0.0008596485292362994,0.0007716885641108354
-0.003052291829133717,-0.001197929954709952,0.001110482540826935
-0.003051161829133717,-0.001874492805657567,0.001110482540826935
-0.003050031829133716,-0.001874492805657259,0.001110482540826935
-0.003048901829133717,-0.00119792995471026,0.001110482540826935
-0.003047771829133717,-0.001197929954709952,0.001110482540826935
-0.003046641829133717,-0.001197929954709952,0.0007716885641106813
-0.003045511829133716,-0.0008596485292362994,0.0004328945873947221
-0.003044381829133717,-0.001197929954709798,0.001110482540826627
-0.003043251829133717,-0.001197929954709952,0.001110482540826935
-0.003042121829133717,-0.001536211380183759,0.001110482540826935
-0.003040991829133716,-0.001536211380183605,0.001110482540826781
-0.003039861829133717,-0.001197929954710106,0.0007716885641108354
-0.003038731829133717,-0.001197929954709952,0.001110482540826935
-0.003037601829133717,-0.001197929954709952,0.001110482540826935
-0.003036471829133716,-0.001536211380183605,0.001110482540826781
-0.003035341829133717,-0.001197929954709952,0.0007716885641106813
-0.003034211829133717,-0.001197929954709952,0.001449276517543202
-0.003033081829133717,-0.001197929954709952,0.0007716885641106813
-0.003031951829133717,-0.001536211380183605,0.0007716885641106813
-0.003030821829133717,-0.0008596485292361455,0.000432894587394414
-0.003029691829133717,-0.001197929954709952,0.001110482540826935
-0.003028561829133716,-0.001197929954709952,0.001110482540826935
-0.003027431829133717,-0.001197929954709952,0.001110482540826935
-0.003026301829133717,-0.0008596485292361455,0.0007716885641106813
-0.003025171829133717,-0.001536211380183759,0.001110482540826935
-0.003024041829133716,-0.001536211380183759,0.001449276517543048
-0.003022911829133717,-0.001536211380183759,0.001110482540827089
-0.003021781829133717,-0.001197929954709952,0.000432894587394414
-0.003020651829133717,-0.0008596485292361455,0.0007716885641106813
-0.003019521829133716,-0.001197929954709798,0.001110482540827089
-0.003018391829133717,-0.0008596485292362994,0.001449276517543048
-0.003017261829133717,-0.001536211380183759,0.001110482540826935
-0.003016131829133717,-0.001197929954709952,0.001110482540826935
-0.003015001829133716,-0.001536211380183605,0.001110482540826781
-0.003013871829133717,-0.001197929954709952,0.0007716885641106813
-0.003012741829133717,-0.001197929954709952,0.0007716885641106813
-0.003011611829133717,-0.001874492805657567,0.001449276517543202
-0.003010481829133717,-0.001874492805657567,0.001110482540827089
-0.003009351829133717,-0.001874492805657567,0.001449276517543202
-0.003008221829133717,-0.001536211380183759,0.0007716885641106813
-0.003007091829133716,-0.001874492805657413,0.001110482540826935
-0.003005961829133717,-0.001536211380183913,0.001110482540826935
-0.003004831829133717,-0.001536211380183759,0.001110482540826935
-0.003003701829133717,-0.001536211380183759,0.0007716885641106813
-0.003002571829133716,-0.001536211380183605,0.001449276517543048
-0.003001441829133717,-0.001197929954710106,0.001110482540827089
-0.003000311829133717,-0.001536211380183759,0.0007716885641106813
-0.002999181829133717,-0.001197929954709952,0.0007716885641106813
-0.002998051829133716,-0.001197929954709952,0.0007716885641108354
-0.002996921829133717,-0.001197929954709952,0.001110482540826781
-0.002995791829133717,-0.0008596485292361455,0.001449276517543202
-0.002994661829133717,-0.001536211380183759,0.001449276517543202
-0.002993531829133716,-0.001874492805657413,0.001449276517543048
-0.002992401829133717,-0.001536211380183759,0.001110482540826935
-0.002991271829133717,-0.001874492805657567,0.001449276517543202
-0.002990141829133717,-0.001874492805657567,0.0007716885641106813
-0.002989011829133717,-0.000859648529236607,0.0007716885641106813
-0.002987881829133717,-0.0008596485292361455,0.001110482540826935
-0.002986751829133717,-0.001536211380183759,0.001110482540826935
-0.002985621829133716,-0.001197929954709952,0.001110482540826781
-0.002984491829133717,-0.001197929954709952,0.0007716885641108354
-0.002983361829133717,-0.001197929954709952,0.000432894587394414
-0.002982231829133717,-0.001197929954709952,0.001110482540826935
-0.002981101829133716,-0.001536211380183759,0.001110482540826781
-0.002979971829133717,-0.001536211380183759,0.0007716885641108354
-0.002978841829133717,-0.001197929954709952,0.001110482540826935
-0.002977711829133717,-0.001536211380183759,0.0007716885641106813
-0.002976581829133716,-0.001536211380183605,0.0007716885641108354
-0.002975451829133717,-0.001197929954710106,0.001110482540826781
-0.002974321829133717,-0.001536211380183759,0.0007716885641106813
-0.002973191829133717,-0.001197929954709952,0.001110482540826935
-0.002972061829133716,-0.001197929954710106,0.0007716885641106813
-0.002970931829133717,-0.001536211380183759,0.0007716885641106813
-0.002969801829133717,-0.001536211380183759,0.001110482540826935
-0.002968671829133717,-0.001197929954709952,0.0007716885641106813
-0.002967541829133717,-0.001197929954709952,0.001110482540826781
-0.002966411829133717,-0.001197929954709952,0.001110482540826935
-0.002965281829133717,-0.001197929954709952,0.001110482540826935
-0.002964151829133716,-0.001536211380183605,0.001110482540826935
-0.002963021829133717,-0.001197929954710106,0.001110482540826935
-0.002961891829133717,-0.001536211380183759,0.001110482540826935
-0.002960761829133717,-0.001874492805657567,0.001110482540826935
-0.002959631829133716,-0.001197929954709952,0.0007716885641108354
-0.002958501829133717,-0.001197929954709952,0.001110482540826781
-0.002957371829133717,-0.001197929954709952,0.001449276517543202
-0.002956241829133717,-0.001536211380183759,0.0007716885641106813
-0.002955111829133716,-0.0008596485292362994,0.0004328945873945681
-0.002953981829133717,-0.001197929954709798,0.0007716885641105273
-0.002952851829133717,-0.001197929954709952,0.001110482540826935
-0.002951721829133717,-0.0008596485292361455,0.001449276517543202
-0.002950591829133716,-0.00119792995471026,0.0007716885641106813
-0.002949461829133717,-0.001874492805657567,0.0007716885641106813
-0.002948331829133717,-0.0008596485292361455,0.0007716885641106813
-0.002947201829133717,-0.0008596485292361455,0.001110482540826935
-0.002946071829133717,-0.0008596485292361455,0.001110482540826935
-0.002944941829133717,-0.001197929954709952,0.001449276517543202
-0.002943811829133717,-0.001536211380183759,0.001110482540826935
-0.002942681829133716,-0.001197929954709952,0.001449276517543202
-0.002941551829133717,-0.0008596485292362994,0.001449276517543202
-0.002940421829133717,-0.001536211380183759,0.001449276517543202
-0.002939291829133717,-0.002212774231131373,0.001449276517543202
-0.002938161829133716,-0.001197929954710106,0.001449276517543048
-0.002937031829133717,-0.001536211380183605,0.001110482540827089
-0.002935901829133717,-0.001536211380183759,0.001110482540826935
-0.002934771829133717,-0.001536211380183759,0.001449276517543202
-0.002933641829133716,-0.001197929954709952,0.001110482540826935
-0.002932511829133717,-0.001197929954709952,0.001110482540826935
-0.002931381829133717,-0.001197929954709952,0.001449276517543202
-0.002930251829133717,-0.001536211380183759,0.001449276517543202
-0.002929121829133716,-0.001197929954709952,0.001449276517543048
-0.002927991829133717,-0.001197929954709952,0.001110482540826935
-0.002926861829133717,-0.001536211380183759,0.001110482540826935
-0.002925731829133717,-0.001874492805657567,0.001110482540826935
-0.002924601829133717,-0.001536211380183913,0.0007716885641108354
-0.002923471829133717,-0.001197929954709952,0.001110482540826935
-0.002922341829133717,-0.001536211380183759,0.001110482540826935
-0.002921211829133716,-0.001536211380183759,0.001110482540826935
-0.002920081829133717,-0.001536211380183759,0.001449276517543048
-0.002918951829133717,-0.001536211380183759,0.001110482540826935
-0.002917821829133717,-0.001536211380183759,0.001110482540826935
-0.002916691829133716,-0.001197929954710106,0.001449276517543048
-0.002915561829133717,-0.001536211380183605,0.001110482540827089
-0.002914431829133717,-0.001536211380183759,0.001449276517543202
-0.002913301829133717,-0.001197929954709952,0.001110482540826935
-0.002912171829133716,-0.001197929954710106,0.001110482540826781
-0.002911041829133717,-0.001536211380183605,0.0007716885641108354
-0.002909911829133717,-0.001197929954709952,0.001110482540826935
-0.002908781829133717,-0.001197929954709952,0.001110482540826935
-0.002907651829133716,-0.001197929954709798,0.0007716885641108354
-0.002906521829133717,-0.0008596485292361455,0.001110482540826935
-0.002905391829133717,-0.0008596485292361455,0.001110482540826935
-0.002904261829133717,-0.001197929954709952,0.001449276517543202
-0.002903131829133716,-0.001197929954710106,0.001449276517543202
-0.002902001829133717,-0.001536211380183759,0.001449276517543202
-0.002900871829133717,-0.001536211380183759,0.001110482540826935
-0.002899741829133716,-0.001536211380183759,0.001449276517543202
-0.002898611829133717,-0.0008596485292364532,0.001110482540827089
-0.002897481829133717,-0.001536211380183759,0.0007716885641106813
-0.002896351829133717,-0.001197929954709952,0.001110482540826935
-0.002895221829133716,-0.001197929954709952,0.001110482540826781
-0.002894091829133717,-0.001197929954709952,0.0007716885641108354
-0.002892961829133717,-0.0008596485292361455,0.0007716885641106813
-0.002891831829133717,-0.001197929954709952,0.000432894587394414
-0.002890701829133716,-0.001197929954709952,0.0007716885641108354
-0.002889571829133717,-0.001197929954709952,0.001110482540826781
-0.002888441829133717,-0.001197929954709952,0.0007716885641106813
-0.002887311829133717,-0.001536211380183759,0.001110482540826935
-0.002886181829133716,-0.001536211380183605,0.001110482540826781
-0.002885051829133717,-0.001197929954710106,0.0007716885641108354
-0.002883921829133717,-0.001536211380183759,0.001110482540826935
-0.002882791829133717,-0.001536211380183759,0.001110482540826935
-0.002881661829133716,-0.001197929954710106,0.001110482540826935
-0.002880531829133717,-0.001536211380183759,0.001110482540826935
-0.002879401829133717,-0.001197929954709952,0.000432894587394414
-0.002878271829133717,-0.001197929954709952,0.000432894587394414
-0.002877141829133717,-0.001197929954709952,0.0007716885641105273
-0.002876011829133717,-0.0008596485292361455,0.000432894587394414
-0.002874881829133717,-0.001197929954709952,0.0007716885641106813
-0.002873751829133716,-0.0008596485292362994,0.0007716885641105273
-0.002872621829133717,-0.001197929954709798,0.0004328945873945681
-0.002871491829133717,-0.001197929954709952,0.001110482540826935
-0.002870361829133717,-0.001536211380183759,0.001110482540826935
-0.002869231829133716,-0.001536211380183759,0.0007716885641106813
-0.002868101829133717,-0.001536211380183759,0.0007716885641106813
-0.002866971829133717,-0.001536211380183759,0.001110482540826935
-0.002865841829133717,-0.0008596485292361455,0.001110482540826935
-0.002864711829133716,-0.00119792995471026,0.0007716885641106813
-0.002863581829133717,-0.001874492805657259,0.0007716885641106813
-0.002862451829133717,-0.001197929954709952,0.001110482540826935
-0.002861321829133717,-0.001197929954709952,0.001449276517543202
