ResultadosOndaP/ResultadosVelocidadOndaPProctorsPabloMajo/M4_25_Est_Run#4.csv

#Digilent WaveForms Oscilloscope Acquisition
#Device Name: Discovery2
#Serial Number: SN:210321AD1806
#Date Time: 2023-11-30 22:20:40.695
#Sample rate: 884956Hz
#Samples: 8192
#Trigger: Source: Channel 2 Type: Edge Condition: Rising Level: 135 mV Hyst.: Auto HoldOff: 0 s
#Channel 1: Range: 20 mV/div Offset: 14 mV Attenuation: 1 X Sample Mode: Average
#Channel 2: Range: 100 mV/div Offset: 65 mV Attenuation: 1 X Sample Mode: Average

Time (s),Channel 1 (V),Channel 2 (V)
-0.003197617900562288,-0.005933869911343247,-0.0009222813194706275
-0.003196487900562288,-0.005933869911343247,-0.001599869272903148
-0.003195357900562288,-0.005933869911343247,-0.001599869272903148
-0.003194227900562288,-0.00559558848586944,-0.001599869272903148
-0.003193097900562288,-0.005933869911343247,-0.001261075296186881
-0.003191967900562287,-0.005595588485869748,-0.0009222813194706275
-0.003190837900562288,-0.006272151336817054,-0.0009222813194706275
-0.003189707900562288,-0.006272151336817054,-0.0009222813194706275
-0.003188577900562288,-0.005933869911343247,-0.0009222813194706275
-0.003187447900562288,-0.005933869911343247,-0.001261075296186727
-0.003186317900562288,-0.00559558848586944,-0.001599869272903148
-0.003185187900562288,-0.005933869911343247,-0.001261075296186881
-0.003184057900562288,-0.006272151336817054,-0.001261075296186881
-0.003182927900562288,-0.005933869911343401,-0.001261075296186881
-0.003181797900562288,-0.00559558848586944,-0.001599869272903148
-0.003180667900562288,-0.005933869911343247,-0.001599869272903148
-0.003179537900562288,-0.005933869911343247,-0.001599869272902994
-0.003178407900562288,-0.005933869911343247,-0.001261075296187035
-0.003177277900562288,-0.005933869911343247,-0.0009222813194706275
-0.003176147900562288,-0.005933869911343247,-0.001599869272903148
-0.003175017900562288,-0.006272151336816746,-0.001599869272903148
-0.003173887900562288,-0.005595588485869748,-0.001599869272903148
-0.003172757900562288,-0.005933869911343247,-0.0009222813194706275
-0.003171627900562288,-0.00559558848586944,-0.0009222813194706275
-0.003170497900562287,-0.005595588485869594,-0.001261075296186727
-0.003169367900562288,-0.005933869911343247,-0.0009222813194706275
-0.003168237900562288,-0.00559558848586944,-0.001261075296186881
-0.003167107900562288,-0.005933869911343247,-0.001261075296186881
-0.003165977900562288,-0.005933869911343247,-0.001261075296186881
-0.003164847900562288,-0.005933869911343247,-0.0009222813194706275
-0.003163717900562288,-0.00559558848586944,-0.001599869272903148
-0.003162587900562288,-0.005933869911343247,-0.0009222813194706275
-0.003161457900562288,-0.0062721513368169,-0.0009222813194706275
-0.003160327900562288,-0.005933869911343247,-0.0009222813194706275
-0.003159197900562288,-0.005933869911343247,-0.0005834873427543602
-0.003158067900562288,-0.005933869911343093,-0.0009222813194706275
-0.003156937900562288,-0.005595588485869594,-0.0009222813194706275
-0.003155807900562288,-0.00559558848586944,-0.001599869272903148
-0.003154677900562288,-0.00559558848586944,-0.001599869272903148
-0.003153547900562288,-0.00559558848586944,-0.0009222813194706275
-0.003152417900562288,-0.00559558848586944,-0.0009222813194706275
-0.003151287900562288,-0.00559558848586944,-0.001599869272903148
-0.003150157900562288,-0.005933869911343247,-0.001599869272903148
-0.003149027900562287,-0.0062721513368169,-0.001261075296186881
-0.003147897900562288,-0.005933869911343247,-0.001261075296186881
-0.003146767900562288,-0.00559558848586944,-0.001261075296186881
-0.003145637900562288,-0.005933869911343247,-0.001261075296186881
-0.003144507900562287,-0.005595588485869287,-0.0009222813194706275
-0.003143377900562288,-0.005257307060395634,-0.0009222813194706275
-0.003142247900562288,-0.00559558848586944,-0.001261075296186881
-0.003141117900562288,-0.006272151336817054,-0.001261075296186881
-0.003139987900562288,-0.006272151336817054,-0.0005834873427546683
-0.003138857900562288,-0.005933869911343247,-0.0009222813194706275
-0.003137727900562288,-0.00559558848586944,-0.001261075296186881
-0.003136597900562288,-0.005933869911343401,-0.001599869272902994
-0.003135467900562288,-0.0062721513368169,-0.001261075296187035
-0.003134337900562288,-0.005933869911343247,-0.001261075296186881
-0.003133207900562288,-0.005933869911343247,-0.001261075296186881
-0.003132077900562288,-0.00559558848586944,-0.0009222813194707816
-0.003130947900562288,-0.00559558848586944,-0.001261075296186727
-0.003129817900562288,-0.005933869911343247,-0.001261075296186881
-0.003128687900562288,-0.005933869911343247,-0.001599869272903148
-0.003127557900562287,-0.005595588485869287,-0.001599869272902994
-0.003126427900562288,-0.005257307060395634,-0.001261075296186881
-0.003125297900562288,-0.005933869911343247,-0.0009222813194706275
-0.003124167900562288,-0.006272151336817054,-0.001261075296186881
-0.003123037900562287,-0.005595588485869594,-0.001261075296187035
-0.003121907900562288,-0.005933869911343247,-0.001599869272903148
-0.003120777900562288,-0.005933869911343247,-0.001261075296186881
-0.003119647900562288,-0.006272151336817054,-0.0009222813194706275
-0.003118517900562288,-0.005933869911343401,-0.001261075296186727
-0.003117387900562288,-0.005933869911343247,-0.001599869272903148
-0.003116257900562288,-0.00559558848586944,-0.001261075296186881
-0.003115127900562288,-0.0062721513368169,-0.001261075296186881
-0.003113997900562288,-0.005933869911343401,-0.001261075296186881
-0.003112867900562288,-0.005933869911343247,-0.0009222813194706275
-0.003111737900562288,-0.005933869911343247,-0.001261075296186881
-0.003110607900562288,-0.0062721513368169,-0.001261075296186881
-0.003109477900562288,-0.005933869911343401,-0.001261075296186881
-0.003108347900562288,-0.00559558848586944,-0.001599869272903148
-0.003107217900562288,-0.005933869911343247,-0.001261075296186881
-0.003106087900562288,-0.005933869911343247,-0.0009222813194706275
-0.003104957900562288,-0.005933869911343247,-0.0009222813194706275
-0.003103827900562288,-0.006272151336817054,-0.001261075296186881
-0.003102697900562288,-0.005933869911343247,-0.001599869272903148
-0.003101567900562287,-0.005595588485869748,-0.001261075296186881
-0.003100437900562288,-0.006272151336817054,-0.001261075296186881
-0.003099307900562288,-0.005933869911343247,-0.001261075296186881
-0.003098177900562288,-0.005933869911343247,-0.001261075296186881
-0.003097047900562288,-0.005933869911343247,-0.0009222813194707816
-0.003095917900562288,-0.006272151336817054,-0.0009222813194706275
-0.003094787900562288,-0.005933869911343247,-0.0009222813194706275
-0.003093657900562288,-0.005933869911343247,-0.001261075296186881
-0.003092527900562288,-0.005933869911343247,-0.001261075296186881
-0.003091397900562288,-0.00559558848586944,-0.001599869272903148
-0.003090267900562288,-0.005933869911343247,-0.001261075296186881
-0.003089137900562288,-0.005595588485869748,-0.0009222813194709357
-0.003088007900562288,-0.006272151336816746,-0.00159986927290284
-0.003086877900562288,-0.005933869911343247,-0.001261075296186881
-0.003085747900562288,-0.005933869911343247,-0.0009222813194706275
-0.003084617900562288,-0.005595588485869594,-0.001261075296186881
-0.003083487900562288,-0.005933869911343093,-0.001261075296186881
-0.003082357900562288,-0.005933869911343247,-0.001599869272903148
-0.003081227900562288,-0.00559558848586944,-0.001261075296186881
-0.003080097900562287,-0.005933869911343093,-0.00159986927290284
-0.003078967900562288,-0.00559558848586944,-0.0009222813194706275
-0.003077837900562288,-0.00559558848586944,-0.0005834873427543602
-0.003076707900562288,-0.005933869911343247,-0.0005834873427543602
-0.003075577900562288,-0.005933869911343247,-0.0009222813194704735
-0.003074447900562288,-0.005933869911343247,-0.0009222813194706275
-0.003073317900562288,-0.005933869911343247,-0.001261075296186881
-0.003072187900562288,-0.00559558848586944,-0.001261075296186881
-0.003071057900562288,-0.00559558848586944,-0.001261075296186881
-0.003069927900562288,-0.00559558848586944,-0.0009222813194706275
-0.003068797900562288,-0.005933869911343247,-0.001261075296186881
-0.003067667900562288,-0.006272151336817054,-0.0009222813194707816
-0.003066537900562288,-0.006272151336817054,-0.001261075296186727
-0.003065407900562288,-0.005933869911343247,-0.001261075296186881
-0.003064277900562288,-0.006272151336817054,-0.001261075296186881
-0.003063147900562288,-0.005595588485869594,-0.0009222813194707816
-0.003062017900562288,-0.005933869911343093,-0.001261075296186727
-0.003060887900562288,-0.005933869911343247,-0.0009222813194706275
-0.003059757900562288,-0.005933869911343247,-0.0005834873427543602
-0.003058627900562287,-0.005933869911343247,-0.0005834873427545143
-0.003057497900562288,-0.005933869911343247,-0.0009222813194706275
-0.003056367900562288,-0.00559558848586944,-0.001261075296186881
-0.003055237900562288,-0.006272151336817054,-0.0009222813194706275
-0.003054107900562288,-0.005933869911343401,-0.0009222813194706275
-0.003052977900562288,-0.006272151336817054,-0.001261075296186881
-0.003051847900562288,-0.005933869911343247,-0.001261075296186881
-0.003050717900562288,-0.005257307060395787,-0.0009222813194706275
-0.003049587900562288,-0.005595588485869287,-0.0009222813194706275
-0.003048457900562288,-0.006272151336817054,-0.0009222813194706275
-0.003047327900562288,-0.006272151336817054,-0.0009222813194706275
-0.003046197900562288,-0.005933869911343247,-0.001261075296186881
-0.003045067900562288,-0.005933869911343247,-0.001261075296186881
-0.003043937900562288,-0.006272151336817054,-0.001261075296186881
-0.003042807900562288,-0.005933869911343247,-0.0005834873427543602
-0.003041677900562288,-0.005933869911343247,-0.0009222813194706275
-0.003040547900562288,-0.005933869911343247,-0.0009222813194706275
-0.003039417900562288,-0.005933869911343247,-0.001261075296186881
-0.003038287900562288,-0.00559558848586944,-0.001261075296186881
-0.003037157900562287,-0.005933869911343093,-0.001599869272903302
-0.003036027900562288,-0.00559558848586944,-0.001938663249619402
-0.003034897900562288,-0.005933869911343247,-0.001599869272903148
-0.003033767900562288,-0.005933869911343247,-0.001261075296186881
-0.003032637900562288,-0.005595588485869594,-0.001261075296186881
-0.003031507900562288,-0.00559558848586944,-0.0009222813194706275
-0.003030377900562288,-0.005933869911343247,-0.0009222813194706275
-0.003029247900562288,-0.005933869911343093,-0.001261075296186881
-0.003028117900562288,-0.005595588485869594,-0.001261075296186881
-0.003026987900562288,-0.005933869911343247,-0.001599869272903148
-0.003025857900562288,-0.005933869911343247,-0.001261075296186881
-0.003024727900562288,-0.005933869911343247,-0.0009222813194704735
-0.003023597900562288,-0.005933869911343247,-0.0005834873427545143
-0.003022467900562288,-0.00559558848586944,-0.0009222813194706275
-0.003021337900562288,-0.005933869911343247,-0.0009222813194706275
-0.003020207900562288,-0.006272151336817054,-0.0009222813194706275
-0.003019077900562288,-0.006272151336817054,-0.0009222813194706275
-0.003017947900562288,-0.006272151336817054,-0.001261075296186881
-0.003016817900562288,-0.005257307060395634,-0.001261075296186881
-0.003015687900562287,-0.00559558848586944,-0.001261075296186727
-0.003014557900562288,-0.00559558848586944,-0.0009222813194706275
-0.003013427900562288,-0.00559558848586944,-0.0009222813194706275
-0.003012297900562288,-0.005933869911343247,-0.0005834873427543602
-0.003011167900562288,-0.005933869911343247,-0.0009222813194704735
-0.003010037900562288,-0.005933869911343247,-0.0005834873427543602
-0.003008907900562288,-0.00559558848586944,-0.001261075296186881
-0.003007777900562288,-0.006610432762290552,-0.0005834873427545143
-0.003006647900562288,-0.005933869911343555,-0.0009222813194704735
-0.003005517900562288,-0.006272151336817054,-0.0009222813194706275
-0.003004387900562288,-0.005933869911343247,-0.001599869272903148
-0.003003257900562288,-0.005595588485869594,-0.001261075296186881
-0.003002127900562288,-0.005933869911343093,-0.001261075296186881
-0.003000997900562288,-0.005933869911343247,-0.0009222813194706275
-0.002999867900562288,-0.005933869911343247,-0.001261075296186881
-0.002998737900562288,-0.005933869911343093,-0.001261075296186881
-0.002997607900562288,-0.005595588485869594,-0.001261075296186881
-0.002996477900562288,-0.006272151336817054,-0.0009222813194706275
-0.002995347900562288,-0.005933869911343247,-0.0009222813194706275
-0.002994217900562287,-0.005933869911343247,-0.001261075296186881
-0.002993087900562288,-0.005933869911343247,-0.001261075296186881
-0.002991957900562288,-0.00559558848586944,-0.0009222813194706275
-0.002990827900562288,-0.00559558848586944,-0.0009222813194706275
-0.002989697900562288,-0.005933869911343093,-0.001261075296186727
-0.002988567900562288,-0.005933869911343247,-0.001261075296186881
-0.002987437900562288,-0.005933869911343247,-0.0009222813194706275
-0.002986307900562288,-0.005595588485869748,-0.0009222813194706275
-0.002985177900562288,-0.006272151336816746,-0.0009222813194706275
-0.002984047900562288,-0.006272151336817054,-0.0009222813194706275
-0.002982917900562288,-0.006272151336817054,-0.001261075296186881
-0.002981787900562288,-0.005933869911343401,-0.0009222813194704735
-0.002980657900562288,-0.0062721513368169,-0.0005834873427545143
-0.002979527900562288,-0.006272151336817054,-0.0009222813194706275
-0.002978397900562288,-0.005933869911343247,-0.001261075296186881
-0.002977267900562288,-0.0062721513368169,-0.001261075296186727
-0.002976137900562288,-0.005933869911343401,-0.0009222813194707816
-0.002975007900562288,-0.005933869911343247,-0.001261075296186881
-0.002973877900562288,-0.00559558848586944,-0.001261075296186881
-0.002972747900562287,-0.005933869911343247,-0.0005834873427543602
-0.002971617900562288,-0.005933869911343247,-0.0005834873427543602
-0.002970487900562288,-0.005933869911343247,-0.0005834873427543602
-0.002969357900562288,-0.005933869911343247,-0.0009222813194706275
-0.002968227900562288,-0.005933869911343247,-0.001261075296186727
-0.002967097900562288,-0.005933869911343247,-0.001261075296186881
-0.002965967900562288,-0.005933869911343247,-0.001261075296186881
-0.002964837900562288,-0.005933869911343401,-0.001599869272903148
-0.002963707900562288,-0.0062721513368169,-0.001599869272903148
-0.002962577900562288,-0.005257307060395634,-0.001261075296186881
-0.002961447900562288,-0.006272151336817054,-0.001261075296186881
-0.002960317900562288,-0.006272151336816746,-0.0005834873427545143
-0.002959187900562288,-0.005595588485869748,-0.0009222813194704735
-0.002958057900562288,-0.00559558848586944,-0.0002446933660381068
-0.002956927900562288,-0.005933869911343247,-0.0005834873427543602
-0.002955797900562288,-0.0062721513368169,-0.0005834873427543602
-0.002954667900562288,-0.005933869911343401,-0.0005834873427543602
-0.002953537900562288,-0.005933869911343247,-0.001261075296186881
-0.002952407900562288,-0.005933869911343247,-0.001261075296186881
-0.002951277900562287,-0.00559558848586944,-0.0005834873427545143
-0.002950147900562288,-0.00559558848586944,-0.0009222813194706275
-0.002949017900562288,-0.00559558848586944,-0.001261075296186881
-0.002947887900562288,-0.005933869911343247,-0.0009222813194706275
-0.002946757900562288,-0.0062721513368169,-0.0009222813194706275
-0.002945627900562288,-0.005933869911343247,-0.0005834873427543602
-0.002944497900562288,-0.005933869911343247,-0.0005834873427543602
-0.002943367900562288,-0.00559558848586944,-0.001261075296186881
-0.002942237900562288,-0.005933869911343093,-0.001261075296186881
-0.002941107900562288,-0.005933869911343247,-0.001261075296186881
-0.002939977900562288,-0.005933869911343247,-0.001261075296186881
-0.002938847900562288,-0.005933869911343401,-0.0005834873427546683
-0.002937717900562288,-0.0062721513368169,-0.001261075296186573
-0.002936587900562288,-0.005933869911343247,-0.001261075296186881
-0.002935457900562288,-0.005933869911343247,-0.001261075296186881
-0.002934327900562288,-0.00559558848586944,-0.0005834873427545143
-0.002933197900562288,-0.00559558848586944,-0.0009222813194704735
-0.002932067900562288,-0.005933869911343247,-0.001599869272903148
-0.002930937900562288,-0.005933869911343247,-0.0009222813194706275
-0.002929807900562287,-0.005933869911343247,-0.001599869272902994
-0.002928677900562288,-0.005933869911343247,-0.001261075296186881
-0.002927547900562288,-0.005933869911343247,-0.001261075296186881
-0.002926417900562288,-0.005933869911343247,-0.001599869272903148
-0.002925287900562288,-0.005933869911343247,-0.001261075296187035
-0.002924157900562288,-0.005933869911343247,-0.001261075296186881
-0.002923027900562288,-0.006272151336817054,-0.0005834873427543602
-0.002921897900562288,-0.005933869911343247,-0.001261075296186881
-0.002920767900562288,-0.0062721513368169,-0.001261075296186881
-0.002919637900562288,-0.006272151336817054,-0.001599869272903148
-0.002918507900562288,-0.005933869911343247,-0.0005834873427543602
-0.002917377900562288,-0.005595588485869748,-0.001261075296186881
-0.002916247900562288,-0.006272151336816746,-0.001261075296186881
-0.002915117900562288,-0.005933869911343247,-0.001261075296186881
-0.002913987900562288,-0.005933869911343247,-0.001599869272903148
-0.002912857900562288,-0.005595588485869594,-0.00159986927290284
-0.002911727900562288,-0.005933869911343093,-0.0009222813194709357
-0.002910597900562288,-0.005933869911343247,-0.0009222813194706275
-0.002909467900562288,-0.005933869911343247,-0.0009222813194706275
-0.002908337900562287,-0.005933869911343247,-0.0009222813194707816
-0.002907207900562288,-0.005933869911343247,-0.001261075296186881
-0.002906077900562288,-0.00559558848586944,-0.001261075296186881
-0.002904947900562288,-0.006272151336817054,-0.001261075296186881
-0.002903817900562287,-0.0062721513368169,-0.0009222813194706275
-0.002902687900562288,-0.005933869911343247,-0.0009222813194706275
-0.002901557900562288,-0.005933869911343247,-0.0009222813194706275
-0.002900427900562288,-0.006272151336817054,-0.0009222813194706275
-0.002899297900562288,-0.005933869911343401,-0.0005834873427545143
-0.002898167900562288,-0.005933869911343247,-0.0009222813194706275
-0.002897037900562288,-0.006272151336817054,-0.0005834873427543602
-0.002895907900562288,-0.005933869911343247,-0.0005834873427545143
-0.002894777900562288,-0.005933869911343247,-0.0009222813194704735
-0.002893647900562288,-0.00559558848586944,-0.0009222813194706275
-0.002892517900562288,-0.00559558848586944,-0.0009222813194706275
-0.002891387900562288,-0.005933869911343093,-0.0009222813194706275
-0.002890257900562288,-0.005595588485869594,-0.0009222813194706275
-0.002889127900562288,-0.00559558848586944,-0.001261075296186881
-0.002887997900562288,-0.00559558848586944,-0.001261075296186881
-0.002886867900562287,-0.006272151336817054,-0.0009222813194706275
-0.002885737900562288,-0.006272151336817054,-0.0009222813194706275
-0.002884607900562288,-0.005933869911343247,-0.0009222813194706275
-0.002883477900562288,-0.005933869911343247,-0.0005834873427543602
-0.002882347900562287,-0.005933869911343093,-0.0009222813194707816
-0.002881217900562288,-0.00559558848586944,-0.001261075296186881
-0.002880087900562288,-0.006272151336817054,-0.0005834873427543602
-0.002878957900562288,-0.005933869911343247,-0.0009222813194706275
-0.002877827900562288,-0.005933869911343247,-0.0009222813194706275
-0.002876697900562288,-0.005933869911343247,-0.0005834873427543602
-0.002875567900562288,-0.005933869911343247,-0.001261075296186881
-0.002874437900562288,-0.005933869911343247,-0.001261075296186727
-0.002873307900562288,-0.005933869911343247,-0.0009222813194707816
-0.002872177900562288,-0.006272151336817054,-0.0009222813194706275
-0.002871047900562288,-0.006272151336817054,-0.001261075296186881
-0.002869917900562288,-0.005933869911343247,-0.0005834873427545143
-0.002868787900562288,-0.005933869911343247,-0.0009222813194704735
-0.002867657900562288,-0.00559558848586944,-0.001599869272903148
-0.002866527900562288,-0.005933869911343247,-0.001261075296186881
-0.002865397900562287,-0.005933869911343093,-0.001261075296186727
