Paper2024_SSW/ResultadosOndaP/ResultadosVelocidadOndaPSueloCeramica/ProbetaM2_56_Run#1.csv

#Digilent WaveForms Oscilloscope Acquisition
#Device Name: Discovery2
#Serial Number: SN:210321AD1806
#Date Time: 2023-11-17 18:38:46.193
#Sample rate: 884956Hz
#Samples: 8192
#Trigger: Source: Channel 2 Type: Edge Condition: Rising Level: 135 mV Hyst.: Auto HoldOff: 0 s
#Channel 1: Range: 20 mV/div Offset: 8 mV Attenuation: 1 X Sample Mode: Average
#Channel 2: Range: 100 mV/div Offset: 35 mV Attenuation: 1 X Sample Mode: Average

Time (s),Channel 1 (V),Channel 2 (V)
-0.003197738971990859,-0.001383372283155627,-0.0004086567321276227
-0.003196608971990859,-3.024658126040032e-05,-0.0004086567321276227
-0.00319547897199086,-3.024658126040032e-05,-0.0004086567321276227
-0.003194348971990859,-3.024658126040032e-05,-0.0004086567321276227
-0.003193218971990859,-0.0007068094322080134,-0.0007474507088438831
-0.003192088971990859,-3.024658126086182e-05,-0.000747450708843729
-0.00319095897199086,-0.001045090857681821,-0.0004086567321276227
-0.003189828971990859,-0.0003685280067342069,-0.0004086567321276227
-0.003188698971990859,-0.001383372283155627,-0.0004086567321276227
-0.00318756897199086,-3.024658126101571e-05,-0.0004086567321276227
-0.00318643897199086,-0.001045090857681821,-0.0007474507088438831
-0.003185308971990859,-0.0007068094322080134,-0.0004086567321276227
-0.003184178971990859,-0.001383372283155627,-6.986275541136233e-05
-0.00318304897199086,-0.0003685280067346683,-0.0004086567321274686
-0.003181918971990859,-0.002059935134103241,-0.0004086567321276227
-0.003180788971990859,-0.0007068094322080134,-0.0004086567321276227
-0.003179658971990859,-0.000368528006734053,-6.98627554115164e-05
-0.00317852897199086,-3.024658126055417e-05,-0.0004086567321274686
-0.003177398971990859,-0.0007068094322080134,-6.986275541136233e-05
-0.003176268971990859,-3.024658126040032e-05,-6.986275541136233e-05
-0.003175138971990859,-0.0007068094322075518,-0.001086244685560143
-0.00317400897199086,0.0003080348442129448,-0.001086244685560143
-0.003172878971990859,-0.001383372283155627,-0.0007474507088438831
-0.003171748971990859,-3.024658126040032e-05,-0.0007474507088438831
-0.003170618971990859,-0.001045090857681667,-0.000747450708843729
-0.00316948897199086,-0.0007068094322080134,-0.0004086567321276227
-0.003168358971990859,-0.001383372283155627,-6.986275541136233e-05
-0.003167228971990859,-0.001383372283155627,-0.0004086567321276227
-0.00316609897199086,-0.001383372283155627,-0.000747450708843729
-0.00316496897199086,-0.001383372283155627,-0.0007474507088438831
-0.003163838971990859,-0.0007068094322080134,-0.0004086567321276227
-0.003162708971990859,-0.001383372283155627,-0.0004086567321276227
-0.00316157897199086,-0.0007068094322083211,-0.0004086567321276227
-0.003160448971990859,-0.0007068094322080134,-0.0004086567321276227
-0.003159318971990859,-0.0003685280067342069,-0.0004086567321276227
-0.003158188971990859,-3.024658126055415e-05,-0.000747450708843729
-0.00315705897199086,-0.000368528006734053,-0.0004086567321277768
-0.003155928971990859,0.0006463162696872127,-0.0004086567321276227
-0.003154798971990859,-0.0003685280067342069,-0.0007474507088438831
-0.003153668971990859,-0.001383372283155627,-6.98627554115164e-05
-0.00315253897199086,-0.001383372283155627,-0.0004086567321274686
-0.003151408971990859,-0.001383372283155627,-0.0004086567321276227
-0.003150278971990859,-0.001383372283155627,-0.0007474507088438831
-0.003149148971990859,-0.001383372283155781,-6.98627554115164e-05
-0.00314801897199086,-0.001721653708629434,-0.0004086567321276227
-0.003146888971990859,-0.001045090857681821,-0.0004086567321276227
-0.003145758971990859,-0.001383372283155627,-0.0004086567321276227
-0.003144628971990859,-0.0007068094322083211,-0.0004086567321279308
-0.00314349897199086,-0.001383372283155627,-0.001086244685560143
-0.003142368971990859,-3.024658126040032e-05,-0.0007474507088438831
-0.003141238971990859,-0.001045090857681821,-0.0007474507088438831
-0.00314010897199086,-0.001045090857681821,-0.0004086567321277768
-0.003138978971990859,-0.0003685280067342069,-0.0004086567321276227
-0.003137848971990859,-0.0003685280067342069,-0.0007474507088438831
-0.003136718971990859,-0.0003685280067345145,-0.0004086567321277768
-0.00313558897199086,-0.001045090857681513,-0.000747450708843729
-0.003134458971990859,-0.0003685280067342069,-0.0007474507088438831
-0.003133328971990859,-0.001721653708629434,-0.0007474507088438831
-0.003132198971990859,-0.0007068094322083211,-0.0007474507088438831
-0.00313106897199086,-0.00138337228315532,-0.0007474507088438831
-0.003129938971990859,-0.0007068094322080134,-0.0007474507088438831
-0.003128808971990859,-0.001721653708629434,-0.0007474507088438831
-0.003127678971990859,-0.00138337228315532,-6.98627554115164e-05
-0.00312654897199086,-0.0007068094322080134,-0.0004086567321276227
-0.003125418971990859,-0.0007068094322080134,-0.0007474507088438831
-0.003124288971990859,-0.0003685280067342069,-0.0007474507088438831
-0.003123158971990859,-0.001045090857681667,-0.001086244685559835
-0.00312202897199086,-0.0007068094322080134,-0.0004086567321276227
-0.003120898971990859,-0.0003685280067342069,-0.0004086567321276227
-0.003119768971990859,-0.0003685280067342069,-0.0007474507088438831
-0.00311863897199086,-0.0007068094322078595,-0.0007474507088438831
-0.003117508971990859,-0.0007068094322080134,-0.0004086567321276227
-0.003116378971990859,-0.0007068094322080134,-6.986275541136233e-05
-0.003115248971990859,-0.0007068094322078595,-6.98627554115164e-05
-0.00311411897199086,-0.0003685280067343607,-0.0004086567321274686
-0.003112988971990859,-0.001383372283155627,-0.0004086567321276227
-0.003111858971990859,-0.0007068094322080134,-0.0007474507088438831
-0.003110728971990859,-0.0007068094322081672,-0.000747450708843729
-0.00310959897199086,-0.001045090857681667,-0.0004086567321277768
-0.003108468971990859,-0.001045090857681821,-6.986275541136233e-05
-0.003107338971990859,-0.0007068094322080134,-0.0007474507088438831
-0.003106208971990859,-0.0003685280067345145,-0.000747450708843729
-0.00310507897199086,-0.001045090857681513,-0.0004086567321277768
-0.003103948971990859,-0.0007068094322080134,-0.0004086567321276227
-0.003102818971990859,-0.001045090857681821,-6.986275541136233e-05
-0.003101688971990859,-0.001383372283155474,-0.0004086567321277768
-0.00310055897199086,-0.001045090857681821,-0.0007474507088438831
-0.003099428971990859,-0.0007068094322080134,-0.001086244685560143
-0.003098298971990859,-0.0007068094322080134,-0.0007474507088438831
-0.00309716897199086,-0.0007068094322080134,-0.0004086567321277768
-0.00309603897199086,-3.024658126040032e-05,-0.0007474507088438831
-0.003094908971990859,-0.0003685280067342069,-0.0004086567321276227
-0.003093778971990859,-0.0003685280067343607,-6.98627554115164e-05
-0.00309264897199086,-0.0007068094322078595,-0.0004086567321274686
-0.003091518971990859,-0.0003685280067342069,-0.0007474507088438831
-0.003090388971990859,-0.001045090857681821,-0.001086244685560143
-0.003089258971990859,-0.0007068094322081672,-0.0007474507088441912
-0.00308812897199086,-0.001045090857681667,-0.001425038662276096
-0.003086998971990859,-0.001383372283155627,-0.0004086567321276227
-0.003085868971990859,-0.0003685280067342069,-0.0004086567321276227
-0.003084738971990859,-0.0007068094322078595,-0.0007474507088438831
-0.00308360897199086,-0.0003685280067343607,-0.0007474507088438831
-0.003082478971990859,-0.0003685280067342069,-6.986275541136233e-05
-0.003081348971990859,-3.024658126040032e-05,-0.0004086567321276227
-0.003080218971990859,-0.0007068094322078595,-6.98627554115164e-05
-0.00307908897199086,-0.0003685280067342069,-0.0004086567321276227
-0.003077958971990859,-3.024658126040032e-05,-0.001086244685560143
-0.003076828971990859,-3.024658126040032e-05,-0.0007474507088438831
-0.00307569897199086,-0.0007068094322077057,-0.0007474507088438831
-0.00307456897199086,-0.0003685280067342069,-6.986275541136233e-05
-0.003073438971990859,-0.001045090857681821,-0.0004086567321276227
-0.003072308971990859,-0.0003685280067342069,-0.0004086567321274686
-0.00307117897199086,-0.0003685280067342069,-6.98627554115164e-05
-0.003070048971990859,-0.0007068094322080134,-0.0004086567321276227
-0.003068918971990859,-0.001045090857681821,-0.0004086567321276227
-0.003067788971990859,-0.0003685280067345145,-0.0004086567321276227
-0.00306665897199086,-0.001045090857681513,-0.0004086567321276227
-0.003065528971990859,-0.0007068094322080134,-0.0004086567321276227
-0.003064398971990859,-0.0007068094322080134,-0.0007474507088438831
-0.003063268971990859,-3.024658126055415e-05,-0.0004086567321274686
-0.00306213897199086,-0.000368528006734053,-6.98627554115164e-05
-0.003061008971990859,-0.0003685280067342069,-0.0007474507088438831
-0.003059878971990859,-0.0007068094322080134,-0.0007474507088438831
-0.003058748971990859,-0.0007068094322081672,-0.0007474507088438831
-0.00305761897199086,-0.001045090857681821,-0.0007474507088438831
-0.003056488971990859,-0.001045090857681821,-0.0004086567321276227
-0.003055358971990859,-0.0007068094322080134,-0.0004086567321276227
-0.00305422897199086,-3.024658126070802e-05,-0.000747450708843729
-0.00305309897199086,-0.001383372283155627,-0.0007474507088438831
-0.003051968971990859,-0.0007068094322080134,-0.0004086567321276227
-0.003050838971990859,-0.0007068094322083211,-0.0004086567321276227
-0.00304970897199086,-0.00138337228315532,-0.0004086567321276227
-0.003048578971990859,-0.0007068094322080134,-6.986275541136233e-05
-0.003047448971990859,-3.024658126040032e-05,-6.986275541136233e-05
-0.003046318971990859,-0.0007068094322080134,0.0002689312213045899
-0.00304518897199086,-0.0007068094322080134,-0.0004086567321273146
-0.003044058971990859,-0.001045090857681821,-0.0004086567321276227
-0.003042928971990859,-0.0007068094322080134,-0.0004086567321276227
-0.003041798971990859,-0.001045090857681667,-6.98627554115164e-05
-0.00304066897199086,-0.0007068094322081672,-0.0004086567321274686
-0.003039538971990859,-0.0003685280067342069,-0.0007474507088438831
-0.003038408971990859,-0.0007068094322080134,-0.0007474507088438831
-0.003037278971990859,-0.001045090857681821,-0.0004086567321276227
-0.00303614897199086,-0.001045090857681821,-0.0004086567321276227
-0.003035018971990859,-0.0007068094322080134,-0.0007474507088438831
-0.003033888971990859,-0.001383372283155627,-0.0004086567321276227
-0.00303275897199086,-0.001383372283155627,-0.0004086567321276227
-0.00303162897199086,-0.0007068094322080134,-0.0004086567321276227
-0.003030498971990859,-0.0007068094322080134,-0.0007474507088438831
-0.003029368971990859,-0.0007068094322081672,-0.0004086567321274686
-0.00302823897199086,-0.001045090857681667,-6.98627554115164e-05
-0.003027108971990859,-0.0003685280067342069,-0.0004086567321276227
-0.003025978971990859,-0.0003685280067342069,-0.0007474507088438831
-0.003024848971990859,-0.001045090857681359,-0.0004086567321276227
-0.00302371897199086,-3.024658126086176e-05,-0.0004086567321276227
-0.003022588971990859,-0.0003685280067342069,-0.0004086567321276227
-0.003021458971990859,-0.0003685280067342069,-6.986275541136233e-05
-0.003020328971990859,-0.0003685280067343607,-6.986275541167046e-05
-0.00301919897199086,-0.0007068094322078595,-0.000747450708843575
-0.003018068971990859,-0.0007068094322080134,-0.001086244685560143
-0.003016938971990859,-0.0003685280067342069,-0.0007474507088438831
-0.003015808971990859,-0.001045090857681821,-0.000747450708843729
-0.00301467897199086,-0.001045090857681821,-0.0004086567321276227
-0.003013548971990859,-0.001383372283155627,0.000268931221304898
-0.003012418971990859,-0.0003685280067342069,-0.0004086567321276227
-0.00301128897199086,-3.024658126055417e-05,-0.0004086567321276227
-0.00301015897199086,-3.024658126040032e-05,-0.0007474507088438831
-0.003009028971990859,-0.0003685280067342069,-0.0007474507088438831
-0.003007898971990859,-0.0003685280067345145,-0.000747450708843575
-0.00300676897199086,-0.001045090857681513,-6.986275541167046e-05
-0.003005638971990859,-0.001383372283155627,-6.986275541136233e-05
-0.003004508971990859,-0.002059935134103241,-0.0004086567321276227
-0.003003378971990859,-0.001045090857681513,-0.000747450708843729
-0.00300224897199086,-0.0003685280067345145,-0.0004086567321277768
-0.003001118971990859,-0.001045090857681821,-0.0004086567321276227
-0.002999988971990859,-3.024658126040032e-05,-0.0004086567321276227
-0.002998858971990859,-0.001045090857681667,-0.0004086567321274686
-0.00299772897199086,-0.0007068094322081672,-6.98627554115164e-05
-0.002996598971990859,-0.0003685280067342069,-6.986275541136233e-05
-0.002995468971990859,-3.024658126040032e-05,-0.0004086567321276227
-0.002994338971990859,0.0003080348442132524,-0.0007474507088438831
-0.00299320897199086,-3.024658126040032e-05,-0.0007474507088438831
-0.002992078971990859,-0.0007068094322080134,-0.0004086567321276227
-0.002990948971990859,-0.0003685280067342069,-0.0004086567321276227
-0.00298981897199086,-0.001045090857681513,-0.0004086567321276227
-0.00298868897199086,-0.001045090857681821,-0.0007474507088438831
-0.002987558971990859,-0.001383372283155627,-0.0007474507088438831
-0.002986428971990859,-0.0007068094322081672,-0.0004086567321276227
-0.00298529897199086,-0.001045090857681667,-0.0004086567321276227
-0.002984168971990859,-0.0007068094322080134,-6.986275541136233e-05
-0.002983038971990859,-0.001045090857681821,-0.0007474507088438831
-0.002981908971990859,-0.001045090857681821,-0.000747450708843729
-0.00298077897199086,-0.001045090857681821,-0.0004086567321277768
-0.002979648971990859,-0.001045090857681821,-0.0004086567321276227
-0.002978518971990859,-0.0003685280067342069,-0.0007474507088438831
-0.002977388971990859,-0.0003685280067338992,-0.0007474507088438831
-0.00297625897199086,0.0003080348442130985,-0.0007474507088438831
-0.002975128971990859,-0.0007068094322080134,-0.0007474507088438831
-0.002973998971990859,-0.0003685280067342069,-0.0007474507088438831
-0.002972868971990859,-0.00172165370862928,-0.0004086567321277768
-0.00297173897199086,-0.001383372283155627,-0.0007474507088438831
-0.002970608971990859,-0.001383372283155627,-0.0007474507088438831
-0.002969478971990859,-0.001045090857681821,-0.0004086567321276227
-0.00296834897199086,-0.001383372283155473,-0.000747450708843729
-0.00296721897199086,-0.001045090857681821,-0.0004086567321276227
-0.002966088971990859,-0.001721653708629434,-0.0004086567321276227
-0.002964958971990859,-0.001383372283155166,-0.0007474507088438831
-0.00296382897199086,-0.0003685280067346683,-0.0007474507088438831
-0.002962698971990859,-0.0003685280067342069,-0.0007474507088438831
-0.002961568971990859,0.0003080348442134062,-0.0007474507088438831
-0.002960438971990859,-0.0007068094322077057,-0.0007474507088438831
-0.00295930897199086,-3.024658126070802e-05,-0.0007474507088438831
-0.002958178971990859,-0.0007068094322080134,-0.0004086567321276227
-0.002957048971990859,-0.001045090857681821,-0.0007474507088438831
-0.002955918971990859,-0.0003685280067343607,-0.000747450708843575
-0.00295478897199086,-0.0007068094322078595,-6.986275541167046e-05
-0.002953658971990859,0.0003080348442134062,-6.986275541136233e-05
-0.002952528971990859,-0.001045090857681821,-0.001086244685560143
-0.002951398971990859,-0.0003685280067345145,-0.000747450708843729
-0.00295026897199086,-0.001045090857681821,-0.0004086567321276227
-0.002949138971990859,-0.0003685280067342069,-6.986275541136233e-05
-0.002948008971990859,-3.024658126040032e-05,-6.986275541136233e-05
-0.00294687897199086,-0.0007068094322077057,-6.986275541136233e-05
-0.00294574897199086,-0.0003685280067342069,-0.0004086567321276227
-0.002944618971990859,-0.001383372283155627,-0.0004086567321276227
-0.002943488971990859,-0.0003685280067342069,-0.0007474507088438831
-0.00294235897199086,-0.001383372283155166,-0.0004086567321277768
-0.002941228971990859,-3.024658126040032e-05,-0.0004086567321276227
-0.002940098971990859,-0.0003685280067342069,-6.986275541136233e-05
-0.002938968971990859,0.0006463162696864436,-0.000747450708843729
-0.00293783897199086,-0.001045090857681052,-0.0004086567321277768
-0.002936708971990859,-3.024658126040032e-05,-0.0007474507088438831
-0.002935578971990859,-0.0007068094322080134,-0.0004086567321276227
-0.002934448971990859,-0.001721653708629434,-0.0004086567321274686
-0.00293331897199086,-0.001721653708629434,-6.98627554115164e-05
-0.002932188971990859,-0.001383372283155627,-6.986275541136233e-05
-0.002931058971990859,-0.0007068094322080134,-0.0004086567321276227
-0.002929928971990859,-0.001383372283155012,-6.98627554115164e-05
-0.00292879897199086,-3.024658126040032e-05,-0.0004086567321276227
-0.002927668971990859,-0.0003685280067342069,-0.001086244685560143
-0.002926538971990859,-0.0007068094322080134,-0.0007474507088438831
-0.00292540897199086,-0.0003685280067343607,-6.986275541167046e-05
-0.00292427897199086,0.0003080348442134062,-6.986275541136233e-05
-0.002923148971990859,-3.024658126040032e-05,-6.986275541136233e-05
-0.002922018971990859,-3.024658126040032e-05,-0.0004086567321276227
-0.00292088897199086,0.0003080348442132524,-0.000747450708843729
-0.002919758971990859,-0.0003685280067342069,-0.0004086567321276227
-0.002918628971990859,-0.0007068094322080134,-0.0007474507088438831
-0.002917498971990859,-0.001721653708628972,-0.0004086567321276227
-0.00291636897199086,-0.0007068094322084748,-0.0004086567321276227
-0.002915238971990859,-0.001383372283155627,-0.0007474507088438831
-0.002914108971990859,-0.0007068094322080134,-0.001086244685560143
-0.002912978971990859,-0.0007068094322083211,-0.000747450708843729
-0.00291184897199086,-0.00138337228315532,-0.0004086567321277768
-0.002910718971990859,-0.001045090857681821,-0.001086244685560143
-0.002909588971990859,-0.001045090857681821,-0.0004086567321276227
-0.002908458971990859,-3.024658126055415e-05,-0.000747450708843729
-0.00290732897199086,-0.0003685280067342069,-0.0004086567321276227
-0.002906198971990859,-3.024658126040032e-05,-0.0004086567321276227
-0.002905068971990859,0.0003080348442134062,-0.0004086567321276227
-0.002903938971990859,-0.0003685280067348222,-0.0004086567321277768
-0.00290280897199086,-0.001721653708629434,-0.0007474507088438831
-0.002901678971990859,-0.0003685280067342069,-0.0004086567321276227
-0.002900548971990859,-0.0007068094322080134,-0.0007474507088438831
-0.00289941897199086,-0.00138337228315532,-0.00108624468555999
-0.002898288971990859,-0.001383372283155627,-0.0004086567321276227
-0.002897158971990859,-0.001045090857681821,-0.0004086567321276227
-0.002896028971990859,-0.0007068094322084749,-0.000747450708843729
-0.00289489897199086,-0.001721653708628972,-0.0004086567321277768
-0.002893768971990859,-3.024658126040032e-05,-0.0004086567321276227
-0.002892638971990859,-0.0007068094322080134,-0.0007474507088438831
-0.002891508971990859,0.0003080348442129447,-0.0007474507088440372
-0.00289037897199086,-0.0007068094322075519,-0.00108624468555999
-0.002889248971990859,0.0003080348442134062,-0.001086244685560143
-0.002888118971990859,-0.0007068094322080134,-0.0004086567321276227
-0.002886988971990859,-3.024658126055415e-05,-0.0004086567321276227
-0.00288585897199086,-0.000368528006734053,-0.0004086567321276227
-0.002884728971990859,-0.0003685280067342069,-6.986275541136233e-05
-0.002883598971990859,-0.0003685280067342069,-0.0007474507088438831
-0.002882468971990859,-0.00138337228315532,-0.000747450708843729
-0.00288133897199086,-0.0007068094322080134,-0.0004086567321276227
-0.002880208971990859,-0.001045090857681821,-0.0004086567321276227
-0.002879078971990859,-0.0007068094322080134,-0.0004086567321276227
-0.00287794897199086,-0.00138337228315532,-0.000747450708843729
-0.002876818971990859,0.0003080348442134062,-0.0004086567321276227
-0.002875688971990859,-0.0007068094322080134,-0.0004086567321276227
-0.002874558971990859,-0.0003685280067342069,-6.986275541136233e-05
-0.00287342897199086,-0.0003685280067342069,-6.986275541136233e-05
-0.002872298971990859,-0.0007068094322080134,-6.986275541136233e-05
-0.002871168971990859,-0.0003685280067342069,-6.986275541136233e-05
-0.002870038971990859,-0.001045090857681513,-0.0007474507088438831
