ResultadosOndaP/ResultadosVelocidadOndaPSueloCeramica/ProbetaM5_56_Run#3.csv

#Digilent WaveForms Oscilloscope Acquisition
#Device Name: Discovery2
#Serial Number: SN:210321AD1806
#Date Time: 2023-11-17 19:04:24.165
#Sample rate: 884956Hz
#Samples: 8192
#Trigger: Source: Channel 2 Type: Edge Condition: Rising Level: 135 mV Hyst.: Auto HoldOff: 0 s
#Channel 1: Range: 20 mV/div Offset: 8 mV Attenuation: 1 X Sample Mode: Average
#Channel 2: Range: 100 mV/div Offset: 35 mV Attenuation: 1 X Sample Mode: Average

Time (s),Channel 1 (V),Channel 2 (V)
-0.003197335400562288,-0.0003685280067342069,-0.001425038662276404
-0.003196205400562287,-0.0003685280067343607,-0.001425038662276096
-0.003195075400562288,-0.0007068094322078595,-0.0007474507088441912
-0.003193945400562288,-0.0003685280067342069,-0.0004086567321276227
-0.003192815400562288,-0.0007068094322080134,-0.0007474507088438831
-0.003191685400562287,-0.001045090857681667,-0.0004086567321276227
-0.003190555400562288,-0.0007068094322080134,-0.0004086567321276227
-0.003189425400562288,-0.0007068094322080134,-0.0004086567321276227
-0.003188295400562288,-0.0007068094322080134,-0.0007474507088438831
-0.003187165400562288,-0.0007068094322080134,-0.00108624468555999
-0.003186035400562288,-0.001045090857681821,-0.001086244685560143
-0.003184905400562288,-0.0007068094322080134,-0.001425038662276404
-0.003183775400562288,-0.0007068094322080134,-0.001086244685560143
-0.003182645400562288,-0.001045090857681667,-0.001086244685560143
-0.003181515400562288,-0.0007068094322080134,-0.0007474507088438831
-0.003180385400562288,-0.001045090857681821,-0.0007474507088438831
-0.003179255400562288,-0.001383372283155627,-0.001086244685560298
-0.003178125400562288,-0.001383372283155627,-0.00142503866227625
-0.003176995400562288,-0.001045090857681821,-0.001425038662276404
-0.003175865400562288,-0.001045090857681821,-0.0007474507088438831
-0.003174735400562287,-0.001045090857681821,-0.001425038662276404
-0.003173605400562288,-0.001045090857681821,-0.001425038662276404
-0.003172475400562288,-0.0007068094322080134,-0.001086244685560143
-0.003171345400562288,-0.0007068094322080134,-0.0007474507088438831
-0.003170215400562287,-0.0007068094322081672,-0.0007474507088440372
-0.003169085400562288,-0.001045090857681821,-0.001086244685560143
-0.003167955400562288,-0.0007068094322080134,-0.001425038662276404
-0.003166825400562288,-0.001383372283155627,-0.0004086567321276227
-0.003165695400562288,-0.001383372283155627,-0.000747450708843729
-0.003164565400562288,-0.001045090857681821,-0.0007474507088438831
-0.003163435400562288,-0.001045090857681821,-0.0007474507088438831
-0.003162305400562288,-0.001045090857681821,-0.001086244685560143
-0.003161175400562288,-0.001383372283155473,-0.001086244685560143
-0.003160045400562288,-0.001383372283155627,-0.001086244685560143
-0.003158915400562288,-0.0007068094322080134,-0.001763832638992664
-0.003157785400562288,-0.0007068094322081672,-0.001086244685560298
-0.003156655400562288,-0.001045090857681667,-0.00142503866227625
-0.003155525400562288,-0.0007068094322080134,-0.001086244685560143
-0.003154395400562288,-0.0007068094322080134,-0.001425038662276404
-0.003153265400562287,-0.001045090857681667,-0.001086244685559989
-0.003152135400562288,-0.0007068094322081672,-0.0007474507088440372
-0.003151005400562288,-0.0007068094322080134,-0.0007474507088438831
-0.003149875400562288,-0.001383372283155627,-0.0004086567321276227
-0.003148745400562287,-0.0007068094322078595,-0.0007474507088440372
-0.003147615400562288,-0.0003685280067342069,-0.001086244685560143
-0.003146485400562288,-0.0007068094322080134,-0.0007474507088438831
-0.003145355400562288,-0.0007068094322080134,-0.0007474507088438831
-0.003144225400562287,-0.001045090857681821,-0.0007474507088438831
-0.003143095400562288,-0.001045090857681821,-0.0007474507088438831
-0.003141965400562288,-0.0007068094322080134,-0.0007474507088438831
-0.003140835400562288,-0.001045090857681821,-0.0007474507088438831
-0.003139705400562288,-0.001045090857681821,-0.0004086567321277768
-0.003138575400562288,-0.001045090857681821,-0.0004086567321276227
-0.003137445400562288,-0.0007068094322080134,-0.0007474507088438831
-0.003136315400562288,-0.0007068094322081672,-0.001425038662276404
-0.003135185400562288,-0.001045090857681667,-0.001425038662276404
-0.003134055400562288,-0.001383372283155627,-0.0007474507088438831
-0.003132925400562288,-0.001045090857681821,-0.0007474507088438831
-0.003131795400562287,-0.0007068094322080134,-0.0007474507088438831
-0.003130665400562288,-0.0007068094322080134,-0.0007474507088438831
-0.003129535400562288,-0.0007068094322080134,-0.0007474507088438831
-0.003128405400562288,-0.001045090857681821,-0.0007474507088438831
-0.003127275400562287,-0.0007068094322080134,-0.001086244685560143
-0.003126145400562288,-0.0007068094322080134,-0.001086244685560143
-0.003125015400562288,-0.001045090857681821,-0.0007474507088438831
-0.003123885400562288,-0.001045090857681821,-0.001086244685560143
-0.003122755400562287,-0.0007068094322081672,-0.001425038662276404
-0.003121625400562288,-0.001045090857681821,-0.001425038662276404
-0.003120495400562288,-0.0007068094322080134,-0.001086244685560143
-0.003119365400562288,-0.0007068094322080134,-0.001086244685560143
-0.003118235400562288,-0.001045090857681667,-0.001086244685560143
-0.003117105400562288,-0.001383372283155627,-0.0007474507088438831
-0.003115975400562288,-0.001383372283155627,-0.0007474507088438831
-0.003114845400562288,-0.0003685280067343607,-0.001425038662276096
-0.003113715400562288,-0.0007068094322078595,-0.0007474507088441912
-0.003112585400562288,-0.0007068094322080134,-0.0007474507088438831
-0.003111455400562288,-0.0007068094322080134,-0.0007474507088438831
-0.003110325400562287,-0.001045090857681975,-0.001086244685560143
-0.003109195400562288,-0.001383372283155473,-0.001086244685560143
-0.003108065400562288,-0.0007068094322080134,-0.001086244685560143
-0.003106935400562288,-0.0007068094322080134,-0.001086244685560143
-0.003105805400562287,-0.0007068094322081672,-0.001086244685560298
-0.003104675400562288,-0.001045090857681667,-0.00142503866227625
-0.003103545400562288,-0.0007068094322080134,-0.001086244685560143
-0.003102415400562288,-0.001045090857681821,-0.0007474507088438831
-0.003101285400562287,-0.001045090857681667,-0.001086244685560452
-0.003100155400562288,-0.0007068094322080134,-0.001763832638992664
-0.003099025400562288,-0.0007068094322080134,-0.0007474507088438831
-0.003097895400562288,-0.001045090857681821,-0.0007474507088438831
-0.003096765400562288,-0.0007068094322081672,-0.0007474507088438831
-0.003095635400562288,-0.0007068094322080134,-0.001086244685560143
-0.003094505400562288,-0.0003685280067342069,-0.001086244685560143
-0.003093375400562288,-0.0007068094322080134,-0.0007474507088440372
-0.003092245400562288,-0.0007068094322080134,-0.00108624468555999
-0.003091115400562288,-0.0007068094322080134,-0.0007474507088438831
-0.003089985400562288,-0.001045090857681821,-0.0004086567321276227
-0.003088855400562287,-0.0007068094322078595,-0.0007474507088440372
-0.003087725400562288,-0.0003685280067343607,-0.00108624468555999
-0.003086595400562288,-0.0007068094322080134,-0.0007474507088438831
-0.003085465400562288,-0.0007068094322080134,-0.001425038662276404
-0.003084335400562287,-0.001045090857681667,-0.0007474507088438831
-0.003083205400562288,-0.0007068094322081672,-0.0007474507088438831
-0.003082075400562288,-0.001045090857681821,-0.0007474507088438831
-0.003080945400562288,-0.001383372283155627,-0.0007474507088438831
-0.003079815400562287,-0.001045090857681821,-0.0007474507088440372
-0.003078685400562288,-0.001045090857681821,-0.001086244685560143
-0.003077555400562288,-0.0007068094322080134,-0.0007474507088438831
-0.003076425400562288,-0.0003685280067342069,-0.0007474507088438831
-0.003075295400562288,-0.0003685280067342069,-0.0007474507088438831
-0.003074165400562288,-0.0003685280067342069,-0.001086244685560143
-0.003073035400562288,-0.0007068094322080134,-0.001086244685560143
-0.003071905400562288,-0.001383372283155474,-0.001425038662276404
-0.003070775400562288,-0.001045090857681975,-0.001425038662276404
-0.003069645400562288,-0.001045090857681821,-0.001086244685560143
-0.003068515400562288,-0.001045090857681821,-0.001086244685560143
-0.003067385400562287,-0.001045090857681821,-0.0007474507088438831
-0.003066255400562288,-0.001045090857681821,-0.0007474507088438831
-0.003065125400562288,-0.0007068094322080134,-0.001425038662276404
-0.003063995400562288,-0.0007068094322080134,-0.0007474507088438831
-0.003062865400562287,-0.0007068094322080134,-0.001086244685560298
-0.003061735400562288,-0.0007068094322080134,-0.00142503866227625
-0.003060605400562288,-0.0007068094322080134,-0.001425038662276404
-0.003059475400562288,-0.001045090857681821,-0.0007474507088438831
-0.003058345400562287,-0.001383372283155627,-0.001086244685560298
-0.003057215400562288,-0.001383372283155627,-0.001425038662276404
-0.003056085400562288,-0.0003685280067342069,-0.0007474507088438831
-0.003054955400562288,-3.024658126040032e-05,-0.001086244685560143
-0.003053825400562288,-0.000368528006734053,-0.001086244685560143
-0.003052695400562288,-0.0003685280067342069,-0.0007474507088438831
-0.003051565400562288,-0.0007068094322080134,-0.0007474507088438831
-0.003050435400562288,-0.0007068094322080134,-0.001086244685559989
-0.003049305400562288,-0.0007068094322080134,-0.0007474507088440372
-0.003048175400562288,-0.0007068094322080134,-0.001086244685560143
-0.003047045400562288,-0.0003685280067342069,-0.0007474507088438831
-0.003045915400562287,-0.0003685280067343607,-0.0007474507088440372
-0.003044785400562288,-0.0007068094322078595,-0.00108624468555999
-0.003043655400562288,-0.0003685280067342069,-0.0007474507088438831
-0.003042525400562288,-0.0007068094322080134,-0.0007474507088438831
-0.003041395400562287,-0.00138337228315532,-0.001086244685559835
-0.003040265400562288,-0.0007068094322083211,-0.0004086567321279308
-0.003039135400562288,-0.0003685280067342069,-0.0004086567321276227
-0.003038005400562288,-0.0007068094322080134,-0.001086244685560143
-0.003036875400562287,-0.001045090857681821,-0.001086244685560143
-0.003035745400562288,-0.001045090857681821,-0.001086244685560143
-0.003034615400562288,-0.0007068094322080134,-0.0007474507088438831
-0.003033485400562288,-0.001045090857681821,-0.001086244685560143
-0.003032355400562288,-0.0003685280067345145,-0.001086244685560143
-0.003031225400562288,-0.0007068094322080134,-0.001086244685560143
-0.003030095400562288,-0.0007068094322080134,-0.001086244685560143
-0.003028965400562288,-0.0007068094322078595,-0.00142503866227625
-0.003027835400562288,-0.0003685280067343607,-0.001086244685560297
-0.003026705400562288,-0.0003685280067342069,-0.001086244685560143
-0.003025575400562288,-0.001045090857681821,-0.001086244685560143
-0.003024445400562288,-0.0007068094322080134,-0.0007474507088438831
-0.003023315400562288,-0.0007068094322080134,-0.0007474507088438831
-0.003022185400562288,-0.0003685280067342069,-0.0004086567321276227
-0.003021055400562288,-0.0007068094322080134,-0.0007474507088438831
-0.003019925400562287,-0.0007068094322080134,-0.00142503866227625
-0.003018795400562288,-0.0007068094322080134,-0.001086244685560297
-0.003017665400562288,-0.001045090857681821,-0.001425038662276404
-0.003016535400562288,-0.0007068094322080134,-0.001086244685560143
-0.003015405400562287,-0.0003685280067345145,-0.0007474507088440372
-0.003014275400562288,-0.001045090857681821,-0.001086244685560143
-0.003013145400562288,-0.001045090857681821,-0.001086244685560143
-0.003012015400562288,-0.001045090857681821,-0.0004086567321276227
-0.003010885400562288,-0.0007068094322081672,-0.001086244685559835
-0.003009755400562288,-0.0003685280067342069,-0.001425038662276404
-0.003008625400562288,-0.0007068094322080134,-0.001086244685560143
-0.003007495400562288,-0.000368528006734053,-0.0007474507088440372
-0.003006365400562288,-3.024658126055417e-05,-0.00108624468555999
-0.003005235400562288,-3.024658126040032e-05,-0.001086244685560143
-0.003004105400562288,-0.0003685280067342069,-0.001086244685560143
-0.003002975400562288,-0.0007068094322080134,-0.001086244685559989
-0.003001845400562288,-0.0007068094322080134,-0.0007474507088440372
-0.003000715400562288,-0.001383372283155627,-0.0007474507088438831
-0.002999585400562288,-0.0007068094322080134,-0.001086244685560143
-0.002998455400562287,-0.0003685280067343607,-0.0007474507088438831
-0.002997325400562288,-0.0007068094322078595,-0.0007474507088438831
-0.002996195400562288,-0.001045090857681821,-0.001086244685560143
-0.002995065400562288,-0.0007068094322080134,-0.0007474507088438831
-0.002993935400562287,-0.0007068094322081672,-0.001086244685560143
-0.002992805400562288,-0.001045090857681821,-0.001086244685560143
-0.002991675400562288,-0.0007068094322080134,-0.0007474507088438831
-0.002990545400562288,-0.0003685280067342069,-0.001425038662276404
-0.002989415400562288,-0.0003685280067342069,-0.001425038662276404
-0.002988285400562288,-0.0007068094322080134,-0.001086244685560143
-0.002987155400562288,-0.0003685280067342069,-0.0007474507088438831
-0.002986025400562288,-0.0003685280067343607,-0.0007474507088438831
-0.002984895400562288,-0.0007068094322078595,-0.0007474507088438831
-0.002983765400562288,-3.024658126040032e-05,-0.0007474507088438831
-0.002982635400562288,-0.001045090857681821,-0.001086244685560143
-0.002981505400562288,-0.0007068094322081672,-0.001425038662276096
-0.002980375400562288,-0.001045090857681667,-0.0007474507088441912
-0.002979245400562288,-0.0007068094322080134,-0.0007474507088438831
-0.002978115400562288,-0.0007068094322080134,-0.0007474507088438831
-0.002976985400562287,-0.0007068094322080134,-0.0007474507088438831
-0.002975855400562288,-0.0007068094322080134,-0.0007474507088438831
-0.002974725400562288,-0.0007068094322080134,-0.0007474507088438831
-0.002973595400562288,-0.0007068094322080134,-0.0004086567321276227
-0.002972465400562287,-0.0007068094322078595,-0.0007474507088440372
-0.002971335400562288,-0.0003685280067342069,-0.001086244685560143
-0.002970205400562288,-0.0003685280067342069,-0.0007474507088438831
-0.002969075400562288,-3.024658126040032e-05,-0.0004086567321276227
-0.002967945400562288,-0.000368528006734053,-0.000747450708843729
-0.002966815400562288,-0.0007068094322080134,-0.0004086567321276227
-0.002965685400562288,-0.0007068094322080134,-0.0007474507088438831
-0.002964555400562288,-0.0003685280067343607,-0.001086244685560143
-0.002963425400562288,-0.0007068094322078595,-0.001086244685560143
-0.002962295400562288,-0.001045090857681821,-0.0007474507088438831
-0.002961165400562288,-0.001045090857681821,-0.001086244685560143
-0.002960035400562288,-0.001045090857681821,-0.0007474507088440372
-0.002958905400562288,-0.001045090857681821,-0.00108624468555999
-0.002957775400562288,-0.0003685280067342069,-0.001425038662276404
-0.002956645400562288,-3.024658126040032e-05,-0.001086244685560143
-0.002955515400562287,-0.0003685280067342069,-0.00142503866227625
-0.002954385400562288,-0.0003685280067342069,-0.001086244685560297
-0.002953255400562288,-0.0003685280067342069,-0.0007474507088438831
-0.002952125400562288,-0.0007068094322080134,-0.001086244685560143
-0.002950995400562287,-0.0007068094322080134,-0.001086244685560143
-0.002949865400562288,-0.0007068094322080134,-0.001086244685560143
-0.002948735400562288,-0.0007068094322080134,-0.001425038662276404
-0.002947605400562288,-0.0007068094322080134,-0.001086244685560143
-0.002946475400562288,-0.0007068094322080134,-0.001086244685560143
-0.002945345400562288,-0.001045090857681821,-0.0007474507088438831
-0.002944215400562288,-0.0007068094322080134,-0.001086244685560143
-0.002943085400562288,-0.0003685280067342069,-0.001086244685560143
-0.002941955400562288,-0.0007068094322078595,-0.0007474507088440372
-0.002940825400562288,-0.001045090857681821,-0.0007474507088438831
-0.002939695400562288,-0.0007068094322080134,-0.001086244685560143
-0.002938565400562288,-0.0007068094322080134,-0.0007474507088438831
-0.002937435400562288,-0.0007068094322080134,-0.0007474507088438831
-0.002936305400562288,-0.001045090857681821,-0.0004086567321276227
-0.002935175400562288,-0.0007068094322080134,-6.986275541136233e-05
-0.002934045400562287,-0.0003685280067342069,-0.001086244685559989
-0.002932915400562288,-0.0003685280067342069,-0.0007474507088440372
-0.002931785400562288,-0.0003685280067342069,-0.001086244685560143
-0.002930655400562288,-0.0003685280067342069,-0.001086244685560143
-0.002929525400562287,-0.0007068094322080134,-0.000747450708843729
-0.002928395400562288,-0.0007068094322080134,-0.0004086567321276227
-0.002927265400562288,-0.001045090857681821,-0.0004086567321276227
-0.002926135400562288,-0.0007068094322080134,-0.0007474507088438831
-0.002925005400562288,-0.0003685280067343607,-0.0007474507088438831
-0.002923875400562288,-0.0007068094322080134,-0.001086244685560143
-0.002922745400562288,-0.0007068094322080134,-0.001086244685560143
-0.002921615400562288,-0.0007068094322080134,-0.001086244685560143
-0.002920485400562288,-0.001045090857681667,-0.0004086567321279308
-0.002919355400562288,-0.0003685280067342069,-0.0007474507088438831
-0.002918225400562288,-0.0007068094322080134,-0.001086244685560143
-0.002917095400562288,-0.0007068094322081672,-0.0007474507088438831
-0.002915965400562288,-0.001045090857681667,-0.0007474507088438831
-0.002914835400562288,-0.0003685280067342069,-0.0007474507088438831
-0.002913705400562288,-0.0007068094322080134,-0.001086244685560143
-0.002912575400562287,-0.0003685280067343607,-0.001086244685560143
-0.002911445400562288,-0.0007068094322078595,-0.001086244685560143
-0.002910315400562288,-0.001045090857681821,-0.0004086567321276227
-0.002909185400562288,-0.001045090857681821,-0.0007474507088438831
-0.002908055400562287,-0.001045090857681821,-0.0007474507088440372
-0.002906925400562288,-0.001045090857681821,-0.001086244685560143
-0.002905795400562288,-0.0007068094322080134,-0.0007474507088438831
-0.002904665400562288,-0.0003685280067342069,-0.001086244685560143
-0.002903535400562287,-0.001045090857681667,-0.0004086567321277768
-0.002902405400562288,-0.0007068094322080134,-0.0007474507088438831
-0.002901275400562288,-0.0007068094322080134,-0.001086244685560143
-0.002900145400562288,-0.0007068094322080134,-0.0007474507088438831
-0.002899015400562288,-0.001045090857681667,-0.0007474507088438831
-0.002897885400562288,-0.0003685280067342069,-0.001086244685560143
-0.002896755400562288,-0.001045090857681821,-0.0007474507088438831
-0.002895625400562288,-0.001383372283155474,-0.000747450708843729
-0.002894495400562288,-0.001045090857681975,-0.0004086567321277768
-0.002893365400562288,-0.001045090857681821,-0.0004086567321276227
-0.002892235400562288,-0.0003685280067342069,-0.0007474507088438831
-0.002891105400562287,-0.0007068094322078595,-6.986275541167046e-05
-0.002889975400562288,-0.0003685280067343607,-0.000747450708843575
-0.002888845400562288,-0.0007068094322080134,-0.0007474507088438831
-0.002887715400562288,-0.001045090857681821,-0.0007474507088438831
-0.002886585400562287,-0.0007068094322083211,-0.0007474507088440372
-0.002885455400562288,-0.00138337228315532,-0.00108624468555999
-0.002884325400562288,-0.001045090857681821,-0.001086244685560143
-0.002883195400562288,-0.0007068094322080134,-0.0004086567321276227
-0.002882065400562287,-0.001045090857681667,-0.0007474507088438831
-0.002880935400562288,-0.0007068094322080134,-0.0007474507088438831
-0.002879805400562288,-0.0007068094322080134,-0.0007474507088438831
-0.002878675400562288,-0.001045090857681821,-0.001086244685560143
-0.002877545400562288,-0.0007068094322081672,-0.001086244685560143
-0.002876415400562288,-0.0003685280067342069,-0.001086244685560143
-0.002875285400562288,-0.0003685280067342069,-0.001425038662276404
-0.002874155400562288,-0.0007068094322081672,-0.001086244685559989
-0.002873025400562288,-0.001045090857681667,-0.0007474507088440372
-0.002871895400562288,-0.001383372283155627,-0.0004086567321276227
-0.002870765400562288,-0.0007068094322080134,-0.001086244685560143
-0.002869635400562287,-0.001045090857681667,-0.0007474507088438831
