ResultadosOndaP/ResultadosVelocidadOndaPSueloCeramica/ProbetaM1_17_Run#4.csv

#Digilent WaveForms Oscilloscope Acquisition
#Device Name: Discovery2
#Serial Number: SN:210321AD1806
#Date Time: 2023-10-16 11:16:18.920
#Sample rate: 909091Hz
#Samples: 8192
#Trigger: Source: Channel 2 Type: Edge Condition: Rising Level: 115 mV Hyst.: Auto HoldOff: 0 s
#Channel 1: Range: 20 mV/div Offset: 8 mV Attenuation: 1 X Sample Mode: Average
#Channel 2: Range: 100 mV/div Offset: 35 mV Attenuation: 1 X Sample Mode: Average

Time (s),Channel 1 (V),Channel 2 (V)
-0.0045045,0.0003080348442134062,-0.0004086567321276227
-0.004503399999999999,0.0003080348442132524,-0.0004086567321276227
-0.0045023,-3.024658126040032e-05,-0.0004086567321276227
-0.004501199999999999,-3.024658126040032e-05,-6.98627554115164e-05
-0.0045001,-3.024658126040032e-05,-0.0004086567321276227
-0.004499,0.0003080348442134062,-0.0004086567321276227
-0.0044979,0.0003080348442134062,-0.0004086567321276227
-0.0044968,0.0006463162696872127,-0.0004086567321276227
-0.0044957,0.0003080348442135601,-6.98627554115164e-05
-0.0044946,0.0003080348442134062,-0.0004086567321276227
-0.0044935,-3.024658126024647e-05,-0.0004086567321276227
-0.0044924,-3.024658126040032e-05,-0.0004086567321276227
-0.0044913,0.0003080348442132524,-0.000747450708843729
-0.0044902,0.0003080348442134062,0.000268931221304898
-0.004489099999999999,0.0006463162696870589,-0.0004086567321276227
-0.004488,0.0003080348442134062,-0.0004086567321276227
-0.004486899999999999,0.0003080348442135601,-0.000747450708843729
-0.0044858,0.0006463162696872127,-0.0004086567321276227
-0.004484699999999999,0.0003080348442132524,-6.986275541136233e-05
-0.0044836,-3.024658126040032e-05,-6.986275541136233e-05
-0.0044825,0.0003080348442134062,-6.986275541136233e-05
-0.0044814,0.0003080348442134062,-0.0004086567321276227
-0.0044803,0.0003080348442134062,-6.986275541136233e-05
-0.0044792,0.0003080348442134062,-0.0004086567321274686
-0.0044781,-3.024658126040032e-05,-0.0007474507088438831
-0.004477,-0.000368528006734053,-0.0007474507088438831
-0.0044759,-3.024658126040032e-05,-0.0007474507088438831
-0.0044748,-0.0007068094322077057,-0.0007474507088438831
-0.0044737,-0.0003685280067342069,-6.986275541136233e-05
-0.004472599999999999,0.0003080348442135601,-6.98627554110542e-05
-0.0044715,0.0006463162696872127,0.0006077251980211584
-0.004470399999999999,0.0003080348442134062,0.000268931221304898
-0.0044693,0.0003080348442134062,0.000268931221304898
-0.004468199999999999,0.0003080348442132524,-6.986275541167046e-05
-0.0044671,-3.024658126040032e-05,-0.0007474507088438831
-0.004465999999999999,-3.024658126024649e-05,-0.0007474507088434209
-0.0044649,0.0003080348442134062,0.000268931221304898
-0.0044638,0.0003080348442134062,-6.986275541136233e-05
-0.0044627,0.0003080348442134062,-0.0004086567321274686
-0.0044616,0.0003080348442134062,-6.986275541136233e-05
-0.0044605,0.0006463162696870589,-0.0004086567321274686
-0.0044594,-3.024658126040032e-05,-6.986275541136233e-05
-0.0044583,-3.024658126040032e-05,-0.0004086567321274686
-0.0044572,-3.024658126040032e-05,-0.0004086567321276227
-0.0044561,-0.000368528006734053,-6.98627554115164e-05
-0.004455,0.0003080348442134062,-6.986275541136233e-05
-0.004453899999999999,0.0006463162696872127,-0.0004086567321277768
-0.0044528,0.0006463162696872127,-0.0007474507088438831
-0.004451699999999999,0.0003080348442134062,-0.0004086567321276227
-0.0044506,0.0003080348442134062,-0.0004086567321276227
-0.004449499999999999,0.0003080348442135601,-0.0004086567321276227
-0.0044484,0.0006463162696872127,-0.0004086567321276227
-0.0044473,0.0006463162696872127,-0.0004086567321276227
-0.0044462,0.0003080348442134062,-0.0004086567321276227
-0.0044451,-3.024658126040032e-05,-6.986275541136233e-05
-0.004444,0.0003080348442132524,-6.986275541136233e-05
-0.0044429,-3.024658126040032e-05,0.000268931221304898
-0.0044418,-3.024658126040032e-05,0.0006077251980210044
-0.0044407,-3.024658126040032e-05,-6.986275541136233e-05
-0.0044396,0.0003080348442132524,-0.0004086567321274686
-0.0044385,0.0003080348442134062,-0.0004086567321276227
-0.004437399999999999,0.0003080348442137139,-0.0004086567321276227
-0.0044363,0.0009845976951610193,-0.0004086567321276227
-0.004435199999999999,0.0003080348442130986,-6.986275541120827e-05
-0.0044341,-0.0003685280067342069,0.000268931221304898
-0.004432999999999999,0.0003080348442132524,-0.0004086567321276227
-0.0044319,-3.024658126040032e-05,-0.0004086567321276227
-0.004430799999999999,-0.000368528006734053,-6.986275541136233e-05
-0.0044297,-3.024658126040032e-05,-6.986275541136233e-05
-0.0044286,-3.024658126040032e-05,-0.0007474507088438831
-0.0044275,-0.000368528006734053,-0.0004086567321277768
-0.0044264,-3.024658126040032e-05,-6.986275541136233e-05
-0.0044253,-3.024658126040032e-05,-6.986275541136233e-05
-0.0044242,-3.024658126040032e-05,-6.986275541136233e-05
-0.0044231,0.0003080348442132524,0.000268931221304744
-0.004422,0.0006463162696872127,-0.0004086567321276227
-0.0044209,-3.024658126009262e-05,-0.0004086567321276227
-0.0044198,-3.024658126040032e-05,-0.0004086567321276227
-0.004418699999999999,0.0003080348442134062,0.0002689312213045899
-0.0044176,0.0003080348442134062,-0.0004086567321276227
-0.004416499999999999,0.0006463162696870589,-0.0004086567321274686
-0.0044154,0.0003080348442134062,-6.986275541136233e-05
-0.004414299999999999,-3.024658126040032e-05,0.000268931221304898
-0.0044132,-3.024658126040032e-05,0.000268931221304898
-0.0044121,-3.024658126040032e-05,0.000268931221304898
-0.004411,-3.024658126040032e-05,-6.986275541136233e-05
-0.0044099,0.0003080348442134062,-6.986275541136233e-05
-0.0044088,0.0003080348442134062,0.000268931221304744
-0.0044077,0.0003080348442134062,0.000268931221304898
-0.0044066,-3.024658126024647e-05,-6.986275541120827e-05
-0.0044055,0.0003080348442134062,-6.986275541136233e-05
-0.0044044,-3.024658126024647e-05,0.000268931221304744
-0.0044033,-3.024658126040032e-05,-6.986275541136233e-05
-0.004402199999999999,0.0003080348442134062,0.0002689312213045899
-0.0044011,0.0003080348442134062,-0.0004086567321276227
-0.004399999999999999,-3.024658126040032e-05,-6.986275541136233e-05
-0.0043989,-3.024658126040032e-05,-6.986275541136233e-05
-0.004397799999999999,-3.024658126040032e-05,-6.98627554115164e-05
-0.0043967,-3.024658126040032e-05,-0.0004086567321276227
-0.0043956,-0.0003685280067342069,-0.0004086567321276227
-0.0043945,-3.024658126040032e-05,-6.986275541136233e-05
-0.0043934,-3.024658126040032e-05,-6.986275541136233e-05
-0.0043923,-3.024658126040032e-05,-0.000747450708843575
-0.0043912,-0.0003685280067342069,-0.0004086567321276227
-0.0043901,-3.024658126055417e-05,-0.0004086567321276227
-0.004389,0.0003080348442134062,-6.986275541136233e-05
-0.0043879,0.0003080348442134062,-0.0004086567321274686
-0.0043868,-3.024658126040032e-05,-0.0004086567321276227
-0.004385699999999999,0.0003080348442134062,-0.0004086567321276227
-0.0043846,0.0003080348442134062,-0.0004086567321276227
-0.004383499999999999,-3.024658126024649e-05,-6.986275541136233e-05
-0.0043824,0.0003080348442134062,-6.986275541136233e-05
-0.004381299999999999,0.0003080348442134062,-0.0004086567321276227
-0.0043802,0.0003080348442134062,-0.0004086567321276227
-0.004379099999999999,0.0003080348442134062,-0.0004086567321274686
-0.004378,0.0003080348442134062,-6.986275541136233e-05
-0.0043769,-3.024658126040032e-05,-6.986275541136233e-05
-0.0043758,-3.024658126040032e-05,-6.986275541136233e-05
-0.0043747,0.0006463162696872127,-6.986275541136233e-05
-0.0043736,0.0006463162696872127,-6.986275541136233e-05
-0.0043725,-3.024658126040032e-05,-0.0004086567321276227
-0.0043714,0.0003080348442132524,-0.000747450708843729
-0.0043703,-0.0003685280067342069,-6.986275541136233e-05
-0.0043692,-3.024658126055417e-05,-0.0004086567321274686
-0.0043681,-0.0003685280067342069,-6.986275541136233e-05
-0.004366999999999999,-3.024658126040032e-05,-6.986275541167046e-05
-0.0043659,-3.024658126040032e-05,-0.0007474507088438831
-0.004364799999999999,-3.024658126055415e-05,-0.000747450708843729
-0.0043637,-0.0003685280067342069,-0.0004086567321276227
-0.004362599999999999,-0.000368528006734053,-6.986275541136233e-05
-0.0043615,-3.024658126040032e-05,-6.986275541136233e-05
-0.0043604,-0.0003685280067342069,-6.986275541136233e-05
-0.0043593,0.0003080348442134062,-6.986275541136233e-05
-0.0043582,0.0003080348442134062,-6.986275541136233e-05
-0.0043571,0.0003080348442134062,-6.986275541136233e-05
-0.004356,0.0006463162696872127,-6.986275541136233e-05
-0.0043549,0.0003080348442135601,-0.0004086567321274686
-0.0043538,-3.024658126040032e-05,-0.0007474507088438831
-0.0043527,-0.000368528006734053,-0.0004086567321277768
-0.0043516,-3.024658126040032e-05,-0.0007474507088438831
-0.004350499999999999,0.0003080348442134062,-6.986275541136233e-05
-0.0043494,0.0003080348442134062,-6.986275541136233e-05
-0.004348299999999999,-3.024658126055415e-05,-0.0004086567321276227
-0.0043472,-0.0003685280067342069,-0.0004086567321276227
-0.004346099999999999,0.0003080348442132524,-0.0004086567321274686
-0.004345,-3.024658126040032e-05,-6.986275541136233e-05
-0.004343899999999999,0.0003080348442134062,-6.986275541136233e-05
-0.0043428,0.0006463162696872127,-6.986275541136233e-05
-0.0043417,0.0003080348442134062,-0.0004086567321276227
-0.0043406,-3.024658126024647e-05,0.0002689312213045899
-0.0043395,-3.024658126040032e-05,-6.986275541136233e-05
-0.0043384,-3.024658126040032e-05,-6.986275541136233e-05
-0.0043373,-0.0003685280067342069,-0.0004086567321276227
-0.0043362,-0.0003685280067342069,-0.0004086567321276227
-0.0043351,0.0003080348442134062,-6.986275541136233e-05
-0.004334,0.0003080348442134062,-6.986275541136233e-05
-0.0043329,0.0003080348442134062,-0.0004086567321276227
-0.004331799999999999,0.0003080348442132524,-0.0004086567321274686
-0.0043307,-3.024658126040032e-05,-6.986275541136233e-05
-0.004329599999999999,-3.024658126024649e-05,0.0002689312213045899
-0.0043285,0.0003080348442134062,-0.0004086567321276227
-0.004327399999999999,-3.024658126024649e-05,-6.986275541136233e-05
-0.0043263,0.0003080348442134062,-6.986275541136233e-05
-0.0043252,0.0003080348442134062,-0.0004086567321276227
-0.0043241,0.0003080348442134062,-6.986275541136233e-05
-0.004323,-0.0003685280067342069,-0.0004086567321276227
-0.0043219,0.0003080348442130985,-0.0004086567321276227
-0.0043208,-3.024658126040032e-05,-6.986275541136233e-05
-0.0043197,-3.024658126040032e-05,-0.0004086567321274686
-0.0043186,-0.0003685280067342069,-0.0004086567321276227
-0.0043175,0.0003080348442130985,-0.0004086567321276227
-0.0043164,-3.024658126040032e-05,-0.0004086567321276227
-0.004315299999999999,-3.024658126040032e-05,-0.0007474507088438831
-0.0043142,-3.024658126040032e-05,-0.0007474507088438831
-0.004313099999999999,-3.024658126009265e-05,-0.0004086567321276227
-0.004312,0.0006463162696872127,-0.0004086567321276227
-0.004310899999999999,0.0003080348442134062,-6.98627554110542e-05
-0.0043098,0.0003080348442134062,0.0006077251980211584
-0.0043087,-3.024658126040032e-05,-6.986275541136233e-05
-0.0043076,0.0003080348442134062,-0.0007474507088438831
-0.0043065,0.0006463162696872127,-0.0004086567321276227
-0.0043054,-0.0003685280067337454,-6.98627554115164e-05
-0.0043043,-3.024658126040032e-05,-6.986275541136233e-05
-0.0043032,-3.024658126040032e-05,-6.986275541136233e-05
-0.0043021,0.0003080348442134062,-6.986275541136233e-05
-0.004301,0.0006463162696870589,-0.0004086567321274686
-0.0042999,0.0003080348442134062,-6.986275541136233e-05
-0.004298799999999999,-3.024658126040032e-05,-0.0004086567321276227
-0.0042977,-3.024658126040032e-05,-0.0004086567321276227
-0.004296599999999999,-3.024658126055415e-05,-0.0004086567321274686
-0.0042955,-0.0003685280067342069,-6.986275541136233e-05
-0.004294399999999999,-0.000368528006734053,0.000268931221304898
-0.0042933,-3.024658126040032e-05,0.000268931221304898
-0.004292199999999999,0.0006463162696870589,-6.986275541136233e-05
-0.0042911,0.0003080348442134062,-6.986275541136233e-05
-0.00429,0.0003080348442134062,0.000268931221304898
-0.0042889,-3.024658126024647e-05,0.000268931221304898
-0.0042878,-3.024658126040032e-05,-0.0004086567321276227
-0.0042867,0.0003080348442132524,-0.000747450708843729
-0.0042856,0.0003080348442134062,-0.0007474507088438831
-0.0042845,0.0003080348442134062,-0.0007474507088438831
-0.0042834,0.0003080348442134062,-6.986275541136233e-05
-0.0042823,-3.024658126024647e-05,-6.986275541136233e-05
-0.0042812,-0.0003685280067342069,-6.986275541136233e-05
-0.004280099999999999,-3.024658126040032e-05,-0.0004086567321276227
-0.004279,-3.024658126040032e-05,-0.0004086567321276227
-0.004277899999999999,-3.024658126024649e-05,-0.0004086567321276227
-0.0042768,0.0003080348442134062,-0.0004086567321276227
-0.004275699999999999,0.0003080348442132524,-0.0004086567321276227
-0.0042746,-3.024658126040032e-05,-0.0004086567321276227
-0.0042735,-3.024658126040032e-05,-0.0004086567321276227
-0.0042724,-3.024658126040032e-05,-0.0007474507088438831
-0.0042713,-0.0003685280067342069,-6.986275541136233e-05
-0.0042702,-3.024658126055417e-05,-6.986275541136233e-05
-0.0042691,-3.024658126040032e-05,-6.986275541136233e-05
-0.004268,-3.024658126040032e-05,-0.0004086567321274686
-0.0042669,0.0003080348442134062,-0.0004086567321276227
-0.0042658,0.0003080348442134062,-6.98627554115164e-05
-0.0042647,0.0006463162696872127,-0.0004086567321276227
-0.004263599999999999,0.0003080348442134062,-6.98627554115164e-05
-0.0042625,0.0003080348442134062,-0.0004086567321276227
-0.004261399999999999,0.0003080348442132524,-6.986275541136233e-05
-0.0042603,-3.024658126040032e-05,-6.986275541136233e-05
-0.004259199999999999,0.0003080348442134062,0.000268931221304744
-0.0042581,0.0003080348442134062,-6.986275541136233e-05
-0.004256999999999999,-3.024658126040032e-05,-6.986275541136233e-05
-0.0042559,0.0003080348442134062,-6.986275541136233e-05
-0.0042548,0.0003080348442134062,-0.0007474507088438831
-0.0042537,0.0006463162696870589,-6.986275541167046e-05
-0.0042526,0.0003080348442134062,0.000268931221304898
-0.0042515,-3.024658126024647e-05,-6.986275541120827e-05
-0.0042504,-3.024658126040032e-05,-6.986275541136233e-05
-0.0042493,0.0003080348442132524,-0.0004086567321274686
-0.0042482,0.0003080348442134062,-0.0007474507088438831
-0.004247099999999999,0.0006463162696870589,-0.0004086567321276227
-0.004246,0.0003080348442134062,-0.0004086567321276227
-0.004244899999999999,0.0003080348442135601,-0.0004086567321274686
-0.0042438,0.0006463162696872127,-6.986275541136233e-05
-0.004242699999999999,-3.024658126024649e-05,-6.986275541136233e-05
-0.0042416,0.0003080348442134062,-6.986275541136233e-05
-0.004240499999999999,-3.024658126024649e-05,-0.0004086567321274686
-0.0042394,0.0003080348442134062,-6.986275541136233e-05
-0.0042383,0.0003080348442134062,-0.0004086567321276227
-0.0042372,-3.024658126024647e-05,-0.0004086567321276227
-0.0042361,-3.024658126040032e-05,-6.986275541136233e-05
-0.004235,-3.024658126040032e-05,-6.986275541136233e-05
-0.0042339,-3.024658126040032e-05,-0.0007474507088438831
-0.0042328,-3.024658126040032e-05,-0.0004086567321277768
-0.0042317,0.0003080348442134062,-6.986275541136233e-05
-0.0042306,-0.0003685280067338992,-0.0004086567321274686
-0.0042295,-0.0003685280067342069,-0.0004086567321276227
-0.004228399999999999,0.0003080348442132524,-0.0004086567321274686
-0.0042273,-3.024658126040032e-05,-6.986275541136233e-05
-0.004226199999999999,-0.0003685280067342069,-6.98627554115164e-05
-0.0042251,-0.0003685280067342069,-0.0004086567321276227
-0.004223999999999999,0.0003080348442132524,-0.0004086567321276227
-0.0042229,-3.024658126040032e-05,-0.0004086567321276227
-0.0042218,0.0003080348442134062,-6.986275541136233e-05
-0.0042207,0.0003080348442134062,-6.986275541136233e-05
-0.0042196,-3.024658126040032e-05,-0.0004086567321276227
-0.0042185,0.000646316269686905,-0.000747450708843729
-0.0042174,-3.024658126040032e-05,0.000268931221304898
-0.0042163,-3.024658126040032e-05,-6.986275541120827e-05
-0.0042152,0.0003080348442134062,-6.986275541136233e-05
-0.0042141,0.0003080348442134062,-6.986275541136233e-05
-0.004213,0.0006463162696872127,-0.0004086567321276227
-0.004211899999999999,-3.024658126040032e-05,-0.0004086567321274686
-0.0042108,-3.024658126040032e-05,-6.986275541136233e-05
-0.004209699999999999,-3.024658126024649e-05,-6.98627554115164e-05
-0.0042086,0.0003080348442134062,-0.0004086567321276227
-0.004207499999999999,0.0003080348442134062,-0.0007474507088438831
-0.0042064,0.0003080348442134062,-0.0007474507088438831
-0.004205299999999999,0.0006463162696870589,-0.0004086567321276227
-0.0042042,0.0003080348442134062,-0.0004086567321276227
-0.0042031,0.0003080348442134062,-0.0004086567321276227
-0.004202,0.0003080348442134062,-6.98627554115164e-05
-0.0042009,-3.024658126040032e-05,-6.986275541136233e-05
-0.0041998,-3.024658126040032e-05,-6.986275541136233e-05
-0.0041987,-3.024658126040032e-05,-6.986275541136233e-05
-0.0041976,0.0003080348442132524,0.000268931221304744
-0.0041965,0.0006463162696872127,0.000268931221304898
-0.0041954,-3.024658126009262e-05,0.000268931221304898
-0.0041943,-3.024658126040032e-05,-0.0004086567321276227
-0.004193199999999999,-3.024658126040032e-05,-6.98627554115164e-05
-0.0041921,-3.024658126040032e-05,-0.0004086567321276227
-0.004190999999999999,0.0003080348442132524,-0.0007474507088438831
-0.0041899,-3.024658126040032e-05,-0.0007474507088438831
-0.004188799999999999,0.0006463162696870589,-0.0004086567321277768
-0.0041877,0.0003080348442134062,-0.0007474507088438831
-0.0041866,0.0006463162696872127,-0.0004086567321276227
-0.0041855,-3.024658126040032e-05,-6.986275541136233e-05
-0.0041844,0.0006463162696872127,-6.986275541136233e-05
-0.0041833,0.0006463162696872127,-6.986275541136233e-05
-0.0041822,0.0006463162696872127,-6.986275541136233e-05
-0.0041811,-3.024658126009262e-05,-0.0004086567321274686
-0.00418,-3.024658126040032e-05,-0.0007474507088438831
-0.0041789,-3.024658126040032e-05,-0.0004086567321277768
-0.0041778,-3.024658126040032e-05,-6.986275541136233e-05
-0.004176699999999999,-3.024658126024649e-05,-0.0004086567321274686
-0.0041756,0.0003080348442134062,-6.986275541136233e-05
-0.004174499999999999,0.0003080348442132524,-6.986275541136233e-05
-0.0041734,-3.024658126040032e-05,-6.986275541136233e-05
-0.004172299999999999,0.0003080348442132524,-0.0004086567321274686
-0.0041712,-3.024658126040032e-05,-6.986275541136233e-05
-0.0041701,-3.024658126040032e-05,-0.0004086567321276227
-0.004169,-3.024658126040032e-05,-0.0004086567321276227
-0.0041679,0.0006463162696872127,-0.0007474507088438831
-0.0041668,0.0003080348442135601,-0.0007474507088438831
-0.0041657,0.0003080348442134062,-0.0004086567321276227
-0.0041646,-3.024658126024647e-05,-6.98627554115164e-05
-0.0041635,-3.024658126040032e-05,-0.0004086567321276227
-0.0041624,-3.024658126040032e-05,-6.98627554115164e-05
-0.0041613,0.0003080348442134062,-0.0004086567321276227
-0.004160199999999999,-3.024658126024649e-05,-0.0004086567321274686
-0.0041591,0.0003080348442134062,-6.986275541136233e-05
-0.004157999999999999,-3.024658126024649e-05,-6.986275541120827e-05
-0.0041569,0.0003080348442134062,0.000268931221304898
-0.004155799999999999,0.0003080348442134062,-6.986275541136233e-05
-0.0041547,0.0003080348442134062,-6.986275541136233e-05
-0.004153599999999999,-3.024658126040032e-05,-0.0004086567321274686
-0.0041525,-3.024658126040032e-05,-6.986275541136233e-05
-0.0041514,0.0003080348442134062,-0.0007474507088438831
-0.0041503,0.0006463162696870589,-0.0007474507088438831
-0.0041492,0.0003080348442134062,-0.0004086567321276227
-0.0041481,-0.0003685280067338992,-0.0004086567321276227
-0.004147,0.0006463162696872127,-0.0004086567321276227
-0.0041459,0.0006463162696872127,-0.0004086567321276227
-0.0041448,0.0003080348442134062,-6.986275541136233e-05
-0.0041437,0.0003080348442134062,-0.0004086567321274686
-0.0041426,0.0003080348442134062,-0.0004086567321276227
-0.004141499999999999,0.000646316269686905,-6.986275541136233e-05
-0.0041404,-3.024658126040032e-05,-6.986275541136233e-05
-0.004139299999999999,0.0003080348442134062,-0.0007474507088438831
