ResultadosOndaP/ResultadosVelocidadOndaPSueloCeramica/ProbetaM2_19_Run#4.csv

#Digilent WaveForms Oscilloscope Acquisition
#Device Name: Discovery2
#Serial Number: SN:210321AD1806
#Date Time: 2023-10-16 11:26:17.960
#Sample rate: 909091Hz
#Samples: 8192
#Trigger: Source: Channel 2 Type: Edge Condition: Rising Level: 115 mV Hyst.: Auto HoldOff: 0 s
#Channel 1: Range: 20 mV/div Offset: 8 mV Attenuation: 1 X Sample Mode: Average
#Channel 2: Range: 100 mV/div Offset: 35 mV Attenuation: 1 X Sample Mode: Average

Time (s),Channel 1 (V),Channel 2 (V)
-0.0045056,0.0006463162696872127,-0.0004086567321276227
-0.0045045,0.0006463162696872127,-0.0004086567321276227
-0.0045034,0.0006463162696872127,-0.0004086567321276227
-0.0045023,0.0009845976951608655,-0.001086244685559835
-0.0045012,0.0006463162696872127,-0.0004086567321276227
-0.0045001,0.0009845976951610193,-0.0004086567321276227
-0.004499,0.0006463162696872127,-0.0007474507088438831
-0.0044979,0.0006463162696872127,-0.0007474507088438831
-0.0044968,0.0006463162696872127,-0.0007474507088438831
-0.0044957,0.0003080348442134062,0.000268931221304898
-0.004494600000000001,0.0006463162696870589,0.000268931221304898
-0.0044935,0.0006463162696872127,-6.986275541136233e-05
-0.004492400000000001,0.0006463162696872127,-6.986275541136233e-05
-0.0044913,0.0009845976951610193,-6.986275541136233e-05
-0.0044902,0.0009845976951610193,-6.986275541120827e-05
-0.0044891,0.0009845976951610193,0.000268931221304898
-0.004488,0.0006463162696870589,-6.986275541136233e-05
-0.0044869,0.0003080348442134062,-6.986275541136233e-05
-0.0044858,0.0009845976951607116,-0.0004086567321277768
-0.0044847,0.0003080348442134062,-0.0007474507088438831
-0.0044836,0.0009845976951610193,-0.0007474507088438831
-0.0044825,0.0009845976951610193,-6.986275541136233e-05
-0.0044814,0.0009845976951610193,-6.986275541136233e-05
-0.0044803,0.0006463162696873666,-0.0004086567321274686
-0.0044792,0.0006463162696872127,-0.0007474507088438831
-0.0044781,0.00132287912063452,-0.0007474507088438831
-0.004477,0.0009845976951610193,-0.0004086567321276227
-0.004475900000000001,0.0006463162696873666,-0.0004086567321276227
-0.0044748,0.0006463162696872127,-0.0004086567321276227
-0.0044737,0.0006463162696872127,-0.0004086567321276227
-0.0044726,0.0006463162696872127,-0.0004086567321276227
-0.0044715,0.0009845976951610193,-6.986275541167046e-05
-0.0044704,0.0009845976951610193,-0.0007474507088438831
-0.0044693,0.0006463162696873666,-6.98627554115164e-05
-0.0044682,0.0009845976951610193,-0.0004086567321276227
-0.0044671,0.0006463162696873666,-6.986275541136233e-05
-0.004466,0.0009845976951610193,-6.986275541136233e-05
-0.0044649,0.001322879120634828,-0.0004086567321276227
-0.0044638,0.0006463162696875204,-0.0004086567321276227
-0.0044627,0.0006463162696872127,-0.0004086567321276227
-0.0044616,0.0009845976951608653,-6.98627554115164e-05
-0.0044605,0.0009845976951610193,-6.986275541136233e-05
-0.004459400000000001,0.0006463162696873666,-6.986275541136233e-05
-0.0044583,0.0009845976951610193,-0.0004086567321276227
-0.004457200000000001,0.0003080348442137139,-6.98627554115164e-05
-0.0044561,0.0003080348442134062,-0.0004086567321276227
-0.004455,0.0006463162696870589,-0.000747450708843729
-0.0044539,0.0003080348442134062,-0.0004086567321276227
-0.0044528,0.0006463162696872127,-0.0004086567321277768
-0.0044517,0.0006463162696872127,-0.0007474507088438831
-0.0044506,0.0006463162696873666,-0.0004086567321276227
-0.0044495,0.0009845976951610193,-0.0004086567321276227
-0.0044484,0.0009845976951610193,-0.0007474507088438831
-0.0044473,0.0009845976951610193,-6.986275541136233e-05
-0.0044462,0.0009845976951610193,-0.0007474507088438831
-0.0044451,0.001322879120634674,-0.0007474507088438831
-0.004444,0.0006463162696872127,-0.0007474507088438831
-0.0044429,0.0006463162696872127,-6.986275541167046e-05
-0.0044418,0.0006463162696872127,-0.0004086567321276227
-0.004440700000000001,0.0006463162696872127,-0.0004086567321276227
-0.0044396,0.0009845976951610193,-0.0004086567321276227
-0.0044385,0.0006463162696872127,-0.0004086567321276227
-0.0044374,0.0006463162696872127,-0.0004086567321276227
-0.0044363,0.0003080348442135601,-6.986275541136233e-05
-0.0044352,0.0006463162696872127,-6.986275541136233e-05
-0.0044341,0.0006463162696872127,-6.986275541136233e-05
-0.004433,0.0006463162696872127,-6.986275541136233e-05
-0.0044319,0.001661160546108326,-6.98627554115164e-05
-0.0044308,0.0009845976951610193,-0.0004086567321276227
-0.0044297,0.0006463162696872127,-0.0004086567321276227
-0.0044286,0.0003080348442135601,-0.000747450708843729
-0.0044275,0.0009845976951610193,-0.0007474507088438831
-0.0044264,0.0009845976951610193,-0.0007474507088438831
-0.0044253,0.0006463162696872127,-6.986275541136233e-05
-0.004424200000000001,0.0009845976951608653,-6.986275541136233e-05
-0.0044231,0.0009845976951610193,-0.0004086567321276227
-0.004422000000000001,0.0006463162696873666,-0.0004086567321276227
-0.0044209,0.0009845976951610193,-6.986275541136233e-05
-0.0044198,0.0003080348442135601,-0.0004086567321276227
-0.0044187,0.0006463162696872127,-0.0004086567321276227
-0.0044176,0.0009845976951610193,-0.0004086567321276227
-0.0044165,0.0009845976951610193,-0.0004086567321276227
-0.0044154,0.0006463162696872127,-0.0004086567321274686
-0.0044143,0.0006463162696872127,-6.986275541136233e-05
-0.0044132,0.001322879120634828,-6.986275541136233e-05
-0.0044121,0.001322879120634828,-6.986275541136233e-05
-0.004411,0.0006463162696872127,-6.986275541136233e-05
-0.0044099,0.0006463162696872127,-0.0004086567321274686
-0.0044088,0.0006463162696872127,-0.0004086567321276227
-0.004407700000000001,0.0009845976951608653,-0.0004086567321276227
-0.0044066,0.001322879120634828,-6.986275541136233e-05
-0.004405500000000001,0.001322879120634828,-6.986275541136233e-05
-0.0044044,0.0009845976951610193,-6.986275541136233e-05
-0.0044033,0.0006463162696873666,-6.98627554115164e-05
-0.0044022,0.0009845976951610193,-0.0004086567321276227
-0.0044011,0.0003080348442135601,-6.986275541136233e-05
-0.0044,0.0006463162696872127,-6.986275541136233e-05
-0.0043989,0.0009845976951610193,-0.0004086567321276227
-0.0043978,0.0009845976951610193,-0.0004086567321276227
-0.0043967,0.0006463162696872127,-0.0004086567321276227
-0.0043956,0.0009845976951610193,-0.0004086567321276227
-0.0043945,0.001322879120634828,-0.0004086567321276227
-0.0043934,0.001322879120634828,-0.0004086567321276227
-0.0043923,0.0009845976951610193,-6.986275541136233e-05
-0.0043912,0.0009845976951610193,0.000268931221304744
-0.0043901,0.0009845976951610193,0.000268931221304898
-0.004389000000000001,0.0009845976951610193,-0.0004086567321273146
-0.0043879,0.0006463162696872127,-0.0004086567321276227
-0.0043868,0.0003080348442135601,-0.0004086567321274686
-0.0043857,0.0006463162696872127,-6.986275541136233e-05
-0.0043846,0.0006463162696870589,-6.986275541136233e-05
-0.0043835,0.0003080348442134062,-6.986275541136233e-05
-0.0043824,0.0009845976951610193,-0.0004086567321276227
-0.0043813,0.0009845976951610193,-0.0004086567321276227
-0.0043802,0.0006463162696873666,-6.986275541136233e-05
-0.0043791,0.0009845976951610193,-6.986275541136233e-05
-0.004378,0.0009845976951610193,-6.986275541136233e-05
-0.0043769,0.0009845976951610193,-0.0004086567321274686
-0.0043758,0.0009845976951610193,-0.0004086567321276227
-0.0043747,0.0009845976951610193,-0.0004086567321276227
-0.0043736,0.0009845976951610193,-0.0004086567321276227
-0.004372500000000001,0.0006463162696873666,-0.0004086567321276227
-0.0043714,0.0003080348442134062,-0.0007474507088438831
-0.004370300000000001,0.0006463162696870589,-0.0004086567321277768
-0.0043692,0.001322879120634828,-6.986275541136233e-05
-0.0043681,0.00132287912063452,-0.0007474507088438831
-0.004367,0.0006463162696872127,-0.0007474507088438831
-0.0043659,0.000984597695161173,-6.98627554115164e-05
-0.0043648,0.001322879120634828,-0.0004086567321276227
-0.0043637,0.0009845976951607116,0.000268931221304744
-0.0043626,0.0003080348442134062,-6.986275541136233e-05
-0.0043615,0.0009845976951610193,-0.0004086567321276227
-0.0043604,0.0009845976951610193,-0.0007474507088438831
-0.0043593,0.0009845976951610193,-0.0004086567321276227
-0.0043582,0.001322879120634674,-0.0004086567321276227
-0.0043571,0.001322879120634828,-0.0007474507088438831
-0.004356,0.0006463162696875204,-0.0007474507088438831
-0.0043549,0.0009845976951610193,-0.0004086567321276227
-0.004353800000000001,0.0003080348442137139,-6.98627554115164e-05
-0.0043527,0.0006463162696872127,-0.0007474507088438831
-0.0043516,0.0009845976951610193,-0.000747450708843729
-0.0043505,0.0009845976951610193,-0.0004086567321276227
-0.0043494,0.001322879120634674,0.0002689312213045899
-0.0043483,0.0009845976951610193,-0.0004086567321276227
-0.0043472,0.0006463162696872127,-0.0004086567321274686
-0.0043461,0.0006463162696872127,-6.986275541136233e-05
-0.004345,0.0009845976951610193,-6.986275541136233e-05
-0.0043439,0.0009845976951610193,-0.0004086567321276227
-0.0043428,0.0006463162696872127,-6.986275541136233e-05
-0.0043417,0.0006463162696872127,-6.986275541136233e-05
-0.0043406,0.0009845976951610193,-0.0004086567321276227
-0.0043395,0.001322879120634674,-6.98627554115164e-05
-0.0043384,0.0009845976951610193,-6.986275541136233e-05
-0.004337300000000001,0.0009845976951610193,-0.0004086567321274686
-0.0043362,0.001322879120634828,-0.0004086567321276227
-0.004335100000000001,0.001322879120634828,-6.98627554115164e-05
-0.004334,0.0009845976951610193,-0.0007474507088438831
-0.0043329,0.0006463162696872127,-0.0004086567321274686
-0.0043318,0.0006463162696872127,-6.986275541136233e-05
-0.0043307,0.0009845976951610193,-6.986275541120827e-05
-0.0043296,0.0009845976951610193,0.000268931221304898
-0.0043285,0.0006463162696875204,-6.986275541167046e-05
-0.0043274,0.001322879120634828,-0.0007474507088438831
-0.0043263,0.001322879120634828,-6.986275541136233e-05
-0.0043252,0.0006463162696872127,-0.0004086567321276227
-0.0043241,0.0006463162696872127,-0.0007474507088438831
-0.004323,0.0006463162696872127,-0.0004086567321277768
-0.0043219,0.0006463162696872127,-0.0004086567321276227
-0.004320800000000001,0.0006463162696872127,-6.98627554115164e-05
-0.0043197,0.0006463162696872127,-6.986275541136233e-05
-0.004318600000000001,0.0009845976951608653,-6.986275541136233e-05
-0.0043175,0.0009845976951610193,-6.986275541136233e-05
-0.0043164,0.001322879120634828,-6.986275541136233e-05
-0.0043153,0.001322879120634828,-6.986275541136233e-05
-0.0043142,0.000984597695161173,-0.0004086567321276227
-0.0043131,0.001322879120634828,-0.0004086567321276227
-0.004312,0.0006463162696873666,-0.0004086567321274686
-0.0043109,0.0009845976951610193,-6.986275541136233e-05
-0.0043098,0.0009845976951610193,-0.0004086567321276227
-0.0043087,0.001322879120634828,-0.0004086567321276227
-0.0043076,0.0009845976951610193,-6.986275541136233e-05
-0.0043065,0.0006463162696873666,-6.986275541136233e-05
-0.0043054,0.0003080348442134062,-6.986275541136233e-05
-0.0043043,0.0006463162696870589,-6.986275541136233e-05
-0.0043032,0.0006463162696872127,-0.0004086567321276227
-0.004302100000000001,0.0009845976951608653,-6.98627554115164e-05
-0.004301,0.0009845976951610193,-0.0004086567321276227
-0.0042999,0.0006463162696873666,-0.0004086567321276227
-0.0042988,0.0009845976951610193,-0.0004086567321276227
-0.0042977,0.0009845976951608655,-0.0007474507088438831
-0.0042966,0.0006463162696872127,-0.0007474507088438831
-0.0042955,0.0009845976951610193,-0.0004086567321277768
-0.0042944,0.0009845976951610193,-0.0007474507088438831
-0.0042933,0.0006463162696870589,-0.0004086567321274686
-0.0042922,0.0003080348442134062,-6.986275541136233e-05
-0.0042911,0.0006463162696872127,-6.986275541136233e-05
-0.00429,0.0009845976951608653,-0.0004086567321274686
-0.0042889,0.0009845976951610193,-6.986275541136233e-05
-0.0042878,0.0009845976951610193,0.000268931221304744
-0.0042867,0.0006463162696872127,-0.0004086567321276227
-0.004285600000000001,0.0009845976951608653,-0.0004086567321276227
-0.0042845,0.001322879120634828,-0.0007474507088438831
-0.004283400000000001,0.0009845976951611732,-6.986275541167046e-05
-0.0042823,0.0006463162696872127,0.000268931221304898
-0.0042812,0.0006463162696873666,-6.986275541136233e-05
-0.0042801,0.0009845976951610193,-6.986275541136233e-05
-0.004279,0.0006463162696872127,-0.0004086567321276227
-0.0042779,0.0006463162696872127,-0.0004086567321276227
-0.0042768,0.0006463162696873666,-0.0004086567321274686
-0.0042757,0.0009845976951610193,-6.986275541136233e-05
-0.0042746,0.0009845976951610193,-0.0004086567321276227
-0.0042735,0.0006463162696872127,-0.0004086567321276227
-0.0042724,0.0006463162696872127,-0.0004086567321276227
-0.0042713,0.0009845976951608653,-6.98627554115164e-05
-0.0042702,0.0006463162696872127,-0.0004086567321276227
-0.0042691,0.0009845976951608653,-6.98627554115164e-05
-0.004268,0.0006463162696872127,-6.986275541136233e-05
-0.004266900000000001,0.0006463162696872127,-6.986275541136233e-05
-0.0042658,0.001322879120634828,-0.0007474507088438831
-0.0042647,0.0006463162696872127,-0.0004086567321273146
-0.0042636,0.0006463162696872127,0.000268931221304898
-0.0042625,0.001322879120634674,-6.986275541167046e-05
-0.0042614,0.0009845976951610193,-0.0007474507088438831
-0.0042603,0.001322879120634981,-0.0004086567321276227
-0.0042592,0.001661160546108634,-0.0004086567321276227
-0.0042581,0.001322879120634828,-0.0004086567321276227
-0.004257,0.001322879120634828,-6.986275541136233e-05
-0.0042559,0.001322879120634828,-6.986275541136233e-05
-0.0042548,0.0009845976951611732,-6.986275541136233e-05
-0.0042537,0.0009845976951610193,-0.0004086567321276227
-0.0042526,0.0006463162696873666,-6.98627554115164e-05
-0.0042515,0.0006463162696872127,-0.0004086567321276227
-0.004250400000000001,0.0009845976951608653,-6.98627554115164e-05
-0.0042493,0.0006463162696872127,-0.0004086567321276227
-0.0042482,0.0009845976951608655,-0.0004086567321274686
-0.0042471,0.0006463162696872127,-6.986275541136233e-05
-0.004246,0.0006463162696873666,-0.000747450708843729
-0.0042449,0.0009845976951610193,-0.0004086567321276227
-0.0042438,0.000984597695161173,-0.0004086567321274686
-0.0042427,0.001322879120634828,-6.986275541136233e-05
-0.0042416,0.0006463162696873666,-6.986275541120827e-05
-0.0042405,0.0009845976951610193,0.000268931221304898
-0.0042394,0.0006463162696872127,-6.986275541136233e-05
-0.0042383,0.00132287912063452,-0.0004086567321274686
-0.0042372,0.001661160546108634,-0.0004086567321276227
-0.0042361,0.001322879120634982,-6.98627554115164e-05
-0.004235,0.0009845976951610193,-6.986275541136233e-05
-0.004233900000000001,0.001322879120634674,-0.0004086567321274686
-0.0042328,0.0006463162696872127,-6.986275541136233e-05
-0.004231700000000001,0.0009845976951608653,-0.000747450708843575
-0.0042306,0.0009845976951610193,-0.0004086567321276227
-0.0042295,0.0009845976951610193,-0.0004086567321276227
-0.0042284,0.0009845976951610193,-0.0004086567321276227
-0.0042273,0.0009845976951608655,-0.0004086567321276227
-0.0042262,0.0006463162696872127,-0.0004086567321276227
-0.0042251,0.000984597695161327,-0.0004086567321279308
-0.004224,0.001661160546108634,-0.001086244685560143
-0.0042229,0.0009845976951610193,-0.0004086567321276227
-0.0042218,0.0006463162696872127,-0.0004086567321276227
-0.0042207,0.0009845976951610193,-0.0004086567321276227
-0.0042196,0.0006463162696873666,-0.000747450708843729
-0.0042185,0.0006463162696872127,-0.0004086567321276227
-0.0042174,0.0006463162696872127,-6.98627554115164e-05
-0.0042163,0.0006463162696872127,0.000268931221304898
-0.004215200000000001,0.0009845976951608653,-6.986275541120827e-05
-0.0042141,0.0009845976951610193,-0.0004086567321276227
-0.004213,0.0006463162696873666,-6.986275541136233e-05
-0.0042119,0.0009845976951610193,-6.986275541136233e-05
-0.0042108,0.00132287912063452,-6.986275541136233e-05
-0.0042097,0.0006463162696872127,-6.986275541136233e-05
-0.0042086,0.0009845976951608655,-0.0004086567321276227
-0.0042075,0.0006463162696872127,-0.0004086567321276227
-0.0042064,0.0006463162696873666,-0.0004086567321274686
-0.0042053,0.0009845976951610193,-6.986275541136233e-05
-0.0042042,0.0009845976951610193,-0.0004086567321276227
-0.0042031,0.0009845976951610193,-6.98627554115164e-05
-0.004202,0.0006463162696872127,-6.986275541136233e-05
-0.0042009,0.0009845976951608653,-0.0004086567321274686
-0.0041998,0.0006463162696872127,-0.0007474507088438831
-0.004198700000000001,0.0006463162696872127,-0.0007474507088438831
-0.0041976,0.001322879120634828,-6.986275541136233e-05
-0.004196500000000001,0.0009845976951611732,-0.0004086567321274686
-0.0041954,0.0006463162696872127,-0.0004086567321276227
-0.0041943,0.0006463162696872127,-0.0007474507088440372
-0.0041932,0.0006463162696872127,-0.001086244685560143
-0.0041921,0.0006463162696873666,-0.0004086567321276227
-0.004191,0.0009845976951610193,-0.0004086567321276227
-0.0041899,0.0006463162696870589,-0.0004086567321273146
-0.0041888,0.0003080348442134062,0.000268931221304898
-0.0041877,0.0009845976951610193,-6.986275541136233e-05
-0.0041866,0.0003080348442134062,-0.0004086567321276227
-0.0041855,0.0006463162696872127,-0.0004086567321276227
-0.0041844,0.0006463162696872127,-0.0004086567321276227
-0.0041833,0.0006463162696872127,-6.986275541136233e-05
-0.004182200000000001,0.0006463162696872127,-0.0004086567321274686
-0.0041811,0.0009845976951610193,-6.986275541136233e-05
-0.004180000000000001,0.0009845976951610193,0.000268931221304744
-0.0041789,0.0009845976951610193,-6.986275541136233e-05
-0.0041778,0.0009845976951608655,-6.98627554115164e-05
-0.0041767,0.0006463162696872127,-0.0004086567321276227
-0.0041756,0.0003080348442135601,-6.986275541167046e-05
-0.0041745,0.0006463162696872127,-0.0007474507088438831
-0.0041734,0.0009845976951608655,-0.000747450708843575
-0.0041723,0.0006463162696872127,-6.986275541136233e-05
-0.0041712,0.0006463162696872127,-0.0004086567321276227
-0.0041701,0.001322879120634828,-6.986275541136233e-05
-0.004169,0.0006463162696872127,-0.0007474507088438831
-0.0041679,0.0009845976951608653,-0.0004086567321277768
-0.0041668,0.001322879120634828,-0.0007474507088438831
-0.0041657,0.0009845976951611732,-6.986275541167046e-05
-0.0041646,0.0009845976951610193,-6.986275541136233e-05
-0.004163500000000001,0.0006463162696873666,-0.0004086567321274686
-0.0041624,0.0006463162696872127,-6.986275541136233e-05
-0.0041613,0.0006463162696872127,-0.0004086567321276227
-0.0041602,0.0006463162696872127,-0.0004086567321276227
-0.0041591,0.0006463162696873666,-0.0004086567321274686
-0.004158,0.0009845976951610193,-6.986275541136233e-05
-0.0041569,0.0009845976951608655,-0.0004086567321276227
-0.0041558,0.0006463162696872127,-0.0004086567321276227
-0.0041547,0.0009845976951608655,-6.986275541136233e-05
-0.0041536,0.0006463162696872127,-6.986275541136233e-05
-0.0041525,0.0006463162696872127,0.000268931221304898
-0.0041514,0.0009845976951608653,0.000268931221304898
-0.0041503,0.0006463162696872127,0.000268931221304898
-0.0041492,0.0009845976951608653,-6.986275541120827e-05
-0.0041481,0.0006463162696872127,-6.986275541136233e-05
-0.004147000000000001,0.0006463162696872127,-6.986275541136233e-05
-0.0041459,0.0009845976951610193,-6.986275541136233e-05
-0.004144800000000001,0.0009845976951610193,0.000268931221304744
-0.0041437,0.0009845976951610193,-0.0004086567321276227
-0.0041426,0.0009845976951610193,-0.0004086567321273146
-0.0041415,0.0009845976951610193,0.000268931221304898
-0.0041404,0.0009845976951610193,0.000268931221304744
-0.0041393,0.0009845976951610193,-6.986275541136233e-05
-0.0041382,0.001322879120634674,-6.98627554110542e-05
-0.0041371,0.0009845976951610193,0.0006077251980211584
-0.004136,0.0003080348442134062,0.000268931221304898
-0.0041349,0.0009845976951610193,-6.986275541136233e-05
-0.0041338,0.0009845976951610193,-0.0004086567321276227
-0.0041327,0.0006463162696873666,-6.98627554115164e-05
-0.0041316,0.0006463162696872127,-6.986275541136233e-05
-0.0041305,0.0006463162696872127,-6.986275541136233e-05
-0.0041294,0.0009845976951610193,-0.0007474507088438831
-0.004128300000000001,0.001322879120634674,-0.0004086567321277768
