ResultadosOndaP/ResultadosVelocidadOndaPSueloCeramica/ProbetaM3_21_Run#1.csv

#Digilent WaveForms Oscilloscope Acquisition
#Device Name: Discovery2
#Serial Number: SN:210321AD1806
#Date Time: 2023-10-16 11:31:16.671
#Sample rate: 909091Hz
#Samples: 8192
#Trigger: Source: Channel 2 Type: Edge Condition: Rising Level: 115 mV Hyst.: Auto HoldOff: 0 s
#Channel 1: Range: 20 mV/div Offset: 8 mV Attenuation: 1 X Sample Mode: Average
#Channel 2: Range: 100 mV/div Offset: 35 mV Attenuation: 1 X Sample Mode: Average

Time (s),Channel 1 (V),Channel 2 (V)
-0.0045056,-0.0003685280067342069,0.0009465191747374188
-0.0045045,-0.0007068094322078595,0.0009465191747375729
-0.0045034,-0.0003685280067342069,0.001285313151453679
-0.0045023,-0.0007068094322080134,0.0009465191747372647
-0.0045012,-0.0007068094322080134,0.0006077251980211584
-0.0045001,-3.024658126040032e-05,0.0006077251980211584
-0.004499,-3.024658126040032e-05,0.0009465191747374188
-0.0044979,-0.0003685280067342069,0.001285313151453679
-0.0044968,-3.024658126055417e-05,0.0006077251980214666
-0.0044957,-0.0003685280067342069,0.0006077251980211584
-0.004494600000000001,-0.0003685280067342069,0.0009465191747372647
-0.0044935,-0.0003685280067342069,0.0009465191747374188
-0.004492400000000001,-0.0003685280067342069,0.001285313151453525
-0.0044913,-3.024658126040032e-05,0.001285313151453679
-0.0044902,-0.0007068094322077057,0.0006077251980211584
-0.0044891,-3.024658126040032e-05,0.0006077251980211584
-0.004488,-3.024658126055415e-05,0.0006077251980210044
-0.0044869,-0.0003685280067342069,0.000268931221304898
-0.0044858,-3.024658126040032e-05,0.000268931221304744
-0.0044847,-3.024658126040032e-05,-6.986275541136233e-05
-0.0044836,-3.024658126040032e-05,0.0006077251980211584
-0.0044825,-3.024658126040032e-05,0.001285313151453679
-0.0044814,-3.024658126040032e-05,0.0006077251980211584
-0.0044803,-0.000368528006734053,0.0006077251980211584
-0.0044792,-3.024658126040032e-05,0.0009465191747374188
-0.0044781,-3.024658126040032e-05,0.0006077251980213125
-0.004477,-3.024658126040032e-05,0.0006077251980211584
-0.004475900000000001,-3.024658126040032e-05,0.0006077251980211584
-0.0044748,-3.024658126040032e-05,0.0006077251980211584
-0.0044737,-3.024658126055415e-05,0.0006077251980213125
-0.0044726,-0.0003685280067342069,0.0009465191747374188
-0.0044715,-0.000368528006734053,0.0006077251980213125
-0.0044704,-3.024658126040032e-05,0.0009465191747374188
-0.0044693,-0.0003685280067343607,0.0009465191747372647
-0.0044682,-0.0007068094322080134,0.0006077251980211584
-0.0044671,-0.000368528006734053,0.0002689312213050521
-0.004466,-3.024658126040032e-05,0.0006077251980211584
-0.0044649,-0.0003685280067342069,0.0009465191747374188
-0.0044638,-3.024658126055417e-05,0.0009465191747374188
-0.0044627,-3.024658126040032e-05,0.0006077251980211584
-0.0044616,-0.000368528006734053,0.0006077251980211584
-0.0044605,-0.0003685280067342069,0.0006077251980211584
-0.004459400000000001,-0.0007068094322078595,0.0006077251980211584
-0.0044583,-0.0007068094322080134,0.0006077251980211584
-0.004457200000000001,-0.0007068094322080134,0.0006077251980211584
-0.0044561,-0.0007068094322080134,0.000268931221304898
-0.004455,-0.0007068094322078595,0.0009465191747375729
-0.0044539,-0.0003685280067342069,0.001285313151453679
-0.0044528,-0.000368528006734053,0.0009465191747372647
-0.0044517,-3.024658126040032e-05,0.0006077251980211584
-0.0044506,-3.024658126040032e-05,0.0006077251980211584
-0.0044495,-3.024658126040032e-05,0.0006077251980211584
-0.0044484,-0.0007068094322080134,0.0009465191747374188
-0.0044473,-0.0007068094322080134,0.0009465191747374188
-0.0044462,-0.0003685280067342069,0.0006077251980211584
-0.0044451,-3.024658126055417e-05,0.0006077251980211584
-0.004444,-0.0007068094322080134,0.0009465191747374188
-0.0044429,-0.0003685280067343607,0.0002689312213052062
-0.0044418,-0.0003685280067342069,0.0006077251980211584
-0.004440700000000001,-0.0003685280067342069,0.0006077251980211584
-0.0044396,-3.024658126040032e-05,0.000268931221304898
-0.0044385,-3.024658126055415e-05,0.0009465191747371107
-0.0044374,-0.0003685280067342069,0.000268931221304898
-0.0044363,-0.0003685280067342069,0.0006077251980213125
-0.0044352,-0.0003685280067342069,0.0009465191747374188
-0.0044341,-0.0003685280067342069,0.0006077251980211584
-0.004433,-0.0003685280067342069,0.0006077251980211584
-0.0044319,-0.0003685280067343607,0.0009465191747371107
-0.0044308,-0.0007068094322080134,0.000268931221304898
-0.0044297,-0.0007068094322080134,0.0006077251980211584
-0.0044286,-0.0007068094322080134,0.0006077251980211584
-0.0044275,-0.0007068094322080134,0.0006077251980211584
-0.0044264,-0.0003685280067343607,0.0009465191747372647
-0.0044253,-3.024658126040032e-05,0.0006077251980211584
-0.004424200000000001,-0.000368528006734053,0.0002689312213050521
-0.0044231,-0.0003685280067342069,-6.986275541136233e-05
-0.004422000000000001,-0.0003685280067342069,0.000268931221304744
-0.0044209,-3.024658126040032e-05,0.000268931221304898
-0.0044198,-3.024658126040032e-05,0.0006077251980211584
-0.0044187,-3.024658126040032e-05,0.0006077251980211584
-0.0044176,-3.024658126040032e-05,0.0006077251980211584
-0.0044165,-3.024658126040032e-05,0.0006077251980211584
-0.0044154,-0.0007068094322080134,0.0006077251980213125
-0.0044143,-0.0007068094322080134,0.0009465191747374188
-0.0044132,-0.0003685280067342069,0.0006077251980211584
-0.0044121,-0.0003685280067342069,0.0006077251980211584
-0.004411,-0.0003685280067342069,0.0006077251980211584
-0.0044099,-0.0007068094322078595,0.0006077251980211584
-0.0044088,-0.0003685280067342069,0.000268931221304898
-0.004407700000000001,-3.024658126055417e-05,0.0006077251980210044
-0.0044066,-3.024658126040032e-05,0.0006077251980211584
-0.004405500000000001,-0.000368528006734053,0.0006077251980211584
-0.0044044,-0.0003685280067342069,0.0006077251980211584
-0.0044033,-0.000368528006734053,0.0006077251980211584
-0.0044022,-3.024658126040032e-05,0.0006077251980211584
-0.0044011,-0.000368528006734053,0.0009465191747374188
-0.0044,-3.024658126040032e-05,0.0009465191747374188
-0.0043989,-0.0003685280067342069,0.0009465191747374188
-0.0043978,-0.0003685280067342069,0.0009465191747374188
-0.0043967,-3.024658126040032e-05,0.0006077251980211584
-0.0043956,-0.0007068094322080134,0.0006077251980211584
-0.0043945,-0.0007068094322080134,0.0009465191747374188
-0.0043934,-3.024658126070802e-05,0.0009465191747374188
-0.0043923,-3.024658126040032e-05,0.0009465191747374188
-0.0043912,-0.000368528006734053,0.0006077251980213125
-0.0043901,-0.0007068094322080134,0.0006077251980211584
-0.004389000000000001,-3.024658126070802e-05,0.0006077251980211584
-0.0043879,-0.0003685280067342069,0.0006077251980211584
-0.0043868,-0.0003685280067342069,0.0006077251980213125
-0.0043857,-0.0003685280067342069,0.0009465191747374188
-0.0043846,-0.0003685280067342069,0.0006077251980211584
-0.0043835,-0.0003685280067342069,0.0006077251980211584
-0.0043824,-3.024658126040032e-05,0.0006077251980213125
-0.0043813,-3.024658126040032e-05,0.0009465191747374188
-0.0043802,-0.0003685280067342069,0.0009465191747374188
-0.0043791,-0.0003685280067342069,0.0009465191747374188
-0.004378,-0.0003685280067342069,0.0006077251980211584
-0.0043769,-0.0007068094322078595,0.0009465191747372647
-0.0043758,-0.0007068094322080134,0.0009465191747374188
-0.0043747,-0.0003685280067343607,0.001285313151453525
-0.0043736,-0.0007068094322080134,0.001285313151453679
-0.004372500000000001,-0.0003685280067343607,0.0009465191747375729
-0.0043714,-3.024658126040032e-05,0.0009465191747374188
-0.004370300000000001,-0.000368528006734053,0.0006077251980213125
-0.0043692,-3.024658126040032e-05,0.001285313151453679
-0.0043681,-0.0007068094322080134,0.0009465191747374188
-0.004367,-0.0007068094322080134,0.0009465191747374188
-0.0043659,-3.024658126055415e-05,0.0009465191747372647
-0.0043648,-0.0003685280067342069,0.0006077251980211584
-0.0043637,-0.0007068094322078595,0.000268931221304898
-0.0043626,-0.0003685280067342069,0.000268931221304898
-0.0043615,-3.024658126040032e-05,0.0009465191747374188
-0.0043604,-0.0007068094322080134,0.0009465191747374188
-0.0043593,-0.0007068094322080134,0.0009465191747374188
-0.0043582,-0.0003685280067343607,0.0006077251980213125
-0.0043571,-0.0003685280067342069,0.001285313151453679
-0.004356,-3.024658126055417e-05,0.001285313151453679
-0.0043549,-3.024658126040032e-05,0.0009465191747374188
-0.004353800000000001,-0.000368528006734053,0.0006077251980213125
-0.0043527,-0.0003685280067342069,0.0009465191747374188
-0.0043516,-0.0003685280067343607,0.0006077251980213125
-0.0043505,-0.0007068094322080134,0.0009465191747374188
-0.0043494,-0.0003685280067342069,0.001285313151453525
-0.0043483,-0.0003685280067342069,0.0009465191747374188
-0.0043472,-3.024658126040032e-05,0.0006077251980211584
-0.0043461,-3.024658126040032e-05,0.0006077251980211584
-0.004345,-0.0003685280067342069,0.0009465191747374188
-0.0043439,-0.0003685280067342069,0.0009465191747374188
-0.0043428,-0.0007068094322080134,0.0009465191747374188
-0.0043417,-0.0007068094322080134,0.0006077251980213125
-0.0043406,-3.024658126040032e-05,0.0006077251980211584
-0.0043395,-3.024658126040032e-05,0.0009465191747372647
-0.0043384,-3.024658126040032e-05,0.001285313151453679
-0.004337300000000001,-3.024658126040032e-05,0.0006077251980214666
-0.0043362,-3.024658126040032e-05,0.0009465191747374188
-0.004335100000000001,-3.024658126040032e-05,0.0009465191747374188
-0.004334,-3.024658126040032e-05,0.0006077251980211584
-0.0043329,-0.0003685280067343607,0.001285313151453525
-0.0043318,-0.0007068094322080134,0.0009465191747374188
-0.0043307,-0.0003685280067342069,0.0009465191747374188
-0.0043296,-0.0003685280067342069,0.0009465191747374188
-0.0043285,-0.0007068094322080134,0.0006077251980210044
-0.0043274,-0.0007068094322080134,0.000268931221304898
-0.0043263,-0.0003685280067342069,0.000268931221304898
-0.0043252,-0.0007068094322080134,0.0006077251980211584
-0.0043241,-0.0003685280067342069,0.000268931221304898
-0.004323,-3.024658126055417e-05,0.0006077251980210044
-0.0043219,0.0003080348442134062,0.0009465191747374188
-0.004320800000000001,0.0003080348442134062,0.0009465191747374188
-0.0043197,-0.0007068094322080134,0.0006077251980211584
-0.004318600000000001,-0.0007068094322080134,0.0006077251980211584
-0.0043175,-3.024658126040032e-05,0.0009465191747374188
-0.0043164,-0.000368528006734053,0.0009465191747372647
-0.0043153,-3.024658126040032e-05,0.0006077251980211584
-0.0043142,-3.024658126024649e-05,0.0006077251980213125
-0.0043131,0.0003080348442134062,0.0009465191747374188
-0.004312,-3.024658126040032e-05,0.0006077251980213125
-0.0043109,-3.024658126040032e-05,0.0009465191747374188
-0.0043098,0.0003080348442134062,0.000268931221304898
-0.0043087,-3.024658126040032e-05,0.0006077251980211584
-0.0043076,-0.0003685280067342069,0.0009465191747374188
-0.0043065,-0.0003685280067342069,0.0002689312213052062
-0.0043054,-0.0003685280067342069,0.000268931221304898
-0.0043043,-0.0007068094322078595,0.0006077251980210044
-0.0043032,-3.024658126040032e-05,0.0009465191747374188
-0.004302100000000001,-0.000368528006734053,0.0009465191747374188
-0.004301,-3.024658126040032e-05,0.0009465191747374188
-0.0042999,-3.024658126055415e-05,0.0006077251980210044
-0.0042988,-0.0003685280067342069,0.000268931221304898
-0.0042977,0.0003080348442130986,0.0009465191747374188
-0.0042966,-0.0003685280067342069,0.0009465191747374188
-0.0042955,-3.024658126009265e-05,0.0002689312213050521
-0.0042944,0.0006463162696872127,0.0006077251980211584
-0.0042933,-3.024658126055415e-05,0.0006077251980213125
-0.0042922,-0.0003685280067342069,0.0009465191747374188
-0.0042911,-3.024658126040032e-05,0.0009465191747374188
-0.00429,-0.000368528006734053,0.0009465191747374188
-0.0042889,-3.024658126040032e-05,0.0006077251980211584
-0.0042878,-3.024658126040032e-05,0.0002689312213050521
-0.0042867,-3.024658126040032e-05,0.0009465191747374188
-0.004285600000000001,-3.024658126040032e-05,0.0009465191747374188
-0.0042845,-0.0003685280067342069,0.0009465191747374188
-0.004283400000000001,-0.0003685280067342069,0.0006077251980213125
-0.0042823,-3.024658126040032e-05,0.0006077251980211584
-0.0042812,-0.0003685280067342069,0.0006077251980211584
-0.0042801,-0.0003685280067342069,0.0006077251980211584
-0.004279,-0.0007068094322078595,0.001285313151453525
-0.0042779,-0.0003685280067342069,0.0009465191747374188
-0.0042768,-3.024658126055415e-05,0.0006077251980211584
-0.0042757,-0.0003685280067342069,0.0006077251980211584
-0.0042746,-0.0003685280067342069,0.0006077251980211584
-0.0042735,-0.0007068094322080134,0.0009465191747374188
-0.0042724,-0.0003685280067342069,0.001285313151453679
-0.0042713,-3.024658126055417e-05,0.0006077251980214666
-0.0042702,-0.0003685280067342069,0.0009465191747374188
-0.0042691,-3.024658126055417e-05,0.0002689312213052062
-0.004268,-0.0003685280067342069,0.0006077251980211584
-0.004266900000000001,-3.024658126055417e-05,0.0009465191747372647
-0.0042658,-3.024658126040032e-05,0.0006077251980211584
-0.0042647,-3.024658126040032e-05,0.0009465191747374188
-0.0042636,-3.024658126040032e-05,0.0009465191747374188
-0.0042625,-0.0003685280067342069,0.001285313151453371
-0.0042614,-0.0003685280067342069,0.0006077251980211584
-0.0042603,0.0003080348442130986,0.0006077251980213125
-0.0042592,-0.0003685280067342069,0.0009465191747374188
-0.0042581,-0.0003685280067342069,0.001285313151453679
-0.004257,-0.0007068094322080134,0.001285313151453679
-0.0042559,-3.024658126040032e-05,0.000268931221304898
-0.0042548,-0.000368528006734053,0.0009465191747371107
-0.0042537,-3.024658126040032e-05,0.0006077251980211584
-0.0042526,-3.024658126040032e-05,0.0002689312213050521
-0.0042515,-3.024658126040032e-05,0.0009465191747374188
-0.004250400000000001,-0.000368528006734053,0.0009465191747374188
-0.0042493,0.0003080348442134062,0.0006077251980211584
-0.0042482,0.0003080348442132524,0.0006077251980210044
-0.0042471,-3.024658126040032e-05,0.000268931221304898
-0.004246,-3.024658126055415e-05,0.0006077251980211584
-0.0042449,-0.0003685280067342069,0.0006077251980211584
-0.0042438,-3.024658126040032e-05,0.0009465191747372647
-0.0042427,-3.024658126040032e-05,0.0006077251980211584
-0.0042416,-0.0003685280067337454,0.0006077251980211584
-0.0042405,0.0006463162696872127,0.0006077251980211584
-0.0042394,-0.0003685280067342069,0.0006077251980211584
-0.0042383,-0.0003685280067342069,0.0006077251980211584
-0.0042372,-3.024658126040032e-05,0.0009465191747374188
-0.0042361,0.0003080348442132524,0.001285313151453525
-0.004235,-0.0003685280067342069,0.0006077251980211584
-0.004233900000000001,-0.0003685280067342069,0.0009465191747372647
-0.0042328,-3.024658126040032e-05,0.001285313151453679
-0.004231700000000001,-3.024658126040032e-05,0.0009465191747375729
-0.0042306,-3.024658126040032e-05,0.000268931221304898
-0.0042295,-0.000368528006734053,0.0006077251980211584
-0.0042284,-3.024658126040032e-05,0.0006077251980211584
-0.0042273,-0.000368528006734053,0.0009465191747372647
-0.0042262,-3.024658126040032e-05,0.0006077251980211584
-0.0042251,0.0003080348442132524,0.0009465191747372647
-0.004224,-3.024658126040032e-05,0.0006077251980211584
-0.0042229,-3.024658126040032e-05,0.0006077251980211584
-0.0042218,-3.024658126040032e-05,0.0006077251980211584
-0.0042207,-0.0003685280067342069,0.0006077251980211584
-0.0042196,-0.0003685280067342069,0.0002689312213050521
-0.0042185,-3.024658126040032e-05,0.000268931221304898
-0.0042174,-3.024658126040032e-05,0.0006077251980210044
-0.0042163,-3.024658126040032e-05,0.000268931221304898
-0.004215200000000001,-0.000368528006734053,0.0006077251980210044
-0.0042141,-0.0007068094322080134,0.0009465191747374188
-0.004213,-0.0007068094322080134,0.0006077251980211584
-0.0042119,-0.0007068094322080134,0.0006077251980211584
-0.0042108,-0.000368528006734053,0.0009465191747371107
-0.0042097,-3.024658126040032e-05,0.000268931221304898
-0.0042086,-3.024658126040032e-05,0.0002689312213052062
-0.0042075,-3.024658126040032e-05,0.0009465191747374188
-0.0042064,-3.024658126055415e-05,0.0009465191747374188
-0.0042053,-0.0003685280067342069,0.0009465191747374188
-0.0042042,-0.0003685280067342069,0.0006077251980211584
-0.0042031,-3.024658126055417e-05,0.0006077251980211584
-0.004202,0.0003080348442134062,0.0006077251980211584
-0.0042009,0.0003080348442134062,0.0006077251980211584
-0.0041998,-0.0003685280067342069,0.0009465191747374188
-0.004198700000000001,0.0003080348442130985,0.0009465191747374188
-0.0041976,-0.0003685280067342069,0.0009465191747374188
-0.004196500000000001,-3.024658126055417e-05,0.0006077251980213125
-0.0041954,-3.024658126040032e-05,0.0009465191747374188
-0.0041943,-0.0003685280067343607,0.0006077251980211584
-0.0041932,-0.0007068094322080134,0.0006077251980211584
-0.0041921,-3.024658126070799e-05,0.0002689312213053602
-0.004191,-0.0007068094322080134,0.001285313151453679
-0.0041899,-3.024658126040032e-05,0.0009465191747374188
-0.0041888,-3.024658126040032e-05,0.0009465191747374188
-0.0041877,-0.0003685280067342069,0.0009465191747374188
-0.0041866,-0.0007068094322080134,0.000268931221304898
-0.0041855,-0.0003685280067342069,0.0009465191747374188
-0.0041844,-3.024658126055417e-05,0.0006077251980213125
-0.0041833,-3.024658126040032e-05,0.0006077251980211584
-0.004182200000000001,-0.000368528006734053,0.0006077251980211584
-0.0041811,-0.0003685280067342069,0.0006077251980211584
-0.004180000000000001,0.0003080348442130985,0.0009465191747372647
-0.0041789,-3.024658126040032e-05,0.001285313151453679
-0.0041778,-3.024658126040032e-05,0.0009465191747372647
-0.0041767,-3.024658126040032e-05,0.0006077251980211584
-0.0041756,-0.0003685280067343607,0.0009465191747372647
-0.0041745,-0.0007068094322080134,0.0006077251980211584
-0.0041734,-0.0003685280067342069,0.0006077251980211584
-0.0041723,-0.0003685280067342069,0.0006077251980211584
-0.0041712,-0.0003685280067342069,0.0006077251980211584
-0.0041701,-0.0003685280067342069,0.0006077251980211584
-0.004169,-0.0003685280067342069,0.0009465191747374188
-0.0041679,-0.0003685280067342069,0.0006077251980213125
-0.0041668,-3.024658126040032e-05,0.0009465191747374188
-0.0041657,-3.024658126040032e-05,0.0002689312213052062
-0.0041646,-0.001045090857681821,0.0006077251980211584
-0.004163500000000001,-0.0003685280067345145,0.0006077251980211584
-0.0041624,-0.0003685280067342069,0.0009465191747374188
-0.0041613,-3.024658126040032e-05,0.0006077251980211584
-0.0041602,-3.024658126040032e-05,0.0006077251980211584
-0.0041591,-0.000368528006734053,0.0006077251980214666
-0.004158,-3.024658126040032e-05,0.001285313151453679
-0.0041569,-3.024658126040032e-05,0.001285313151453525
-0.0041558,-3.024658126040032e-05,0.0009465191747374188
-0.0041547,-0.0003685280067342069,0.0009465191747372647
-0.0041536,-0.0003685280067342069,0.0006077251980211584
-0.0041525,-0.0007068094322080134,0.0009465191747374188
-0.0041514,-0.0003685280067343607,0.0006077251980213125
-0.0041503,-0.0003685280067342069,0.000268931221304898
-0.0041492,-0.0007068094322078595,0.0006077251980210044
-0.0041481,-0.0003685280067342069,0.0006077251980211584
-0.004147000000000001,-3.024658126055417e-05,0.0006077251980211584
-0.0041459,-0.0003685280067342069,0.0006077251980211584
-0.004144800000000001,-3.024658126055417e-05,0.001285313151453371
-0.0041437,-3.024658126040032e-05,0.001285313151453679
-0.0041426,-0.0003685280067343607,0.0009465191747375729
-0.0041415,-0.0007068094322080134,0.001285313151453679
-0.0041404,-0.0007068094322077057,0.0009465191747371107
-0.0041393,-3.024658126040032e-05,0.000268931221304898
-0.0041382,0.0003080348442130986,0.0006077251980210044
-0.0041371,-0.0003685280067342069,0.000268931221304898
-0.004136,-0.0003685280067342069,0.000268931221304898
-0.0041349,-0.0003685280067342069,0.0006077251980211584
-0.0041338,-0.0003685280067342069,0.0006077251980211584
-0.0041327,-0.0003685280067342069,0.0006077251980211584
-0.0041316,-3.024658126040032e-05,0.0009465191747374188
-0.0041305,0.0003080348442132524,0.0009465191747374188
-0.0041294,-3.024658126040032e-05,0.0006077251980211584
-0.004128300000000001,-0.000368528006734053,0.0006077251980211584
