ResultadosOndaP/ResultadosVelocidadOndaPSueloCeramica/ProbetaM2_19_Run#2.csv

#Digilent WaveForms Oscilloscope Acquisition
#Device Name: Discovery2
#Serial Number: SN:210321AD1806
#Date Time: 2023-10-16 11:25:37.493
#Sample rate: 909091Hz
#Samples: 8192
#Trigger: Source: Channel 2 Type: Edge Condition: Rising Level: 115 mV Hyst.: Auto HoldOff: 0 s
#Channel 1: Range: 20 mV/div Offset: 8 mV Attenuation: 1 X Sample Mode: Average
#Channel 2: Range: 100 mV/div Offset: 35 mV Attenuation: 1 X Sample Mode: Average

Time (s),Channel 1 (V),Channel 2 (V)
-0.004505233333333334,-3.024658126040032e-05,0.000268931221304898
-0.004504133333333334,-3.024658126040032e-05,0.000268931221304898
-0.004503033333333334,-3.024658126040032e-05,0.000268931221304898
-0.004501933333333334,-3.024658126040032e-05,0.0009465191747371107
-0.004500833333333334,-3.024658126040032e-05,0.000268931221304898
-0.004499733333333334,-3.024658126040032e-05,-6.986275541136233e-05
-0.004498633333333334,-0.0003685280067342069,-6.986275541136233e-05
-0.004497533333333334,-0.0003685280067342069,0.000268931221304898
-0.004496433333333334,-3.024658126055417e-05,0.0006077251980210044
-0.004495333333333334,-0.0003685280067342069,0.000268931221304898
-0.004494233333333334,-0.0003685280067342069,0.000268931221304898
-0.004493133333333334,-0.0007068094322080134,0.000268931221304898
-0.004492033333333334,-0.0007068094322080134,0.0006077251980210044
-0.004490933333333334,-0.0007068094322080134,0.0006077251980211584
-0.004489833333333334,-0.0003685280067342069,0.000268931221304898
-0.004488733333333334,-0.0003685280067342069,0.000268931221304898
-0.004487633333333334,-3.024658126024649e-05,-6.986275541120827e-05
-0.004486533333333334,0.0003080348442134062,0.000268931221304898
-0.004485433333333334,-3.024658126040032e-05,-6.986275541136233e-05
-0.004484333333333334,-3.024658126040032e-05,-6.986275541136233e-05
-0.004483233333333334,0.0003080348442134062,-6.986275541136233e-05
-0.004482133333333334,-3.024658126040032e-05,0.0006077251980211584
-0.004481033333333334,-0.0003685280067342069,0.0006077251980211584
-0.004479933333333334,-0.0003685280067342069,0.0002689312213050521
-0.004478833333333334,-0.0003685280067342069,0.000268931221304898
-0.004477733333333334,-0.0007068094322078595,0.000268931221304898
-0.004476633333333334,-0.0007068094322080134,-6.986275541136233e-05
-0.004475533333333334,-0.0003685280067343607,0.0006077251980208503
-0.004474433333333334,-0.0003685280067342069,0.0006077251980211584
-0.004473333333333334,-0.0007068094322078595,0.0006077251980210044
-0.004472233333333334,-0.0003685280067342069,0.000268931221304898
-0.004471133333333334,-0.0003685280067342069,0.0006077251980208503
-0.004470033333333334,-0.0003685280067342069,-6.986275541136233e-05
-0.004468933333333334,-0.0007068094322078595,-6.986275541120827e-05
-0.004467833333333334,-0.0003685280067342069,0.000268931221304898
-0.004466733333333334,-0.0007068094322077057,0.000268931221304744
-0.004465633333333334,-3.024658126040032e-05,-6.986275541136233e-05
-0.004464533333333334,-0.0007068094322080134,-6.986275541136233e-05
-0.004463433333333334,-0.0007068094322080134,0.000268931221304744
-0.004462333333333334,-0.0003685280067342069,0.0006077251980211584
-0.004461233333333334,-3.024658126055417e-05,-6.98627554110542e-05
-0.004460133333333334,-0.0003685280067342069,0.000268931221304898
-0.004459033333333334,-0.0007068094322078595,0.000268931221304898
-0.004457933333333334,-0.0003685280067342069,-6.986275541136233e-05
-0.004456833333333334,-0.0007068094322078595,-6.986275541136233e-05
-0.004455733333333334,-0.0003685280067342069,0.000268931221304898
-0.004454633333333334,-3.024658126055415e-05,-6.986275541120827e-05
-0.004453533333333334,-0.0003685280067342069,0.000268931221304898
-0.004452433333333334,-0.000368528006734053,-6.986275541136233e-05
-0.004451333333333334,-3.024658126040032e-05,-6.986275541136233e-05
-0.004450233333333334,-3.024658126070799e-05,0.0006077251980211584
-0.004449133333333334,-0.0007068094322080134,0.0006077251980211584
-0.004448033333333334,-0.0003685280067342069,-6.986275541136233e-05
-0.004446933333333334,-0.0003685280067342069,-6.986275541136233e-05
-0.004445833333333334,-3.024658126040032e-05,-6.986275541136233e-05
-0.004444733333333334,-3.024658126040032e-05,0.000268931221304744
-0.004443633333333334,-3.024658126040032e-05,-6.986275541136233e-05
-0.004442533333333334,-0.000368528006734053,-6.986275541136233e-05
-0.004441433333333334,-3.024658126040032e-05,0.000268931221304898
-0.004440333333333334,-3.024658126040032e-05,0.000268931221304898
-0.004439233333333334,-3.024658126040032e-05,-6.986275541136233e-05
-0.004438133333333334,-0.0003685280067342069,-6.986275541136233e-05
-0.004437033333333334,-0.0003685280067342069,-6.986275541136233e-05
-0.004435933333333334,-0.0003685280067342069,-6.986275541136233e-05
-0.004434833333333334,-0.0003685280067342069,-6.986275541136233e-05
-0.004433733333333334,-0.000368528006734053,-6.986275541136233e-05
-0.004432633333333334,-3.024658126040032e-05,-6.986275541136233e-05
-0.004431533333333334,-3.024658126055415e-05,-6.986275541120827e-05
-0.004430433333333334,-0.0003685280067342069,0.000268931221304898
-0.004429333333333334,-0.0003685280067342069,-6.986275541136233e-05
-0.004428233333333334,-0.0007068094322078595,0.000268931221304744
-0.004427133333333334,-0.0003685280067342069,0.0006077251980211584
-0.004426033333333334,-0.0003685280067342069,0.0002689312213050521
-0.004424933333333334,-0.001045090857681821,0.000268931221304898
-0.004423833333333334,-0.0007068094322081672,0.000268931221304898
-0.004422733333333334,-0.0003685280067342069,0.000268931221304898
-0.004421633333333334,-0.0003685280067342069,0.0006077251980210044
-0.004420533333333334,-3.024658126040032e-05,0.000268931221304898
-0.004419433333333334,-0.0003685280067342069,0.0006077251980211584
-0.004418333333333334,-0.0003685280067342069,0.0006077251980211584
-0.004417233333333334,-0.0007068094322078595,0.0002689312213050521
-0.004416133333333334,-0.0003685280067342069,0.0006077251980211584
-0.004415033333333334,-3.024658126055415e-05,0.0002689312213050521
-0.004413933333333334,-0.0003685280067342069,0.0006077251980211584
-0.004412833333333334,-0.0003685280067342069,0.000268931221304898
-0.004411733333333334,-3.024658126040032e-05,-6.986275541136233e-05
-0.004410633333333334,-0.0003685280067342069,-6.986275541136233e-05
-0.004409533333333334,-0.0003685280067342069,-6.986275541136233e-05
-0.004408433333333334,-0.0003685280067342069,0.000268931221304898
-0.004407333333333334,-0.0007068094322078595,-6.986275541120827e-05
-0.004406233333333334,-0.0003685280067342069,0.000268931221304898
-0.004405133333333334,-0.0003685280067342069,-6.986275541120827e-05
-0.004404033333333334,-3.024658126040032e-05,0.000268931221304898
-0.004402933333333334,-0.0003685280067342069,0.0006077251980211584
-0.004401833333333334,-0.0003685280067342069,0.0006077251980211584
-0.004400733333333334,-0.0003685280067342069,0.000268931221304898
-0.004399633333333334,-0.0003685280067342069,0.000268931221304898
-0.004398533333333334,-3.024658126055415e-05,-6.986275541120827e-05
-0.004397433333333334,-0.0003685280067342069,0.000268931221304898
-0.004396333333333334,-3.024658126040032e-05,-6.986275541136233e-05
-0.004395233333333334,-0.0003685280067342069,-6.986275541136233e-05
-0.004394133333333334,-0.0003685280067342069,0.0006077251980211584
-0.004393033333333334,-0.0003685280067342069,0.0006077251980211584
-0.004391933333333334,-0.0003685280067342069,0.0006077251980211584
-0.004390833333333334,-0.0003685280067342069,0.0002689312213050521
-0.004389733333333334,-0.0003685280067342069,0.0006077251980211584
-0.004388633333333334,-3.024658126055417e-05,0.0002689312213050521
-0.004387533333333334,-0.0003685280067342069,0.000268931221304898
-0.004386433333333334,-3.024658126055415e-05,0.0006077251980210044
-0.004385333333333334,-0.0003685280067342069,0.000268931221304898
-0.004384233333333334,-0.0003685280067345145,-0.0004086567321271605
-0.004383133333333334,-0.001045090857681821,0.0006077251980211584
-0.004382033333333334,-0.000368528006734053,0.0006077251980210044
-0.004380933333333334,-3.024658126040032e-05,0.000268931221304898
-0.004379833333333334,-0.0003685280067342069,0.000268931221304744
-0.004378733333333334,-0.0003685280067342069,-6.986275541136233e-05
-0.004377633333333334,-0.0003685280067342069,-6.986275541136233e-05
-0.004376533333333334,-0.0007068094322078595,-0.0004086567321274686
-0.004375433333333334,-0.0007068094322080134,0.000268931221304898
-0.004374333333333334,-0.0007068094322080134,0.000268931221304898
-0.004373233333333334,-3.024658126040032e-05,0.000268931221304898
-0.004372133333333334,-0.0007068094322077057,0.000268931221304898
-0.004371033333333334,-0.0003685280067342069,0.000268931221304898
-0.004369933333333334,-3.024658126055417e-05,0.000268931221304898
-0.004368833333333334,-0.0007068094322080134,0.000268931221304898
-0.004367733333333334,-0.0007068094322077057,0.000268931221304744
-0.004366633333333334,-3.024658126040032e-05,-6.986275541136233e-05
-0.004365533333333334,-0.0003685280067343607,-0.000747450708843729
-0.004364433333333334,-0.0007068094322080134,-0.0004086567321276227
-0.004363333333333334,-0.0007068094322080134,-0.0004086567321274686
-0.004362233333333334,-0.0007068094322080134,-6.986275541136233e-05
-0.004361133333333334,-3.024658126040032e-05,-0.0004086567321276227
-0.004360033333333334,-3.024658126040032e-05,0.000268931221304898
-0.004358933333333334,-0.0003685280067342069,0.0006077251980211584
-0.004357833333333334,-0.0007068094322078595,0.0009465191747372647
-0.004356733333333334,-0.0007068094322080134,0.0006077251980211584
-0.004355633333333334,-0.0007068094322080134,0.0002689312213050521
-0.004354533333333334,-3.024658126040032e-05,0.000268931221304898
-0.004353433333333334,-3.024658126040032e-05,0.000268931221304898
-0.004352333333333334,-0.0003685280067342069,0.000268931221304898
-0.004351233333333334,-3.024658126040032e-05,-0.0004086567321274686
-0.004350133333333334,-3.024658126040032e-05,-6.986275541136233e-05
-0.004349033333333334,-0.000368528006734053,0.000268931221304744
-0.004347933333333334,-3.024658126040032e-05,-6.986275541136233e-05
-0.004346833333333334,-0.0003685280067342069,0.000268931221304898
-0.004345733333333334,-0.0003685280067342069,0.000268931221304898
-0.004344633333333334,-0.0003685280067342069,0.000268931221304898
-0.004343533333333334,-0.0003685280067342069,0.0006077251980211584
-0.004342433333333334,-3.024658126040032e-05,0.000268931221304898
-0.004341333333333334,-0.000368528006734053,-6.986275541120827e-05
-0.004340233333333334,-3.024658126040032e-05,0.000268931221304898
-0.004339133333333334,-3.024658126040032e-05,-6.986275541120827e-05
-0.004338033333333334,-0.0003685280067342069,0.000268931221304898
-0.004336933333333334,-0.0003685280067342069,0.000268931221304898
-0.004335833333333334,-0.0007068094322080134,-6.986275541136233e-05
-0.004334733333333334,-0.0003685280067343607,-6.986275541136233e-05
-0.004333633333333334,-0.0007068094322080134,-6.986275541136233e-05
-0.004332533333333334,-0.0003685280067343607,0.000268931221304898
-0.004331433333333334,-0.0007068094322080134,0.000268931221304898
-0.004330333333333334,-0.0007068094322078595,0.000268931221304898
-0.004329233333333334,-0.0003685280067342069,0.000268931221304898
-0.004328133333333334,-0.0003685280067343607,-6.986275541136233e-05
-0.004327033333333334,-0.0007068094322080134,-6.986275541136233e-05
-0.004325933333333334,-0.0003685280067342069,-6.986275541136233e-05
-0.004324833333333334,-3.024658126040032e-05,0.000268931221304898
-0.004323733333333334,-0.0003685280067342069,0.000268931221304898
-0.004322633333333334,-0.0003685280067342069,0.000268931221304898
-0.004321533333333334,-3.024658126040032e-05,0.0006077251980211584
-0.004320433333333334,-0.000368528006734053,0.0002689312213050521
-0.004319333333333334,-3.024658126040032e-05,0.000268931221304898
-0.004318233333333334,0.0003080348442132524,0.000268931221304898
-0.004317133333333334,-0.0003685280067342069,0.0009465191747374188
-0.004316033333333334,0.0003080348442130986,0.0006077251980211584
-0.004314933333333334,-0.0003685280067342069,0.0006077251980211584
-0.004313833333333334,-0.0007068094322080134,0.000268931221304898
-0.004312733333333334,-0.0007068094322080134,0.000268931221304898
-0.004311633333333334,-0.000368528006734053,0.0006077251980210044
-0.004310533333333334,-3.024658126040032e-05,0.000268931221304898
-0.004309433333333334,-0.0003685280067342069,0.000268931221304898
-0.004308333333333334,-0.0003685280067342069,0.000268931221304898
-0.004307233333333334,-0.0003685280067342069,0.0006077251980211584
-0.004306133333333334,-0.0007068094322078595,0.0002689312213050521
-0.004305033333333334,-0.0007068094322080134,0.000268931221304898
-0.004303933333333334,-3.024658126070802e-05,-6.986275541120827e-05
-0.004302833333333334,-3.024658126040032e-05,0.000268931221304898
-0.004301733333333334,-0.000368528006734053,0.000268931221304898
-0.004300633333333334,-3.024658126040032e-05,-6.986275541136233e-05
-0.004299533333333334,-0.0003685280067342069,-6.98627554110542e-05
-0.004298433333333334,-0.0003685280067342069,0.0006077251980211584
-0.004297333333333334,-0.0007068094322080134,0.0006077251980211584
-0.004296233333333334,-0.0007068094322080134,0.0006077251980211584
-0.004295133333333334,-3.024658126070799e-05,0.0002689312213052062
-0.004294033333333334,-0.0007068094322080134,0.0009465191747374188
-0.004292933333333334,-0.0007068094322078595,0.0006077251980210044
-0.004291833333333334,-0.0003685280067342069,0.000268931221304898
-0.004290733333333334,-0.0003685280067342069,0.000268931221304898
-0.004289633333333334,-3.024658126055417e-05,0.000268931221304898
-0.004288533333333334,-0.0003685280067342069,0.0006077251980211584
-0.004287433333333334,-0.0007068094322078595,0.0002689312213050521
-0.004286333333333334,-0.0003685280067342069,0.000268931221304898
-0.004285233333333334,-0.0003685280067342069,0.000268931221304898
-0.004284133333333334,-0.0007068094322080134,0.000268931221304898
-0.004283033333333334,-0.0003685280067343607,0.0006077251980210044
-0.004281933333333334,-0.0003685280067342069,0.000268931221304898
-0.004280833333333334,-0.0003685280067342069,-6.986275541136233e-05
-0.004279733333333334,-0.0003685280067342069,-6.986275541136233e-05
-0.004278633333333334,-0.0003685280067343607,-6.986275541120827e-05
-0.004277533333333334,-0.0007068094322080134,0.000268931221304898
-0.004276433333333334,-0.001045090857681513,0.000268931221304898
-0.004275333333333334,-0.0003685280067342069,0.000268931221304898
-0.004274233333333334,-3.024658126040032e-05,0.000268931221304898
-0.004273133333333334,-0.0003685280067342069,0.000268931221304898
-0.004272033333333334,-0.001045090857681821,-6.986275541136233e-05
-0.004270933333333334,-0.0003685280067345145,0.000268931221304744
-0.004269833333333334,-0.0003685280067342069,0.000268931221304898
-0.004268733333333334,-3.024658126055417e-05,0.000268931221304898
-0.004267633333333334,-0.0003685280067342069,0.0006077251980211584
-0.004266533333333334,-0.0003685280067342069,0.0002689312213050521
-0.004265433333333334,-0.0003685280067342069,0.0006077251980211584
-0.004264333333333334,-3.024658126040032e-05,0.000268931221304898
-0.004263233333333334,-3.024658126040032e-05,0.000268931221304898
-0.004262133333333334,-0.000368528006734053,0.0006077251980213125
-0.004261033333333334,-3.024658126040032e-05,0.0009465191747374188
-0.004259933333333334,-0.0003685280067342069,0.000268931221304744
-0.004258833333333334,-0.0003685280067342069,-6.986275541136233e-05
-0.004257733333333334,-0.0003685280067342069,-6.986275541136233e-05
-0.004256633333333334,-0.0007068094322080134,0.000268931221304898
-0.004255533333333334,-0.0007068094322080134,0.0006077251980211584
-0.004254433333333334,-0.0003685280067343607,0.0006077251980211584
-0.004253333333333334,-0.0003685280067342069,0.000268931221304898
-0.004252233333333334,-0.0007068094322078595,0.000268931221304898
-0.004251133333333334,-0.0007068094322080134,0.0006077251980211584
-0.004250033333333334,-0.0007068094322080134,0.0006077251980211584
-0.004248933333333334,-0.0003685280067342069,-6.986275541136233e-05
-0.004247833333333333,-3.024658126055415e-05,0.0002689312213052062
-0.004246733333333334,-0.0003685280067342069,0.0009465191747374188
-0.004245633333333334,-3.024658126040032e-05,0.0006077251980208503
-0.004244533333333334,-3.024658126040032e-05,-6.986275541136233e-05
-0.004243433333333334,-3.024658126040032e-05,0.000268931221304898
-0.004242333333333334,-3.024658126040032e-05,0.000268931221304898
-0.004241233333333334,-0.000368528006734053,0.000268931221304898
-0.004240133333333334,-3.024658126040032e-05,0.000268931221304898
-0.004239033333333334,-3.024658126040032e-05,0.0006077251980211584
-0.004237933333333334,-0.000368528006734053,0.0002689312213050521
-0.004236833333333334,-0.0007068094322080134,0.000268931221304898
-0.004235733333333334,-0.0003685280067343607,-6.986275541120827e-05
-0.004234633333333334,-0.0003685280067342069,-6.986275541136233e-05
-0.004233533333333334,-3.024658126055417e-05,0.000268931221304744
-0.004232433333333334,-3.024658126040032e-05,0.000268931221304898
-0.004231333333333334,-3.024658126040032e-05,-6.986275541120827e-05
-0.004230233333333334,-3.024658126040032e-05,-6.986275541136233e-05
-0.004229133333333334,-0.0003685280067343607,-6.986275541120827e-05
-0.004228033333333334,-0.0007068094322080134,0.000268931221304898
-0.004226933333333334,-0.0003685280067343607,0.0006077251980211584
-0.004225833333333334,-0.0007068094322080134,0.0006077251980211584
-0.004224733333333334,-0.0007068094322080134,0.0006077251980210044
-0.004223633333333334,-0.0007068094322080134,0.000268931221304898
-0.004222533333333334,-0.0007068094322080134,0.000268931221304898
-0.004221433333333334,-0.0007068094322080134,-6.986275541136233e-05
-0.004220333333333334,-0.0007068094322080134,0.000268931221304898
-0.004219233333333334,-0.001045090857681667,0.0006077251980210044
-0.004218133333333334,-0.0003685280067342069,0.000268931221304898
-0.004217033333333334,-0.0003685280067342069,0.000268931221304898
-0.004215933333333334,-0.001045090857681821,-0.0004086567321276227
-0.004214833333333334,-0.0003685280067345145,0.0006077251980206961
-0.004213733333333334,-0.0007068094322080134,0.0006077251980211584
-0.004212633333333334,-0.0003685280067342069,-6.986275541120827e-05
-0.004211533333333334,-0.0003685280067342069,0.000268931221304898
-0.004210433333333334,-0.0003685280067342069,-6.986275541136233e-05
-0.004209333333333334,-0.0003685280067342069,-6.986275541136233e-05
-0.004208233333333334,-0.0003685280067342069,0.000268931221304898
-0.004207133333333334,-0.0003685280067342069,0.000268931221304898
-0.004206033333333334,-0.0007068094322080134,0.000268931221304744
-0.004204933333333334,-0.0007068094322080134,-6.986275541136233e-05
-0.004203833333333334,-0.0003685280067342069,0.000268931221304898
-0.004202733333333334,-0.0003685280067342069,0.0006077251980210044
-0.004201633333333334,-0.0007068094322080134,0.000268931221304898
-0.004200533333333334,-3.024658126070802e-05,0.000268931221304898
-0.004199433333333334,-0.0003685280067342069,0.000268931221304898
-0.004198333333333334,-0.0003685280067342069,0.000268931221304898
-0.004197233333333334,-0.0003685280067342069,0.0006077251980211584
-0.004196133333333334,-0.0003685280067342069,0.0002689312213050521
-0.004195033333333334,-0.0003685280067342069,-6.986275541136233e-05
-0.004193933333333334,-0.0007068094322078595,-6.98627554115164e-05
-0.004192833333333334,-0.0003685280067342069,-0.0004086567321276227
-0.004191733333333334,-0.0003685280067342069,-0.0004086567321274686
-0.004190633333333334,-0.0003685280067342069,-6.986275541136233e-05
-0.004189533333333334,-0.000368528006734053,0.000268931221304898
-0.004188433333333334,-3.024658126040032e-05,0.000268931221304898
-0.004187333333333334,-3.024658126040032e-05,-6.986275541136233e-05
-0.004186233333333334,-3.024658126040032e-05,0.000268931221304898
-0.004185133333333334,-0.0003685280067342069,-6.986275541136233e-05
