Paper2024_SSW/ResultadosOndaP/ResultadosVelocidadOndaP/ProbetaM2_Run#2.csv

#Digilent WaveForms Oscilloscope Acquisition
#Device Name: Discovery2
#Serial Number: SN:210321AD1806
#Date Time: 2023-09-29 19:45:58.606
#Sample rate: 892857Hz
#Samples: 8192
#Trigger: Source: Channel 2 Type: Edge Condition: Rising Level: 22 mV Hyst.: Auto HoldOff: 0 s
#Channel 1: Range: 20 mV/div Offset: 8 mV
#Channel 2: Range: 100 mV/div Offset: 0 V

Time (s),Channel 1 (V),Channel 2 (V)
-0.0045866800000000001,-0.0012858367302822507,0.00066541988939270856
-0.0045855599999999998,-0.0012858367302822507,0.0010042086965231429
-0.0045844399999999995,-0.00094756046657351286,0.0010042086965231429
-0.0045833200000000001,-0.0012858367302822507,0.0010042086965231429
-0.0045821999999999998,-0.0016241129939911425,0.001342997503653577
-0.0045810799999999995,-0.00094756046657335901,0.0010042086965231429
-0.0045799600000000001,-0.00094756046657335901,0.0010042086965231429
-0.0045788399999999998,-0.0012858367302822507,0.0010042086965231429
-0.0045777199999999995,-0.00094756046657335901,0.0010042086965231429
-0.0045766000000000001,-0.00094756046657335901,0.0010042086965231429
-0.0045754799999999998,-0.00094756046657335901,0.00066541988939270856
-0.0045743599999999995,-0.00094756046657351286,0.0010042086965231429
-0.0045732400000000001,-0.0012858367302822507,0.0010042086965231429
-0.0045721199999999998,-0.00094756046657335901,0.0010042086965231429
-0.0045709999999999995,-0.0016241129939909887,0.00066541988939270856
-0.0045698800000000001,-0.0012858367302822507,0.00066541988939270856
-0.0045687599999999998,-0.00094756046657335901,0.00066541988939270856
-0.0045676399999999995,-0.00060928420286462113,0.0010042086965231429
-0.0045665200000000001,-0.00094756046657320516,0.0010042086965231429
-0.0045653999999999998,-0.00094756046657335901,0.001342997503653577
-0.0045642799999999996,-0.00060928420286462113,0.0010042086965231429
-0.0045631600000000001,-0.00094756046657320516,0.0010042086965231429
-0.0045620399999999998,-0.0012858367302822507,0.00066541988939270856
-0.0045609199999999996,-0.001285836730282097,0.0006654198893925545
-0.0045598000000000001,-0.00094756046657351286,0.00032663108226242828
-0.0045586799999999999,-0.0012858367302822507,0.00032663108226227422
-0.0045575599999999996,-0.00094756046657366671,0.00066541988939270856
-0.0045564400000000001,-0.0016241129939908348,0.00066541988939270856
-0.0045553199999999999,-0.00094756046657335901,0.00066541988939270856
-0.0045541999999999996,-0.00060928420286446728,0.0010042086965229889
-0.0045530800000000001,-0.00060928420286446728,0.00066541988939286263
-0.0045519599999999999,-0.00060928420286446728,0.00066541988939270856
-0.0045508399999999996,-0.001285836730282097,0.0010042086965231429
-0.0045497200000000002,-0.00094756046657351286,0.0010042086965231429
-0.0045485999999999999,-0.0012858367302822507,0.00066541988939270856
-0.0045474799999999996,-0.0016241129939909887,0.0010042086965231429
-0.0045463600000000002,-0.0012858367302824047,0.0010042086965231429
-0.0045452399999999999,-0.00094756046657335901,0.00066541988939270856
-0.0045441199999999996,-0.00094756046657335901,0.00066541988939286263
-0.0045430000000000002,-0.00094756046657335901,0.0010042086965229889
-0.0045418799999999999,-0.00094756046657335901,0.00066541988939270856
-0.0045407599999999996,-0.00094756046657335901,0.0010042086965231429
-0.0045396400000000002,-0.00094756046657335901,0.0010042086965231429
-0.0045385199999999999,-0.00094756046657335901,0.00066541988939270856
-0.0045373999999999996,-0.0012858367302822507,0.00066541988939270856
-0.0045362800000000002,-0.0012858367302822507,0.00066541988939270856
-0.0045351599999999999,-0.00060928420286446728,0.00066541988939270856
-0.0045340399999999996,-0.00094756046657351286,0.0010042086965232969
-0.0045329200000000002,-0.0012858367302820968,0.0013429975036534231
-0.0045317999999999999,-0.0012858367302822507,0.0016817863107840114
-0.0045306799999999996,-0.0012858367302822507,0.0010042086965231429
-0.0045295600000000002,-0.0012858367302822507,0.0010042086965231429
-0.0045284399999999999,-0.0012858367302822507,0.00066541988939270856
-0.0045273199999999996,-0.0016241129939912962,0.0010042086965231429
-0.0045262000000000002,-0.0019623892576998802,0.0010042086965231429
-0.0045250799999999999,-0.0016241129939911425,0.001342997503653577
-0.0045239599999999996,-0.001285836730282097,0.00066541988939270856
-0.0045228400000000002,-0.00094756046657351286,0.00066541988939270856
-0.0045217199999999999,-0.00094756046657335901,0.0010042086965231429
-0.0045205999999999996,-0.0012858367302822507,0.00066541988939270856
-0.0045194800000000002,-0.00094756046657351286,0.0010042086965229889
-0.0045183599999999999,-0.0012858367302822507,0.001342997503653577
-0.0045172399999999996,-0.0012858367302822507,0.001342997503653577
-0.0045161200000000002,-0.00094756046657351286,0.0010042086965232969
-0.0045149999999999999,-0.0016241129939911425,0.0010042086965231429
-0.0045138799999999996,-0.0019623892577000342,0.0010042086965231429
-0.0045127600000000002,-0.0012858367302825584,0.0010042086965231429
-0.0045116399999999999,-0.00060928420286446728,0.00066541988939270856
-0.0045105199999999996,-0.0012858367302822507,0.00066541988939270856
-0.0045094000000000002,-0.0012858367302822507,0.0010042086965229889
-0.0045082799999999999,-0.00094756046657335901,0.0010042086965231429
-0.0045071599999999996,-0.00094756046657335901,0.00066541988939270856
-0.0045060400000000002,-0.00094756046657335901,0.0010042086965229889
-0.0045049199999999999,-0.0012858367302822507,0.001342997503653577
-0.0045037999999999996,-0.00094756046657335901,0.001342997503653577
-0.0045026800000000002,-0.0012858367302820968,0.00066541988939301669
-0.0045015599999999999,-0.0012858367302822507,0.001342997503653577
-0.0045004399999999996,-0.0012858367302822507,0.0010042086965231429
-0.0044993200000000002,-0.0016241129939909885,0.0010042086965231429
-0.0044981999999999999,-0.0012858367302822507,0.00066541988939270856
-0.0044970799999999997,-0.0012858367302822507,0.0010042086965231429
-0.0044959600000000002,-0.0012858367302822507,0.0010042086965231429
-0.0044948399999999999,-0.0016241129939911425,0.0010042086965231429
-0.0044937199999999997,-0.00094756046657335901,0.00066541988939270856
-0.0044926000000000002,-0.00094756046657335901,0.00066541988939270856
-0.00449148,-0.0012858367302822507,0.00066541988939270856
-0.0044903599999999997,-0.0016241129939911425,0.0010042086965231429
-0.0044892400000000002,-0.0012858367302824047,0.0010042086965231429
-0.00448812,-0.0012858367302822507,0.0010042086965231429
-0.0044869999999999997,-0.0012858367302822507,0.0010042086965231429
-0.0044858800000000002,-0.0012858367302822507,0.0010042086965231429
-0.00448476,-0.0012858367302822507,0.0010042086965231429
-0.0044836399999999997,-0.00094756046657335901,0.00066541988939270856
-0.0044825200000000003,-0.00094756046657335901,0.0010042086965229889
-0.0044814,-0.0012858367302822507,0.0010042086965231429
-0.0044802799999999997,-0.0012858367302822507,0.0010042086965231429
-0.0044791600000000003,-0.0012858367302822507,0.0010042086965231429
-0.00447804,-0.00094756046657335901,0.001342997503653577
-0.0044769199999999997,-0.00094756046657335901,0.0010042086965231429
-0.0044758000000000003,-0.0016241129939908348,0.00066541988939286263
-0.00447468,-0.0012858367302822507,0.0010042086965231429
-0.0044735599999999997,-0.00094756046657335901,0.0010042086965231429
-0.0044724400000000003,-0.0012858367302820968,0.00066541988939286263
-0.00447132,-0.00094756046657335901,0.00032663108226227422
-0.0044701999999999997,-0.00094756046657335901,0.00032663108226227422
-0.0044690800000000003,-0.0012858367302820968,0.0006654198893925545
-0.00446796,-0.0012858367302822507,0.0010042086965231429
-0.0044668399999999997,-0.0016241129939911425,0.0010042086965231429
-0.0044657200000000003,-0.0016241129939911425,0.0010042086965231429
-0.0044646,-0.0012858367302822507,0.0010042086965231429
-0.0044634799999999997,-0.0012858367302822507,0.0010042086965231429
-0.0044623600000000003,-0.0012858367302822507,0.00066541988939286263
-0.00446124,-0.00060928420286446728,0.00066541988939270856
-0.0044601199999999997,-0.0012858367302822507,0.001342997503653577
-0.0044590000000000003,-0.00094756046657351286,0.0010042086965232969
-0.00445788,-0.00094756046657335901,0.0010042086965231429
-0.0044567599999999997,-0.0012858367302822507,0.0010042086965231429
-0.0044556400000000003,-0.0012858367302822507,0.00066541988939286263
-0.00445452,-0.0012858367302822507,0.00066541988939270856
-0.0044533999999999997,-0.0012858367302822507,0.00032663108226227422
-0.0044522800000000003,-0.00094756046657351286,0.0006654198893925545
-0.00445116,-0.0012858367302822507,0.00032663108226227422
-0.0044500399999999997,-0.0012858367302822507,0.00066541988939270856
-0.0044489199999999994,-0.00094756046657351286,0.00066541988939270856
-0.0044478,-0.0012858367302822507,0.00066541988939270856
-0.0044466799999999997,-0.00094756046657335901,0.00066541988939270856
-0.0044455599999999994,-0.0012858367302822507,0.0006654198893925545
-0.00444444,-0.0012858367302822507,0.00032663108226227422
-0.0044433199999999997,-0.0012858367302822507,0.00032663108226227422
-0.0044421999999999994,-0.0016241129939909887,0.00032663108226212015
-0.00444108,-0.0012858367302822507,-1.2157724868160069e-05
-0.0044399599999999997,-0.00094756046657335901,0.00066541988939270856
-0.0044388399999999995,-0.00094756046657351286,0.0010042086965231429
-0.00443772,-0.0012858367302822507,0.0010042086965231429
-0.0044365999999999997,-0.0012858367302822507,0.00066541988939270856
-0.0044354799999999995,-0.0012858367302822507,0.0010042086965229889
-0.00443436,-0.0012858367302822507,0.00066541988939270856
-0.0044332399999999998,-0.0012858367302822507,0.00066541988939270856
-0.0044321199999999995,-0.001285836730282097,0.0010042086965229889
-0.004431,-0.00094756046657335901,0.00066541988939270856
-0.0044298799999999998,-0.00060928420286446728,0.00032663108226227422
-0.0044287599999999995,-0.0016241129939911425,0.00066541988939286263
-0.00442764,-0.0016241129939911425,0.0010042086965231429
-0.0044265199999999998,-0.0012858367302822507,0.0010042086965231429
-0.0044253999999999995,-0.001285836730282097,0.0013429975036532689
-0.0044242800000000001,-0.00094756046657335901,0.00066541988939270856
-0.0044231599999999998,-0.0012858367302822507,0.0010042086965231429
-0.0044220399999999995,-0.00094756046657335901,0.0010042086965231429
-0.0044209200000000001,-0.00094756046657335901,0.0010042086965231429
-0.0044197999999999998,-0.00094756046657335901,0.00066541988939270856
-0.0044186799999999995,-0.0012858367302822507,0.0010042086965229889
-0.0044175600000000001,-0.0012858367302822507,0.00066541988939270856
-0.0044164399999999998,-0.00060928420286446728,0.00066541988939270856
-0.0044153199999999995,-0.00094756046657351286,0.00066541988939270856
-0.0044142000000000001,-0.0012858367302822507,0.00066541988939270856
-0.0044130799999999998,-0.0016241129939911425,0.00066541988939270856
-0.0044119599999999995,-0.0012858367302822507,0.00032663108226242828
-0.0044108400000000001,-0.0012858367302822507,0.00066541988939270856
-0.0044097199999999998,-0.00094756046657335901,0.00066541988939270856
-0.0044085999999999995,-0.0012858367302824045,0.00066541988939270856
-0.0044074800000000001,-0.0016241129939911425,0.00066541988939270856
-0.0044063599999999998,-0.0012858367302822507,0.0010042086965231429
-0.0044052399999999995,-0.0016241129939909887,0.00066541988939270856
-0.0044041200000000001,-0.0012858367302822507,0.00066541988939270856
-0.0044029999999999998,-0.0016241129939911425,0.0010042086965231429
-0.0044018799999999995,-0.0012858367302822507,0.00066541988939270856
-0.0044007600000000001,-0.0012858367302822507,0.00066541988939270856
-0.0043996399999999998,-0.0012858367302822507,0.0010042086965231429
-0.0043985199999999995,-0.001285836730282097,0.0010042086965228348
-0.0043974000000000001,-0.00094756046657335901,0.00032663108226227422
-0.0043962799999999998,-0.00094756046657335901,0.00032663108226227422
-0.0043951599999999995,-0.0012858367302822507,0.00066541988939270856
-0.0043940400000000001,-0.0012858367302822507,0.00066541988939270856
-0.0043929199999999998,-0.0016241129939911425,0.00066541988939270856
-0.0043917999999999995,-0.0012858367302822507,0.0010042086965231429
-0.0043906800000000001,-0.0012858367302822507,0.0010042086965231429
-0.0043895599999999998,-0.0012858367302822507,0.00066541988939270856
-0.0043884399999999995,-0.001285836730282097,0.00066541988939270856
-0.0043873200000000001,-0.00094756046657335901,0.00066541988939270856
-0.0043861999999999998,-0.00094756046657335901,0.0010042086965231429
-0.0043850799999999995,-0.0012858367302822507,0.0010042086965229889
-0.0043839600000000001,-0.0012858367302822507,0.00066541988939270856
-0.0043828399999999998,-0.00094756046657335901,0.001342997503653577
-0.0043817199999999995,-0.0012858367302822507,0.0010042086965228348
-0.0043806000000000001,-0.0012858367302822507,0.00032663108226227422
-0.0043794799999999998,-0.0016241129939911425,0.00032663108226227422
-0.0043783599999999995,-0.0019623892576995728,0.0010042086965229889
-0.0043772400000000001,-0.00094756046657382045,0.00066541988939286263
-0.0043761199999999998,-0.00094756046657335901,0.00066541988939270856
-0.0043749999999999995,-0.0012858367302822507,0.00066541988939286263
-0.0043738800000000001,-0.0012858367302822507,0.0010042086965229889
-0.0043727599999999998,-0.0012858367302822507,0.00066541988939270856
-0.0043716399999999996,-0.001285836730282097,0.00032663108226242828
-0.0043705200000000001,-0.00094756046657351286,0.0006654198893925545
-0.0043693999999999998,-0.0016241129939911425,0.00066541988939270856
-0.0043682799999999996,-0.0012858367302822507,0.00032663108226258235
-0.0043671600000000001,-0.0012858367302822507,0.0010042086965228348
-0.0043660399999999999,-0.0016241129939911425,0.00066541988939270856
-0.0043649199999999996,-0.001285836730282097,0.00032663108226227422
-0.0043638000000000001,-0.00094756046657351286,0.00032663108226227422
-0.0043626799999999999,-0.0012858367302822507,0.00066541988939270856
-0.0043615599999999996,-0.0012858367302822507,0.0010042086965231429
-0.0043604400000000001,-0.0012858367302822507,0.0010042086965231429
-0.0043593199999999999,-0.00094756046657335901,0.00066541988939270856
-0.0043581999999999996,-0.0016241129939909887,0.00032663108226242828
-0.0043570800000000002,-0.0012858367302824047,0.0006654198893925545
-0.0043559599999999999,-0.00094756046657335901,0.001342997503653577
-0.0043548399999999996,-0.00094756046657351286,0.0010042086965231429
-0.0043537200000000002,-0.0012858367302820968,0.0010042086965231429
-0.0043525999999999999,-0.0012858367302822507,0.0010042086965231429
-0.0043514799999999996,-0.001285836730282097,0.0006654198893925545
-0.0043503600000000002,-0.00094756046657351286,0.00032663108226242828
-0.0043492399999999999,-0.0012858367302822507,0.00066541988939270856
-0.0043481199999999996,-0.00094756046657335901,0.00066541988939286263
-0.0043470000000000002,-0.00094756046657335901,0.0010042086965229889
-0.0043458799999999999,-0.0012858367302822507,0.00066541988939270856
-0.0043447599999999996,-0.0016241129939909887,0.00066541988939270856
-0.0043436400000000002,-0.0012858367302824047,0.00066541988939270856
-0.0043425199999999999,-0.00094756046657335901,0.00066541988939270856
-0.0043413999999999996,-0.00094756046657351286,0.0010042086965232969
-0.0043402800000000002,-0.0012858367302820968,0.0013429975036534231
-0.0043391599999999999,-0.0016241129939911425,0.0010042086965231429
-0.0043380399999999996,-0.0012858367302822507,0.0010042086965231429
-0.0043369200000000002,-0.0012858367302822507,0.0010042086965231429
-0.0043357999999999999,-0.00094756046657335901,0.00066541988939270856
-0.0043346799999999996,-0.00094756046657351286,0.0013429975036532689
-0.0043335600000000002,-0.0012858367302820968,0.00066541988939301669
-0.0043324399999999999,-0.0012858367302822507,0.00066541988939270856
-0.0043313199999999996,-0.00094756046657335901,0.00066541988939270856
-0.0043302000000000002,-0.00094756046657335901,0.00066541988939270856
-0.0043290799999999999,-0.0016241129939911425,0.00066541988939270856
-0.0043279599999999996,-0.0016241129939911425,0.00032663108226227422
-0.0043268400000000002,-0.0016241129939911425,0.00032663108226227422
-0.0043257199999999999,-0.0016241129939911425,0.00032663108226227422
-0.0043245999999999996,-0.0016241129939911425,0.00066541988939270856
-0.0043234800000000002,-0.00094756046657366671,0.0010042086965229889
-0.0043223599999999999,-0.0016241129939911425,0.0010042086965231429
-0.0043212399999999996,-0.0012858367302822507,0.00032663108226227422
-0.0043201200000000002,-0.0016241129939909885,0.0006654198893925545
-0.0043189999999999999,-0.0016241129939911425,0.00066541988939270856
-0.0043178799999999996,-0.00094756046657335901,0.00032663108226227422
-0.0043167600000000002,-0.00094756046657335901,0.0010042086965228348
-0.0043156399999999999,-0.00094756046657335901,0.0010042086965231429
-0.0043145199999999996,-0.00094756046657335901,0.0010042086965231429
-0.0043134000000000002,-0.0016241129939908348,0.0010042086965231429
-0.0043122799999999999,-0.0016241129939911425,0.0010042086965231429
-0.0043111599999999996,-0.0019623892577000342,0.0010042086965231429
-0.0043100400000000002,-0.0016241129939912964,0.00066541988939286263
-0.0043089199999999999,-0.00094756046657335901,0.00032663108226227422
-0.0043077999999999997,-0.0016241129939911425,0.00066541988939270856
-0.0043066800000000002,-0.0016241129939911425,0.0010042086965229889
-0.0043055599999999999,-0.0012858367302822507,0.0010042086965231429
-0.0043044399999999997,-0.0012858367302822507,0.0010042086965231429
-0.0043033200000000002,-0.0012858367302822507,0.00066541988939286263
-0.0043021999999999999,-0.0012858367302822507,0.0010042086965231429
-0.0043010799999999997,-0.00094756046657335901,0.00066541988939270856
-0.0042999600000000002,-0.0012858367302820968,0.00066541988939270856
-0.00429884,-0.00094756046657335901,0.0010042086965231429
-0.0042977199999999997,-0.00094756046657335901,0.00066541988939270856
-0.0042966000000000002,-0.0012858367302820968,0.00066541988939270856
-0.00429548,-0.00094756046657335901,0.00066541988939270856
-0.0042943599999999997,-0.00094756046657335901,0.00066541988939270856
-0.0042932400000000003,-0.00094756046657335901,0.0010042086965229889
-0.00429212,-0.00094756046657335901,0.0010042086965231429
-0.0042909999999999997,-0.0012858367302822507,0.00066541988939270856
-0.0042898800000000003,-0.0012858367302822507,0.0010042086965229889
-0.00428876,-0.0012858367302822507,0.00066541988939270856
-0.0042876399999999997,-0.0016241129939911425,0.00032663108226227422
-0.0042865200000000003,-0.0019623892576998802,0.00032663108226227422
-0.0042854,-0.00060928420286446728,0.0010042086965231429
-0.0042842799999999997,-0.00094756046657335901,0.00066541988939270856
-0.0042831600000000003,-0.00094756046657335901,0.00066541988939270856
-0.00428204,-0.0012858367302822507,0.00066541988939270856
-0.0042809199999999997,-0.0012858367302822507,0.001342997503653577
-0.0042798000000000003,-0.0012858367302822507,0.0010042086965232969
-0.00427868,-0.0016241129939911425,0.0010042086965231429
-0.0042775599999999997,-0.0016241129939911425,0.001342997503653577
-0.0042764400000000003,-0.0016241129939911425,0.00066541988939301669
-0.00427532,-0.00094756046657335901,0.00032663108226227422
-0.0042741999999999997,-0.0012858367302822507,0.0010042086965231429
-0.0042730800000000003,-0.00094756046657351286,0.00066541988939286263
-0.00427196,-0.0012858367302822507,0.00032663108226227422
-0.0042708399999999997,-0.0016241129939911425,0.0010042086965231429
-0.0042697200000000003,-0.0012858367302824047,0.0010042086965231429
-0.0042686,-0.0019623892577000342,0.0010042086965231429
-0.0042674799999999997,-0.0016241129939911425,0.00066541988939270856
-0.0042663600000000003,-0.0016241129939911425,0.00032663108226242828
-0.00426524,-0.0016241129939911425,0.00066541988939270856
-0.0042641199999999997,-0.00094756046657335901,0.0010042086965231429
-0.0042630000000000003,-0.00094756046657335901,0.0013429975036534231
