Paper2024_SSW/ResultadosOndaP/ResultadosVelocidadOndaP/ProbetaM3_Run#2.csv

#Digilent WaveForms Oscilloscope Acquisition
#Device Name: Discovery2
#Serial Number: SN:210321AD1806
#Date Time: 2023-10-16 10:40:21.411
#Sample rate: 909091Hz
#Samples: 8192
#Trigger: Source: Channel 2 Type: Edge Condition: Rising Level: 22 mV Hyst.: Auto HoldOff: 0 s
#Channel 1: Range: 20 mV/div Offset: 8 mV Attenuation: 1 X Sample Mode: Average
#Channel 2: Range: 100 mV/div Offset: 35 mV Attenuation: 1 X Sample Mode: Average

Time (s),Channel 1 (V),Channel 2 (V)
-0.0045056,-3.024658126040032e-05,-6.986275541136233e-05
-0.0045045,-3.024658126024649e-05,-6.986275541136233e-05
-0.0045034,0.0003080348442134062,-6.986275541136233e-05
-0.0045023,0.0003080348442132524,-6.98627554115164e-05
-0.0045012,-3.024658126040032e-05,-0.0004086567321276227
-0.0045001,-3.024658126040032e-05,-6.986275541136233e-05
-0.004499,0.0006463162696872127,-0.0004086567321276227
-0.0044979,0.0003080348442134062,-6.986275541136233e-05
-0.0044968,0.0003080348442134062,0.000268931221304744
-0.0044957,0.0003080348442134062,-0.0004086567321276227
-0.004494600000000001,0.0003080348442134062,-0.0004086567321276227
-0.0044935,-0.0003685280067342069,-6.986275541136233e-05
-0.004492400000000001,-3.024658126055417e-05,-6.986275541136233e-05
-0.0044913,-3.024658126040032e-05,0.000268931221304898
-0.0044902,0.0003080348442132524,-6.986275541136233e-05
-0.0044891,-3.024658126040032e-05,-6.986275541136233e-05
-0.004488,-3.024658126055415e-05,-6.98627554115164e-05
-0.0044869,-0.0003685280067342069,-0.0004086567321276227
-0.0044858,-3.024658126040032e-05,-6.986275541120827e-05
-0.0044847,-3.024658126040032e-05,0.000268931221304898
-0.0044836,-3.024658126040032e-05,-6.986275541136233e-05
-0.0044825,-3.024658126040032e-05,0.000268931221304898
-0.0044814,-0.0003685280067342069,0.0006077251980211584
-0.0044803,-3.024658126055417e-05,0.0002689312213050521
-0.0044792,0.0003080348442134062,-6.986275541136233e-05
-0.0044781,0.0003080348442134062,-6.986275541136233e-05
-0.004477,0.0003080348442134062,-0.0004086567321276227
-0.004475900000000001,-3.024658126024647e-05,0.0006077251980206961
-0.0044748,-0.0003685280067342069,0.000268931221304898
-0.0044737,0.0003080348442132524,-6.986275541136233e-05
-0.0044726,-3.024658126040032e-05,-6.986275541136233e-05
-0.0044715,0.0003080348442135601,-6.986275541167046e-05
-0.0044704,0.0006463162696872127,-0.0007474507088438831
-0.0044693,0.0003080348442134062,-0.0004086567321276227
-0.0044682,0.0003080348442134062,-0.0004086567321276227
-0.0044671,-3.024658126024649e-05,0.000268931221304744
-0.004466,0.0003080348442134062,-6.986275541136233e-05
-0.0044649,-3.024658126040032e-05,-6.986275541136233e-05
-0.0044638,-3.024658126040032e-05,-0.0004086567321274686
-0.0044627,-3.024658126040032e-05,-6.986275541136233e-05
-0.0044616,-3.024658126040032e-05,-0.0004086567321274686
-0.0044605,-3.024658126040032e-05,-6.986275541136233e-05
-0.004459400000000001,-3.024658126040032e-05,-6.986275541136233e-05
-0.0044583,-3.024658126040032e-05,0.000268931221304898
-0.004457200000000001,-3.024658126040032e-05,-6.986275541120827e-05
-0.0044561,-3.024658126040032e-05,0.000268931221304898
-0.004455,-3.024658126024649e-05,0.000268931221304744
-0.0044539,0.0003080348442134062,-6.986275541136233e-05
-0.0044528,-3.024658126040032e-05,-6.986275541136233e-05
-0.0044517,-3.024658126040032e-05,-6.986275541136233e-05
-0.0044506,0.0003080348442132524,-6.986275541136233e-05
-0.0044495,-3.024658126040032e-05,-6.986275541136233e-05
-0.0044484,0.0006463162696872127,-6.986275541136233e-05
-0.0044473,0.0003080348442134062,-6.986275541136233e-05
-0.0044462,-0.0003685280067342069,-6.986275541136233e-05
-0.0044451,-3.024658126055417e-05,0.000268931221304744
-0.004444,-3.024658126040032e-05,0.000268931221304898
-0.0044429,-3.024658126040032e-05,-6.986275541120827e-05
-0.0044418,0.0003080348442134062,0.000268931221304898
-0.004440700000000001,-3.024658126024647e-05,0.000268931221304898
-0.0044396,0.0003080348442134062,-0.0004086567321276227
-0.0044385,-3.024658126040032e-05,0.000268931221304744
-0.0044374,-3.024658126040032e-05,-6.986275541136233e-05
-0.0044363,-3.024658126024649e-05,0.000268931221304744
-0.0044352,0.0003080348442134062,-6.986275541136233e-05
-0.0044341,-3.024658126040032e-05,-6.986275541136233e-05
-0.004433,-3.024658126040032e-05,-6.986275541136233e-05
-0.0044319,0.0003080348442132524,-6.986275541136233e-05
-0.0044308,-3.024658126040032e-05,-6.986275541136233e-05
-0.0044297,-3.024658126040032e-05,0.000268931221304898
-0.0044286,-3.024658126040032e-05,-6.986275541120827e-05
-0.0044275,-3.024658126040032e-05,0.000268931221304898
-0.0044264,0.000646316269686905,-6.986275541120827e-05
-0.0044253,0.0006463162696872127,-6.986275541136233e-05
-0.004424200000000001,-3.024658126009262e-05,-6.986275541136233e-05
-0.0044231,-3.024658126040032e-05,0.000268931221304898
-0.004422000000000001,0.0003080348442132524,-6.986275541120827e-05
-0.0044209,0.0003080348442134062,-6.986275541136233e-05
-0.0044198,-3.024658126024649e-05,-6.986275541120827e-05
-0.0044187,0.0003080348442134062,0.000268931221304898
-0.0044176,0.0006463162696870589,0.000268931221304898
-0.0044165,0.0003080348442134062,0.000268931221304898
-0.0044154,-0.0003685280067338992,-6.986275541136233e-05
-0.0044143,0.0003080348442134062,-6.986275541136233e-05
-0.0044132,0.0006463162696872127,-6.986275541136233e-05
-0.0044121,0.0003080348442134062,-6.986275541136233e-05
-0.004411,-3.024658126040032e-05,0.000268931221304898
-0.0044099,0.0003080348442132524,0.000268931221304898
-0.0044088,0.0006463162696872127,0.000268931221304898
-0.004407700000000001,0.0003080348442135601,0.000268931221304898
-0.0044066,-3.024658126040032e-05,-6.986275541136233e-05
-0.004405500000000001,-3.024658126040032e-05,-6.986275541136233e-05
-0.0044044,0.0003080348442134062,-6.986275541136233e-05
-0.0044033,0.0003080348442134062,-6.98627554115164e-05
-0.0044022,0.0003080348442134062,-0.0004086567321276227
-0.0044011,0.0003080348442134062,-6.986275541136233e-05
-0.0044,0.0003080348442134062,-6.986275541136233e-05
-0.0043989,0.0003080348442134062,0.000268931221304898
-0.0043978,0.0003080348442134062,0.000268931221304898
-0.0043967,-3.024658126040032e-05,-6.986275541136233e-05
-0.0043956,0.0003080348442134062,0.000268931221304898
-0.0043945,0.0003080348442134062,-6.986275541136233e-05
-0.0043934,-0.0003685280067338992,-6.986275541136233e-05
-0.0043923,0.0003080348442134062,0.000268931221304898
-0.0043912,-0.0003685280067338992,0.000268931221304898
-0.0043901,0.0003080348442134062,0.000268931221304898
-0.004389000000000001,-3.024658126024647e-05,0.000268931221304898
-0.0043879,-3.024658126040032e-05,-6.986275541136233e-05
-0.0043868,0.0006463162696870589,-6.986275541120827e-05
-0.0043857,0.0003080348442134062,0.000268931221304898
-0.0043846,0.0006463162696870589,-6.986275541120827e-05
-0.0043835,0.0003080348442134062,0.000268931221304898
-0.0043824,0.0003080348442134062,-6.986275541136233e-05
-0.0043813,0.0003080348442134062,-6.986275541136233e-05
-0.0043802,-3.024658126024649e-05,0.0002689312213050521
-0.0043791,0.0003080348442134062,0.0006077251980211584
-0.004378,0.0003080348442134062,0.000268931221304898
-0.0043769,-3.024658126024647e-05,0.000268931221304898
-0.0043758,0.0003080348442134062,0.000268931221304898
-0.0043747,-3.024658126024647e-05,-6.986275541120827e-05
-0.0043736,-3.024658126040032e-05,-6.986275541136233e-05
-0.004372500000000001,-3.024658126040032e-05,-6.986275541136233e-05
-0.0043714,0.0003080348442134062,0.000268931221304898
-0.004370300000000001,0.0003080348442134062,-6.986275541120827e-05
-0.0043692,0.0003080348442134062,-6.986275541136233e-05
-0.0043681,-3.024658126024649e-05,0.0002689312213050521
-0.004367,0.0003080348442134062,0.0006077251980211584
-0.0043659,-3.024658126040032e-05,0.000268931221304744
-0.0043648,-3.024658126040032e-05,-6.986275541136233e-05
-0.0043637,0.0003080348442135601,-6.986275541136233e-05
-0.0043626,0.0006463162696872127,-6.986275541136233e-05
-0.0043615,0.0006463162696872127,-6.986275541136233e-05
-0.0043604,0.0003080348442134062,0.000268931221304898
-0.0043593,-0.0003685280067342069,-6.986275541136233e-05
-0.0043582,-3.024658126055417e-05,0.000268931221304744
-0.0043571,-3.024658126040032e-05,-6.986275541136233e-05
-0.004356,0.0003080348442132524,0.000268931221304744
-0.0043549,-3.024658126040032e-05,0.000268931221304898
-0.004353800000000001,0.0003080348442132524,0.000268931221304898
-0.0043527,0.0003080348442134062,0.000268931221304898
-0.0043516,-3.024658126040032e-05,-6.986275541136233e-05
-0.0043505,-3.024658126040032e-05,-6.986275541136233e-05
-0.0043494,-0.000368528006734053,-6.986275541120827e-05
-0.0043483,-3.024658126040032e-05,0.000268931221304898
-0.0043472,0.0003080348442132524,-6.98627554115164e-05
-0.0043461,-3.024658126040032e-05,-0.0004086567321276227
-0.004345,0.0003080348442134062,-6.986275541136233e-05
-0.0043439,0.0003080348442134062,-6.986275541136233e-05
-0.0043428,-3.024658126040032e-05,-6.986275541136233e-05
-0.0043417,0.0003080348442132524,-6.986275541136233e-05
-0.0043406,-3.024658126040032e-05,-6.986275541136233e-05
-0.0043395,-3.024658126040032e-05,-6.986275541136233e-05
-0.0043384,-3.024658126040032e-05,-6.986275541136233e-05
-0.004337300000000001,-3.024658126040032e-05,0.000268931221304744
-0.0043362,-3.024658126040032e-05,0.000268931221304898
-0.004335100000000001,-0.000368528006734053,-6.986275541120827e-05
-0.004334,-3.024658126040032e-05,0.000268931221304898
-0.0043329,0.000646316269686905,-6.986275541136233e-05
-0.0043318,-3.024658126040032e-05,-6.986275541136233e-05
-0.0043307,-0.0003685280067338992,0.000268931221304898
-0.0043296,0.0003080348442134062,0.000268931221304898
-0.0043285,0.0003080348442135601,0.000268931221304744
-0.0043274,0.0006463162696872127,-6.986275541136233e-05
-0.0043263,0.0003080348442134062,0.000268931221304898
-0.0043252,0.0003080348442134062,0.000268931221304898
-0.0043241,0.0006463162696872127,0.000268931221304898
-0.004323,-3.024658126009262e-05,-6.986275541120827e-05
-0.0043219,0.0003080348442134062,-6.986275541136233e-05
-0.004320800000000001,-3.024658126024647e-05,-6.986275541136233e-05
-0.0043197,-3.024658126040032e-05,-6.986275541136233e-05
-0.004318600000000001,0.0003080348442132524,0.0006077251980208503
-0.0043175,0.0003080348442134062,0.000268931221304898
-0.0043164,-3.024658126040032e-05,-6.986275541136233e-05
-0.0043153,-3.024658126040032e-05,-6.986275541136233e-05
-0.0043142,0.0003080348442135601,0.000268931221304898
-0.0043131,0.0006463162696872127,0.000268931221304898
-0.004312,0.0003080348442130986,-6.986275541120827e-05
-0.0043109,-0.0003685280067342069,0.000268931221304898
-0.0043098,-0.0003685280067342069,0.000268931221304898
-0.0043087,-0.0003685280067342069,-6.986275541136233e-05
-0.0043076,-0.0003685280067342069,0.000268931221304898
-0.0043065,-0.0003685280067342069,-6.986275541120827e-05
-0.0043054,0.0003080348442134062,-6.986275541136233e-05
-0.0043043,0.0003080348442134062,0.000268931221304744
-0.0043032,0.0003080348442134062,-6.986275541136233e-05
-0.004302100000000001,-3.024658126024647e-05,0.000268931221304744
-0.004301,0.0003080348442134062,-6.986275541136233e-05
-0.0042999,0.000646316269686905,0.000268931221304898
-0.0042988,-3.024658126040032e-05,0.000268931221304898
-0.0042977,0.0003080348442134062,-0.0004086567321276227
-0.0042966,0.0003080348442134062,-0.0004086567321276227
-0.0042955,0.0006463162696870589,-6.98627554115164e-05
-0.0042944,0.0003080348442134062,-0.0004086567321276227
-0.0042933,0.0003080348442134062,0.000268931221304898
-0.0042922,0.0003080348442134062,0.000268931221304898
-0.0042911,-3.024658126040032e-05,-6.986275541136233e-05
-0.00429,-3.024658126040032e-05,-6.986275541136233e-05
-0.0042889,-3.024658126040032e-05,-6.986275541136233e-05
-0.0042878,-3.024658126040032e-05,0.0006077251980208503
-0.0042867,-3.024658126040032e-05,0.0006077251980211584
-0.004285600000000001,-3.024658126040032e-05,0.0002689312213050521
-0.0042845,-3.024658126040032e-05,-6.986275541136233e-05
-0.004283400000000001,-3.024658126040032e-05,-6.986275541136233e-05
-0.0042823,-3.024658126040032e-05,-0.0004086567321276227
-0.0042812,-3.024658126040032e-05,-6.98627554115164e-05
-0.0042801,-3.024658126040032e-05,-0.0004086567321276227
-0.004279,-3.024658126024649e-05,-6.986275541136233e-05
-0.0042779,0.0003080348442134062,-6.986275541136233e-05
-0.0042768,0.0003080348442130986,-6.98627554115164e-05
-0.0042757,-0.0003685280067342069,-0.0004086567321276227
-0.0042746,-3.024658126040032e-05,-6.986275541136233e-05
-0.0042735,-3.024658126040032e-05,0.000268931221304898
-0.0042724,-3.024658126040032e-05,0.0006077251980211584
-0.0042713,-3.024658126040032e-05,0.0002689312213050521
-0.0042702,0.0003080348442134062,0.000268931221304898
-0.0042691,0.0003080348442134062,-0.0004086567321273146
-0.004268,-3.024658126040032e-05,-6.986275541136233e-05
-0.004266900000000001,0.0003080348442132524,-6.986275541136233e-05
-0.0042658,-3.024658126040032e-05,-6.986275541136233e-05
-0.0042647,-3.024658126024649e-05,-6.986275541120827e-05
-0.0042636,0.0003080348442134062,0.000268931221304898
-0.0042625,-3.024658126040032e-05,-6.98627554110542e-05
-0.0042614,-3.024658126040032e-05,0.0006077251980211584
-0.0042603,0.0006463162696870589,0.0006077251980206962
-0.0042592,0.0003080348442134062,-0.0004086567321276227
-0.0042581,-0.0003685280067342069,-0.0004086567321276227
-0.004257,-0.0003685280067342069,-0.0004086567321276227
-0.0042559,0.0003080348442134062,0.000268931221304898
-0.0042548,-3.024658126024647e-05,-6.986275541120827e-05
-0.0042537,-3.024658126040032e-05,-6.986275541136233e-05
-0.0042526,-3.024658126040032e-05,-6.986275541136233e-05
-0.0042515,-3.024658126040032e-05,-6.986275541136233e-05
-0.004250400000000001,-3.024658126040032e-05,0.000268931221304744
-0.0042493,-3.024658126040032e-05,-6.986275541136233e-05
-0.0042482,-3.024658126040032e-05,0.000268931221304744
-0.0042471,-3.024658126040032e-05,-6.986275541136233e-05
-0.004246,-3.024658126024649e-05,-6.986275541120827e-05
-0.0042449,0.0003080348442134062,0.000268931221304898
-0.0042438,0.0003080348442134062,0.0002689312213045899
-0.0042427,0.0003080348442134062,-0.0004086567321276227
-0.0042416,0.0003080348442134062,-6.986275541136233e-05
-0.0042405,0.0003080348442134062,-6.986275541136233e-05
-0.0042394,-3.024658126040032e-05,-0.0004086567321276227
-0.0042383,0.0003080348442132524,-6.98627554115164e-05
-0.0042372,0.0006463162696872127,0.000268931221304898
-0.0042361,0.0003080348442135601,-6.986275541120827e-05
-0.004235,-3.024658126040032e-05,-6.986275541136233e-05
-0.004233900000000001,0.0003080348442132524,-6.986275541136233e-05
-0.0042328,-0.0003685280067342069,0.000268931221304898
-0.004231700000000001,-3.024658126055417e-05,-6.986275541120827e-05
-0.0042306,0.0003080348442134062,-6.986275541136233e-05
-0.0042295,-3.024658126024649e-05,-6.986275541136233e-05
-0.0042284,0.0003080348442134062,-6.986275541136233e-05
-0.0042273,0.0003080348442134062,0.0006077251980211584
-0.0042262,0.0003080348442134062,0.0006077251980211584
-0.0042251,-3.024658126024649e-05,-6.986275541120827e-05
-0.004224,0.0003080348442134062,0.000268931221304898
-0.0042229,-3.024658126040032e-05,0.000268931221304898
-0.0042218,-0.0003685280067342069,-6.986275541136233e-05
-0.0042207,-3.024658126040032e-05,-6.986275541136233e-05
-0.0042196,0.0003080348442132524,-0.0004086567321274686
-0.0042185,0.0006463162696872127,-6.986275541136233e-05
-0.0042174,-3.024658126009262e-05,0.000268931221304744
-0.0042163,-3.024658126040032e-05,0.000268931221304898
-0.004215200000000001,-3.024658126040032e-05,0.000268931221304898
-0.0042141,-3.024658126040032e-05,0.000268931221304898
-0.004213,0.0003080348442134062,0.000268931221304744
-0.0042119,0.0003080348442134062,-6.986275541136233e-05
-0.0042108,-3.024658126024649e-05,0.000268931221304744
-0.0042097,0.0003080348442134062,-6.986275541136233e-05
-0.0042086,-3.024658126055415e-05,-6.986275541120827e-05
-0.0042075,-0.0003685280067342069,0.000268931221304898
-0.0042064,-3.024658126040032e-05,0.000268931221304898
-0.0042053,-3.024658126040032e-05,0.000268931221304898
-0.0042042,-3.024658126040032e-05,0.000268931221304898
-0.0042031,-3.024658126040032e-05,0.0006077251980210044
-0.004202,0.0003080348442134062,0.000268931221304898
-0.0042009,0.0003080348442134062,-0.0004086567321273146
-0.0041998,0.0003080348442134062,0.000268931221304898
-0.004198700000000001,-0.0003685280067338992,-6.986275541120827e-05
-0.0041976,-3.024658126040032e-05,-6.986275541136233e-05
-0.004196500000000001,-3.024658126040032e-05,-6.986275541136233e-05
-0.0041954,-3.024658126040032e-05,-6.986275541136233e-05
-0.0041943,0.0003080348442134062,-6.986275541136233e-05
-0.0041932,0.0003080348442134062,-6.986275541136233e-05
-0.0041921,-3.024658126024649e-05,-0.000747450708843575
-0.004191,0.0003080348442134062,-6.986275541136233e-05
-0.0041899,0.0003080348442132524,-6.986275541136233e-05
-0.0041888,-3.024658126040032e-05,-6.986275541136233e-05
-0.0041877,-0.0003685280067342069,-0.0004086567321276227
-0.0041866,0.0003080348442134062,-0.0004086567321276227
-0.0041855,-0.0007068094322080134,0.000268931221304898
-0.0041844,-3.024658126070802e-05,0.000268931221304898
-0.0041833,-3.024658126040032e-05,0.000268931221304898
-0.004182200000000001,-3.024658126040032e-05,-6.986275541120827e-05
-0.0041811,-3.024658126040032e-05,-6.986275541136233e-05
-0.004180000000000001,-0.000368528006734053,-6.986275541136233e-05
-0.0041789,-3.024658126040032e-05,-6.986275541136233e-05
-0.0041778,-3.024658126009265e-05,-0.0004086567321276227
-0.0041767,0.0006463162696872127,-0.0004086567321276227
-0.0041756,0.0003080348442134062,-6.986275541136233e-05
-0.0041745,0.0003080348442134062,-6.986275541136233e-05
-0.0041734,0.0003080348442132524,-0.0004086567321276227
-0.0041723,-3.024658126040032e-05,-0.0004086567321276227
-0.0041712,-3.024658126040032e-05,0.000268931221304898
-0.0041701,-3.024658126040032e-05,0.000268931221304898
-0.004169,-3.024658126040032e-05,-0.0007474507088438831
-0.0041679,-3.024658126040032e-05,-6.986275541167046e-05
-0.0041668,-3.024658126040032e-05,-6.986275541136233e-05
-0.0041657,-0.000368528006734053,-6.986275541136233e-05
-0.0041646,0.0003080348442134062,-6.986275541136233e-05
-0.004163500000000001,0.0003080348442134062,0.000268931221304744
-0.0041624,0.0003080348442134062,0.000268931221304898
-0.0041613,0.0003080348442134062,-0.0004086567321276227
-0.0041602,0.0003080348442134062,-0.0004086567321276227
-0.0041591,-3.024658126055415e-05,-6.986275541136233e-05
-0.004158,-0.0003685280067342069,-6.986275541136233e-05
-0.0041569,-3.024658126024649e-05,-6.986275541136233e-05
-0.0041558,0.0003080348442134062,-6.986275541136233e-05
-0.0041547,-3.024658126040032e-05,0.000268931221304898
-0.0041536,-3.024658126040032e-05,0.000268931221304898
-0.0041525,-3.024658126040032e-05,-6.986275541136233e-05
-0.0041514,0.000646316269686905,-6.986275541136233e-05
-0.0041503,-3.024658126040032e-05,-6.986275541136233e-05
-0.0041492,-3.024658126040032e-05,0.000268931221304744
-0.0041481,0.0003080348442134062,-6.986275541136233e-05
-0.004147000000000001,-3.024658126024647e-05,0.000268931221304744
-0.0041459,-3.024658126040032e-05,-6.986275541136233e-05
-0.004144800000000001,-3.024658126040032e-05,0.000268931221304744
-0.0041437,0.0006463162696872127,0.000268931221304898
-0.0041426,0.0003080348442134062,-0.0004086567321274686
-0.0041415,0.0003080348442134062,-6.986275541136233e-05
-0.0041404,0.000646316269686905,-6.986275541167046e-05
-0.0041393,-3.024658126040032e-05,-0.0007474507088438831
-0.0041382,0.0003080348442134062,-0.0004086567321273146
-0.0041371,0.0003080348442134062,0.000268931221304898
-0.004136,0.0003080348442134062,0.000268931221304898
-0.0041349,0.0006463162696872127,-6.986275541136233e-05
-0.0041338,0.0003080348442134062,0.000268931221304898
-0.0041327,-3.024658126024647e-05,0.000268931221304898
-0.0041316,-0.0003685280067342069,-6.986275541136233e-05
-0.0041305,-0.0003685280067342069,-0.0004086567321274686
-0.0041294,-3.024658126040032e-05,-0.0004086567321276227
