ResultadosOndaP/VelocidadOndaPJuanDaniel/Checa_6%_Run#2.csv

#Digilent WaveForms Oscilloscope Acquisition
#Device Name: Discovery2
#Serial Number: SN:210321AD1806
#Date Time: 2023-11-21 11:36:08.907
#Sample rate: 1.16279e+06Hz
#Samples: 8192
#Trigger: Source: Channel 2 Type: Edge Condition: Rising Level: 135 mV Hyst.: Auto HoldOff: 0 s
#Channel 1: Range: 20 mV/div Offset: 16 mV Attenuation: 1 X Sample Mode: Average
#Channel 2: Range: 100 mV/div Offset: 30 mV Attenuation: 1 X Sample Mode: Average

Time (s),Channel 1 (V),Channel 2 (V)
-0.002090917540842648,-0.002827522972597092,-0.001574647785746983
-0.002090057540842648,-0.002827522972597092,-0.001574647785746983
-0.002089197540842648,-0.002827522972596938,-0.001235853809030723
-0.002088337540842648,-0.002489241547123286,-0.001235853809030723
-0.002087477540842648,-0.003165804398070899,-0.002252235739179508
-0.002086617540842648,-0.003165804398070899,-0.001913441762463247
-0.002085757540842648,-0.002827522972597092,-0.001574647785746983
-0.002084897540842648,-0.002827522972597092,-0.001235853809030723
-0.002084037540842648,-0.003504085823544705,-0.0008970598323144625
-0.002083177540842648,-0.002827522972597092,-0.001574647785746983
-0.002082317540842648,-0.002827522972597092,-0.001574647785746983
-0.002081457540842648,-0.003165804398070899,-0.001574647785746829
-0.002080597540842648,-0.003165804398070899,-0.001235853809030723
-0.002079737540842648,-0.003165804398070899,-0.001235853809030723
-0.002078877540842648,-0.003165804398070899,-0.001913441762463247
-0.002078017540842648,-0.003165804398070899,-0.001574647785746983
-0.002077157540842648,-0.003165804398070899,-0.001913441762463247
-0.002076297540842648,-0.003504085823544705,-0.001913441762463247
-0.002075437540842648,-0.003165804398070899,-0.001913441762463247
-0.002074577540842648,-0.003165804398070899,-0.001574647785746983
-0.002073717540842648,-0.003504085823544551,-0.001235853809030877
-0.002072857540842648,-0.003165804398070899,-0.001574647785746983
-0.002071997540842648,-0.002827522972597092,-0.001235853809030723
-0.002071137540842648,-0.003165804398070899,-0.001574647785746983
-0.002070277540842648,-0.002827522972597092,-0.001913441762463247
-0.002069417540842648,-0.003165804398070899,-0.001574647785746983
-0.002068557540842648,-0.002827522972597092,-0.001574647785746983
-0.002067697540842648,-0.002827522972597092,-0.001574647785746983
-0.002066837540842648,-0.002827522972597092,-0.001913441762463247
-0.002065977540842649,-0.003165804398070745,-0.001574647785747137
-0.002065117540842648,-0.003504085823544705,-0.001574647785746983
-0.002064257540842648,-0.003165804398070899,-0.002252235739179508
-0.002063397540842648,-0.002489241547123286,-0.002252235739179508
-0.002062537540842648,-0.003165804398070899,-0.001574647785746983
-0.002061677540842648,-0.002827522972597092,-0.001574647785746983
-0.002060817540842648,-0.003165804398070899,-0.001574647785746983
-0.002059957540842648,-0.003165804398070899,-0.001235853809030723
-0.002059097540842648,-0.002827522972597092,-0.001235853809030723
-0.002058237540842649,-0.003165804398070745,-0.001574647785746829
-0.002057377540842648,-0.003165804398070899,-0.001235853809030723
-0.002056517540842648,-0.003165804398070899,-0.001235853809030723
-0.002055657540842648,-0.003504085823544705,-0.001235853809030723
-0.002054797540842648,-0.003504085823544705,-0.001235853809030723
-0.002053937540842648,-0.002827522972597092,-0.001235853809030723
-0.002053077540842648,-0.003504085823544705,-0.001235853809030723
-0.002052217540842648,-0.003165804398070899,-0.001913441762463247
-0.002051357540842648,-0.003165804398070899,-0.001574647785746983
-0.002050497540842649,-0.003504085823544551,-0.001235853809030877
-0.002049637540842648,-0.003165804398070899,-0.001235853809030723
-0.002048777540842648,-0.002827522972597092,-0.001235853809030723
-0.002047917540842648,-0.003165804398070899,-0.001235853809030723
-0.002047057540842648,-0.002827522972597092,-0.0008970598323144625
-0.002046197540842648,-0.003165804398070899,-0.001235853809030723
-0.002045337540842648,-0.002489241547123286,-0.001913441762463247
-0.002044477540842648,-0.002489241547123286,-0.001574647785746983
-0.002043617540842648,-0.003504085823544705,-0.001574647785746983
-0.002042757540842649,-0.003504085823544705,-0.001574647785746983
-0.002041897540842648,-0.003165804398070899,-0.001574647785746983
-0.002041037540842648,-0.003504085823544705,-0.001913441762463247
-0.002040177540842648,-0.003165804398070899,-0.001574647785746983
-0.002039317540842648,-0.003504085823544705,-0.001574647785746983
-0.002038457540842648,-0.003842367249018513,-0.002252235739179508
-0.002037597540842648,-0.00418064867449232,-0.001913441762463247
-0.002036737540842648,-0.003842367249018513,-0.001574647785746983
-0.002035877540842648,-0.003165804398070899,-0.001574647785746983
-0.002035017540842649,-0.003165804398070899,-0.001913441762463093
-0.002034157540842648,-0.003165804398070899,-0.001913441762463247
-0.002033297540842648,-0.003165804398070899,-0.001235853809030723
-0.002032437540842648,-0.002827522972597092,-0.001574647785746983
-0.002031577540842648,-0.002827522972597092,-0.001574647785746983
-0.002030717540842648,-0.003165804398070899,-0.001235853809030723
-0.002029857540842648,-0.003165804398070899,-0.001574647785746983
-0.002028997540842648,-0.003165804398070899,-0.001574647785746983
-0.002028137540842648,-0.003165804398070899,-0.001913441762463247
-0.002027277540842649,-0.003504085823544551,-0.001574647785747137
-0.002026417540842648,-0.003504085823544705,-0.001574647785746983
-0.002025557540842648,-0.003842367249018513,-0.001913441762463247
-0.002024697540842648,-0.003504085823544705,-0.001235853809030723
-0.002023837540842648,-0.003504085823544705,-0.001574647785746983
-0.002022977540842648,-0.003165804398070899,-0.002252235739179508
-0.002022117540842648,-0.002827522972597092,-0.001913441762463247
-0.002021257540842648,-0.002827522972597092,-0.001574647785746983
-0.002020397540842648,-0.002827522972597092,-0.001913441762463247
-0.002019537540842649,-0.002827522972597092,-0.001913441762463247
-0.002018677540842648,-0.002827522972597092,-0.001913441762463247
-0.002017817540842648,-0.002827522972597092,-0.001574647785746983
-0.002016957540842648,-0.003165804398070899,-0.001235853809030723
-0.002016097540842648,-0.003165804398070899,-0.001574647785746983
-0.002015237540842648,-0.003165804398070899,-0.002252235739179508
-0.002014377540842648,-0.002827522972597092,-0.001574647785746983
-0.002013517540842648,-0.003165804398070899,-0.001235853809030723
-0.002012657540842648,-0.003165804398070899,-0.001574647785746983
-0.002011797540842649,-0.003165804398070899,-0.002252235739179508
-0.002010937540842648,-0.003165804398070899,-0.001913441762463247
-0.002010077540842648,-0.003165804398070899,-0.001574647785746983
-0.002009217540842648,-0.003504085823544705,-0.001574647785746983
-0.002008357540842648,-0.003165804398070899,-0.001913441762463093
-0.002007497540842648,-0.003165804398070899,-0.001574647785746983
-0.002006637540842648,-0.003165804398070899,-0.001235853809030723
-0.002005777540842648,-0.003842367249018513,-0.001574647785746983
-0.002004917540842648,-0.003165804398070899,-0.001913441762463247
-0.002004057540842649,-0.003165804398070899,-0.001574647785746983
-0.002003197540842648,-0.002827522972597092,-0.001574647785746983
-0.002002337540842648,-0.003165804398070899,-0.0008970598323144625
-0.002001477540842648,-0.003165804398070899,-0.001574647785746983
-0.002000617540842648,-0.003165804398070899,-0.001913441762463247
-0.001999757540842648,-0.003165804398070899,-0.001913441762463247
-0.001998897540842648,-0.002827522972597092,-0.002252235739179508
-0.001998037540842648,-0.002827522972597092,-0.001574647785746983
-0.001997177540842648,-0.002827522972597092,-0.001574647785746983
-0.001996317540842649,-0.003165804398070899,-0.001574647785746983
-0.001995457540842648,-0.003504085823544705,-0.001574647785746983
-0.001994597540842648,-0.003165804398070899,-0.001235853809030723
-0.001993737540842648,-0.002827522972597092,-0.001913441762463247
-0.001992877540842648,-0.002827522972597246,-0.001913441762463247
-0.001992017540842648,-0.003165804398070899,-0.001913441762463247
-0.001991157540842648,-0.003165804398070899,-0.001913441762463247
-0.001990297540842648,-0.003165804398070899,-0.002252235739179508
-0.001989437540842648,-0.003165804398070899,-0.001913441762463247
-0.001988577540842648,-0.003504085823544705,-0.002252235739179508
-0.001987717540842648,-0.003165804398070899,-0.002252235739179508
-0.001986857540842648,-0.003165804398070899,-0.002252235739179508
-0.001985997540842648,-0.003165804398070899,-0.002252235739179508
-0.001985137540842648,-0.003165804398071053,-0.001574647785746983
-0.001984277540842648,-0.003504085823544705,-0.001574647785746983
-0.001983417540842648,-0.003504085823544705,-0.001574647785746983
-0.001982557540842648,-0.002827522972597092,-0.001574647785746983
-0.001981697540842648,-0.002489241547123286,-0.001574647785746983
-0.001980837540842648,-0.002827522972597092,-0.001913441762463247
-0.001979977540842648,-0.003165804398070899,-0.002252235739179508
-0.001979117540842648,-0.003165804398070899,-0.001574647785746983
-0.001978257540842648,-0.003504085823544705,-0.002252235739179508
-0.001977397540842648,-0.003165804398070745,-0.001913441762463247
-0.001976537540842648,-0.002827522972597092,-0.001913441762463247
-0.001975677540842648,-0.003165804398070899,-0.001574647785746983
-0.001974817540842648,-0.003165804398070899,-0.001574647785746983
-0.001973957540842648,-0.003504085823544705,-0.001235853809030723
-0.001973097540842648,-0.003165804398070899,-0.001913441762463247
-0.001972237540842648,-0.002489241547123286,-0.001913441762463247
-0.001971377540842648,-0.003165804398070899,-0.001913441762463247
-0.001970517540842648,-0.003165804398070899,-0.001574647785746983
-0.001969657540842648,-0.003504085823544551,-0.001574647785747137
-0.001968797540842648,-0.003165804398070899,-0.001913441762463247
-0.001967937540842648,-0.003504085823544705,-0.001913441762463247
-0.001967077540842648,-0.002827522972597092,-0.001913441762463247
-0.001966217540842648,-0.002827522972597092,-0.001574647785746983
-0.001965357540842648,-0.003165804398070899,-0.001574647785746983
-0.001964497540842648,-0.002827522972597092,-0.001574647785746983
-0.001963637540842648,-0.003504085823544705,-0.001574647785746983
-0.001962777540842648,-0.003165804398070899,-0.001913441762463247
-0.001961917540842649,-0.003165804398070899,-0.001913441762463247
-0.001961057540842648,-0.002827522972597092,-0.002252235739179508
-0.001960197540842648,-0.002827522972597092,-0.001913441762463247
-0.001959337540842648,-0.003165804398070899,-0.002252235739179508
-0.001958477540842648,-0.002827522972597092,-0.001913441762463247
-0.001957617540842648,-0.003165804398070899,-0.002252235739179508
-0.001956757540842648,-0.003504085823544705,-0.001913441762463247
-0.001955897540842648,-0.003504085823544705,-0.002252235739179508
-0.001955037540842648,-0.003504085823544705,-0.001913441762463247
-0.001954177540842649,-0.003504085823544705,-0.001913441762463247
-0.001953317540842648,-0.003504085823544705,-0.001913441762463247
-0.001952457540842648,-0.003504085823544705,-0.001574647785746983
-0.001951597540842648,-0.003165804398070899,-0.001574647785746983
-0.001950737540842648,-0.003504085823544705,-0.001913441762463247
-0.001949877540842648,-0.003504085823544705,-0.001913441762463247
-0.001949017540842648,-0.003504085823544705,-0.001913441762463247
-0.001948157540842648,-0.002827522972597092,-0.001913441762463247
-0.001947297540842648,-0.002489241547123286,-0.001913441762463247
-0.001946437540842649,-0.002827522972596938,-0.001913441762463247
-0.001945577540842648,-0.003165804398070899,-0.001913441762463247
-0.001944717540842648,-0.003165804398070899,-0.001913441762463247
-0.001943857540842648,-0.002827522972597092,-0.001913441762463247
-0.001942997540842648,-0.003165804398070899,-0.001574647785746983
-0.001942137540842648,-0.003165804398070899,-0.001574647785746983
-0.001941277540842648,-0.003165804398070899,-0.001913441762463247
-0.001940417540842648,-0.003504085823544705,-0.002252235739179508
-0.001939557540842648,-0.003842367249018513,-0.002252235739179508
-0.001938697540842649,-0.003165804398071207,-0.002252235739179508
-0.001937837540842648,-0.003842367249018513,-0.001913441762463247
-0.001936977540842648,-0.003165804398070899,-0.001913441762463247
-0.001936117540842648,-0.003165804398070899,-0.001913441762463247
-0.001935257540842648,-0.003504085823544705,-0.002252235739179508
-0.001934397540842648,-0.003165804398070899,-0.001913441762463247
-0.001933537540842648,-0.003165804398070899,-0.001913441762463247
-0.001932677540842648,-0.003165804398070899,-0.001913441762463247
-0.001931817540842648,-0.002827522972597092,-0.001913441762463247
-0.001930957540842649,-0.003504085823544397,-0.002252235739179354
-0.001930097540842648,-0.003842367249018513,-0.001913441762463247
-0.001929237540842648,-0.003165804398070899,-0.001913441762463247
-0.001928377540842648,-0.003165804398070899,-0.001913441762463247
-0.001927517540842648,-0.003165804398070899,-0.001913441762463247
-0.001926657540842648,-0.002827522972597092,-0.001913441762463247
-0.001925797540842648,-0.003165804398070899,-0.002252235739179508
-0.001924937540842648,-0.003504085823544705,-0.001913441762463247
-0.001924077540842648,-0.003165804398070899,-0.001913441762463247
-0.001923217540842649,-0.003504085823544551,-0.001235853809031031
-0.001922357540842648,-0.003504085823544705,-0.001574647785746983
-0.001921497540842648,-0.002827522972597092,-0.001913441762463247
-0.001920637540842648,-0.003504085823544705,-0.001913441762463247
-0.001919777540842648,-0.003165804398070899,-0.002252235739179508
-0.001918917540842648,-0.003504085823544705,-0.001913441762463247
-0.001918057540842648,-0.003165804398070899,-0.001913441762463247
-0.001917197540842648,-0.003165804398070899,-0.002252235739179508
-0.001916337540842648,-0.003165804398070899,-0.002252235739179508
-0.001915477540842649,-0.003504085823544705,-0.001913441762463247
-0.001914617540842648,-0.003165804398070899,-0.001913441762463247
-0.001913757540842648,-0.003165804398070899,-0.001913441762463247
-0.001912897540842648,-0.003165804398070899,-0.001913441762463247
-0.001912037540842648,-0.003165804398070899,-0.001913441762463247
-0.001911177540842648,-0.003165804398070899,-0.001913441762463247
-0.001910317540842648,-0.003165804398070899,-0.001913441762463247
-0.001909457540842648,-0.002489241547123286,-0.002252235739179508
-0.001908597540842648,-0.002489241547123286,-0.002252235739179508
-0.001907737540842649,-0.002827522972597092,-0.002252235739179508
-0.001906877540842648,-0.003165804398070899,-0.002252235739179508
-0.001906017540842648,-0.003165804398070899,-0.002252235739179508
-0.001905157540842648,-0.003165804398070899,-0.002591029715895768
-0.001904297540842648,-0.002827522972597246,-0.00259102971589546
-0.001903437540842648,-0.003165804398070899,-0.001913441762463247
-0.001902577540842648,-0.003165804398070899,-0.001913441762463247
-0.001901717540842648,-0.003165804398070899,-0.002252235739179508
-0.001900857540842648,-0.003504085823544705,-0.002252235739179508
-0.001899997540842649,-0.003504085823544705,-0.001913441762463247
-0.001899137540842648,-0.002827522972597092,-0.001235853809030723
-0.001898277540842648,-0.003165804398070899,-0.001913441762463247
-0.001897417540842648,-0.003504085823544705,-0.002252235739179508
-0.001896557540842648,-0.003165804398070899,-0.002252235739179354
-0.001895697540842648,-0.003165804398070899,-0.001913441762463247
-0.001894837540842648,-0.003504085823544705,-0.002252235739179508
-0.001893977540842648,-0.003504085823544705,-0.001913441762463247
-0.001893117540842648,-0.003504085823544705,-0.001574647785746983
-0.001892257540842648,-0.003165804398070899,-0.001913441762463247
-0.001891397540842648,-0.003165804398070899,-0.002252235739179508
-0.001890537540842648,-0.003165804398070899,-0.001913441762463247
-0.001889677540842648,-0.003504085823544705,-0.001574647785746983
-0.001888817540842648,-0.003165804398070745,-0.001913441762463401
-0.001887957540842648,-0.002827522972597092,-0.002252235739179508
-0.001887097540842648,-0.003165804398070899,-0.002591029715895768
-0.001886237540842648,-0.003165804398070899,-0.002591029715895768
-0.001885377540842648,-0.002489241547123286,-0.002252235739179508
-0.001884517540842648,-0.002489241547123286,-0.001574647785746983
-0.001883657540842648,-0.003165804398070899,-0.001574647785746983
-0.001882797540842648,-0.002827522972597092,-0.001913441762463247
-0.001881937540842648,-0.002827522972597092,-0.002252235739179508
-0.001881077540842648,-0.002827522972597246,-0.002252235739179354
-0.001880217540842648,-0.003165804398070899,-0.001913441762463247
-0.001879357540842648,-0.002827522972597092,-0.002252235739179508
-0.001878497540842648,-0.002827522972597092,-0.002591029715895768
-0.001877637540842648,-0.003165804398070899,-0.001913441762463247
-0.001876777540842648,-0.002827522972597092,-0.001574647785746983
-0.001875917540842648,-0.003165804398070899,-0.001574647785746983
-0.001875057540842648,-0.003165804398070899,-0.001913441762463247
-0.001874197540842648,-0.002489241547123286,-0.002252235739179508
-0.001873337540842648,-0.003165804398070899,-0.002252235739179354
-0.001872477540842648,-0.003165804398070899,-0.001913441762463247
-0.001871617540842648,-0.002827522972597092,-0.001913441762463247
-0.001870757540842648,-0.003165804398070899,-0.002252235739179508
-0.001869897540842648,-0.003165804398070899,-0.002252235739179508
-0.001869037540842648,-0.003165804398070899,-0.002252235739179508
-0.001868177540842648,-0.003504085823544705,-0.002252235739179508
-0.001867317540842648,-0.003165804398070899,-0.001913441762463247
-0.001866457540842648,-0.002827522972597092,-0.001913441762463247
-0.001865597540842648,-0.003504085823544705,-0.001913441762463401
-0.001864737540842648,-0.003504085823544705,-0.002252235739179508
-0.001863877540842648,-0.003504085823544705,-0.001913441762463247
-0.001863017540842648,-0.002827522972597092,-0.002591029715895768
-0.001862157540842648,-0.002827522972597092,-0.002252235739179508
-0.001861297540842648,-0.002827522972597092,-0.001913441762463247
-0.001860437540842648,-0.003165804398070899,-0.002252235739179508
-0.001859577540842648,-0.003165804398070899,-0.001913441762463247
-0.001858717540842648,-0.003504085823544705,-0.001235853809030723
-0.001857857540842649,-0.003504085823544705,-0.001913441762462939
-0.001856997540842648,-0.003165804398070899,-0.002252235739179508
-0.001856137540842648,-0.003165804398070899,-0.002252235739179508
-0.001855277540842648,-0.003165804398070899,-0.002252235739179508
-0.001854417540842648,-0.003165804398070899,-0.002252235739179508
-0.001853557540842648,-0.003165804398070899,-0.002252235739179508
-0.001852697540842648,-0.002827522972597092,-0.002252235739179508
-0.001851837540842648,-0.003165804398070899,-0.002252235739179508
-0.001850977540842648,-0.002489241547123286,-0.002591029715895768
-0.001850117540842649,-0.003165804398070591,-0.001574647785747446
-0.001849257540842648,-0.002489241547123286,-0.001913441762463247
-0.001848397540842648,-0.003165804398070899,-0.001913441762463247
-0.001847537540842648,-0.003165804398070899,-0.001913441762463247
-0.001846677540842648,-0.003165804398070899,-0.001913441762463247
-0.001845817540842648,-0.003504085823544705,-0.002252235739179508
-0.001844957540842648,-0.003165804398070899,-0.002591029715895768
-0.001844097540842648,-0.002827522972597092,-0.002591029715895768
-0.001843237540842648,-0.003165804398070899,-0.002252235739179508
-0.001842377540842649,-0.003165804398070899,-0.002252235739179508
-0.001841517540842648,-0.002827522972597092,-0.001913441762463247
-0.001840657540842648,-0.003504085823544705,-0.001574647785746983
-0.001839797540842648,-0.003504085823544705,-0.002252235739179508
-0.001838937540842648,-0.002827522972597092,-0.002252235739179508
-0.001838077540842648,-0.003504085823544705,-0.002252235739179508
