Paper2024_SSW/ResultadosOndaP/ResultadosVelocidadOndaPProctorsPabloMajo/M2_56_Mod_Run#4.csv

#Digilent WaveForms Oscilloscope Acquisition
#Device Name: Discovery2
#Serial Number: SN:210321AD1806
#Date Time: 2023-11-30 22:02:21.961
#Sample rate: 884956Hz
#Samples: 8192
#Trigger: Source: Channel 2 Type: Edge Condition: Rising Level: 135 mV Hyst.: Auto HoldOff: 0 s
#Channel 1: Range: 20 mV/div Offset: 14 mV Attenuation: 1 X Sample Mode: Average
#Channel 2: Range: 100 mV/div Offset: 35 mV Attenuation: 1 X Sample Mode: Average

Time (s),Channel 1 (V),Channel 2 (V)
-0.003197416114848002,-0.0001830856782885325,-0.001763832638992664
-0.003196286114848002,-0.0001830856782885325,-0.001425038662276404
-0.003195156114848002,-0.0001830856782885325,-0.001425038662276404
-0.003194026114848002,0.0001551957471852741,-0.001763832638992664
-0.003192896114848002,-0.0001830856782885325,-0.002102626615708925
-0.003191766114848002,0.000493477172658619,-0.002102626615708771
-0.003190636114848002,-0.000521367103762339,-0.001763832638992664
-0.003189506114848002,0.0001551957471852741,-0.002102626615708925
-0.003188376114848002,0.0001551957471852741,-0.001763832638992664
-0.003187246114848003,0.0004934771726589267,-0.001763832638992664
-0.003186116114848002,0.0001551957471852741,-0.001425038662276404
-0.003184986114848002,-0.0001830856782885325,-0.001425038662276404
-0.003183856114848002,-0.0001830856782885325,-0.001425038662276404
-0.003182726114848003,-0.0001830856782885325,-0.001086244685560297
-0.003181596114848002,0.0004934771726590806,-0.001086244685560143
-0.003180466114848002,0.0001551957471852741,-0.001763832638992664
-0.003179336114848002,-0.0001830856782885325,-0.001763832638992972
-0.003178206114848002,-0.0001830856782885325,-0.002441420592424877
-0.003177076114848002,0.0001551957471852741,-0.001425038662276404
-0.003175946114848002,0.0001551957471852741,-0.001763832638992664
-0.003174816114848002,-0.0001830856782885325,-0.001425038662276558
-0.003173686114848002,-0.0001830856782885325,-0.00176383263899251
-0.003172556114848002,0.0001551957471852741,-0.001763832638992664
-0.003171426114848002,-0.0001830856782885325,-0.001425038662276404
-0.003170296114848002,-0.0001830856782883787,-0.001086244685560452
-0.003169166114848002,0.0001551957471852741,-0.001763832638992664
-0.003168036114848002,-0.0001830856782885325,-0.001425038662276404
-0.003166906114848002,-0.0008596485292361455,-0.001763832638992664
-0.003165776114848003,0.0001551957471848126,-0.001763832638992664
-0.003164646114848002,0.0001551957471852741,-0.002441420592425185
-0.003163516114848002,0.0001551957471852741,-0.001763832638992664
-0.003162386114848002,0.0001551957471852741,-0.001425038662276404
-0.003161256114848003,-0.0001830856782883786,-0.001425038662276404
-0.003160126114848002,-0.0001830856782885325,-0.001425038662276404
-0.003158996114848002,0.0001551957471852741,-0.001763832638992664
-0.003157866114848002,0.0001551957471854279,-0.001763832638992818
-0.003156736114848002,0.0004934771726589267,-0.002102626615708771
-0.003155606114848002,0.0004934771726590806,-0.002102626615708925
-0.003154476114848002,0.0001551957471852741,-0.001425038662276404
-0.003153346114848002,0.0001551957471852741,-0.001086244685560298
-0.003152216114848002,0.0001551957471852741,-0.00142503866227625
-0.003151086114848002,0.0001551957471852741,-0.001425038662276404
-0.003149956114848002,0.0001551957471852741,-0.001086244685560143
-0.003148826114848002,0.0001551957471851202,-0.001086244685560298
-0.003147696114848002,-0.0001830856782885325,-0.001425038662276404
-0.003146566114848002,0.0001551957471852741,-0.001086244685560143
-0.003145436114848002,-0.0001830856782885325,-0.001763832638992664
-0.003144306114848002,-0.0005213671037620313,-0.001763832638992664
-0.003143176114848002,0.0001551957471852741,-0.001763832638992664
-0.003142046114848002,0.0001551957471852741,-0.002102626615708925
-0.003140916114848002,0.0004934771726590806,-0.001763832638992664
-0.003139786114848003,-0.0001830856782882248,-0.001763832638992664
-0.003138656114848002,-0.0001830856782885325,-0.001086244685560143
-0.003137526114848002,0.0004934771726590806,-0.001425038662276404
-0.003136396114848002,-0.0001830856782885325,-0.00142503866227625
-0.003135266114848002,-0.0001830856782885325,-0.001086244685560297
-0.003134136114848002,-0.0001830856782885325,-0.001425038662276404
-0.003133006114848002,-0.0001830856782885325,-0.001425038662276404
-0.003131876114848002,-0.000521367103762339,-0.001425038662276404
-0.003130746114848002,-0.000521367103762339,-0.001425038662276404
-0.003129616114848002,0.0001551957471852741,-0.001086244685560143
-0.003128486114848002,-0.0001830856782885325,-0.001425038662276404
-0.003127356114848002,-0.0001830856782882248,-0.00176383263899251
-0.003126226114848002,0.0004934771726590806,-0.001425038662276404
-0.003125096114848002,-0.0001830856782885325,-0.001425038662276404
-0.003123966114848002,0.0001551957471852741,-0.001425038662276404
-0.003122836114848002,0.0004934771726587729,-0.001763832638992664
-0.003121706114848002,-0.0001830856782885325,-0.001763832638992664
-0.003120576114848002,-0.0001830856782885325,-0.001763832638992664
-0.003119446114848002,-0.0001830856782885325,-0.001086244685560143
-0.003118316114848003,-0.0005213671037621852,-0.00142503866227625
-0.003117186114848002,-0.0001830856782885325,-0.001425038662276404
-0.003116056114848002,0.0004934771726590806,-0.001763832638992664
-0.003114926114848002,0.0001551957471851202,-0.00142503866227625
-0.003113796114848002,-0.0001830856782883786,-0.001086244685560297
-0.003112666114848002,-0.0001830856782885325,-0.001425038662276404
-0.003111536114848002,0.0001551957471852741,-0.001763832638992664
-0.003110406114848002,-0.0001830856782883787,-0.001763832638992664
-0.003109276114848002,0.0001551957471851202,-0.001763832638992664
-0.003108146114848002,-0.0001830856782885325,-0.001763832638992664
-0.003107016114848002,-0.0001830856782885325,-0.001425038662276404
-0.003105886114848002,0.0004934771726589267,-0.001425038662276558
-0.003104756114848002,0.0001551957471854279,-0.00176383263899251
-0.003103626114848002,0.0001551957471852741,-0.001763832638992664
-0.003102496114848002,-0.0001830856782885325,-0.001425038662276404
-0.003101366114848002,0.0001551957471852741,-0.001425038662276404
-0.003100236114848002,0.0001551957471852741,-0.001425038662276404
-0.003099106114848002,0.0001551957471852741,-0.001086244685560143
-0.003097976114848002,-0.0001830856782885325,-0.001763832638992664
-0.003096846114848003,-0.0001830856782885325,-0.001763832638992664
-0.003095716114848002,-0.0001830856782885325,-0.001086244685560143
-0.003094586114848002,0.0001551957471852741,-0.001425038662276404
-0.003093456114848002,-0.0001830856782883787,-0.001763832638992664
-0.003092326114848002,0.0001551957471851202,-0.001763832638992664
-0.003091196114848002,-0.000521367103762339,-0.001763832638992664
-0.003090066114848002,-0.0008596485292361455,-0.001425038662276404
-0.003088936114848002,-0.0005213671037621852,-0.001763832638992664
-0.003087806114848002,-0.0001830856782886863,-0.001763832638992664
-0.003086676114848002,0.0001551957471852741,-0.001763832638992664
-0.003085546114848002,0.0004934771726590806,-0.001425038662276404
-0.003084416114848002,-0.0001830856782885325,-0.00176383263899251
-0.003083286114848002,-0.0001830856782885325,-0.001425038662276558
-0.003082156114848002,0.0001551957471852741,-0.001763832638992664
-0.003081026114848002,0.0001551957471852741,-0.001763832638992664
-0.003079896114848002,-0.0001830856782885325,-0.001763832638992818
-0.003078766114848002,-0.0001830856782885325,-0.002102626615708925
-0.003077636114848002,-0.0001830856782885325,-0.001763832638992664
-0.003076506114848002,-0.000521367103762339,-0.001425038662276404
-0.003075376114848003,-0.0001830856782886863,-0.001425038662276404
-0.003074246114848002,-0.0001830856782885325,-0.001763832638992664
-0.003073116114848002,-0.0001830856782885325,-0.001763832638992664
-0.003071986114848002,0.0001551957471852741,-0.001763832638992664
-0.003070856114848002,0.0001551957471852741,-0.001763832638992664
-0.003069726114848002,-0.0001830856782885325,-0.001425038662276404
-0.003068596114848002,0.0001551957471852741,-0.001763832638992664
-0.003067466114848002,-0.0001830856782885325,-0.001763832638992818
-0.003066336114848002,-0.0001830856782885325,-0.002102626615708771
-0.003065206114848002,-0.000521367103762339,-0.001763832638992664
-0.003064076114848002,-0.000521367103762339,-0.001763832638992664
-0.003062946114848002,-0.0001830856782885325,-0.002102626615708771
-0.003061816114848002,-0.0001830856782885325,-0.001763832638992818
-0.003060686114848002,-0.0001830856782885325,-0.001763832638992664
-0.003059556114848002,-0.000521367103762339,-0.001763832638992664
-0.003058426114848002,-0.0001830856782885325,-0.002102626615708771
-0.003057296114848002,-0.0001830856782885325,-0.001763832638992664
-0.003056166114848002,0.0001551957471852741,-0.001425038662276404
-0.003055036114848002,0.0001551957471852741,-0.001763832638992664
-0.003053906114848003,-0.0001830856782883786,-0.001763832638992664
-0.003052776114848002,0.0001551957471852741,-0.001763832638992664
-0.003051646114848002,-0.0001830856782885325,-0.002102626615708925
-0.003050516114848002,-0.0001830856782883787,-0.002102626615708771
-0.003049386114848002,0.0001551957471851202,-0.001763832638992818
-0.003048256114848002,0.0001551957471852741,-0.001763832638992664
-0.003047126114848002,-0.0001830856782885325,-0.001763832638992664
-0.003045996114848002,0.0001551957471849664,-0.002102626615708616
-0.003044866114848002,-0.0005213671037620313,-0.001425038662276712
-0.003043736114848002,-0.000521367103762339,-0.001425038662276404
-0.003042606114848002,-0.0001830856782885325,-0.001425038662276404
-0.003041476114848002,-0.0005213671037621852,-0.00176383263899251
-0.003040346114848002,-0.0001830856782886863,-0.001425038662276558
-0.003039216114848002,0.0001551957471852741,-0.001763832638992664
-0.003038086114848002,-0.000521367103762339,-0.002102626615708925
-0.003036956114848002,-0.0001830856782882248,-0.002102626615708771
-0.003035826114848002,0.0004934771726590806,-0.001763832638992664
-0.003034696114848002,-0.000521367103762339,-0.002102626615708925
-0.003033566114848002,-0.0001830856782885325,-0.001425038662276404
-0.003032436114848003,-0.0001830856782885325,-0.001086244685560297
-0.003031306114848002,0.0001551957471852741,-0.001425038662276404
-0.003030176114848002,-0.0001830856782885325,-0.001425038662276404
-0.003029046114848002,-0.0001830856782885325,-0.001763832638992664
-0.003027916114848002,-0.0001830856782885325,-0.001763832638992664
-0.003026786114848002,-0.0001830856782885325,-0.002102626615708925
-0.003025656114848002,0.0004934771726590806,-0.001763832638992664
-0.003024526114848002,0.0004934771726589267,-0.001763832638992664
-0.003023396114848002,0.0001551957471854279,-0.001763832638992664
-0.003022266114848002,-0.0001830856782885325,-0.001763832638992664
-0.003021136114848002,-0.0001830856782885325,-0.001763832638992664
-0.003020006114848002,-0.0001830856782883787,-0.001425038662276558
-0.003018876114848002,0.0001551957471851202,-0.00176383263899251
-0.003017746114848002,-0.0001830856782885325,-0.002102626615708925
-0.003016616114848002,-0.0001830856782885325,-0.002441420592425185
-0.003015486114848002,-0.0001830856782885325,-0.002102626615708771
-0.003014356114848002,-0.0001830856782885325,-0.001763832638992664
-0.003013226114848002,-0.0001830856782885325,-0.001425038662276404
-0.003012096114848002,0.0001551957471852741,-0.002102626615708925
-0.003010966114848003,0.0001551957471852741,-0.002102626615708925
-0.003009836114848002,0.0001551957471852741,-0.002102626615708925
-0.003008706114848002,0.0001551957471852741,-0.002102626615708925
-0.003007576114848002,-0.0001830856782886863,-0.002102626615708925
-0.003006446114848002,-0.0005213671037621852,-0.002102626615708925
-0.003005316114848002,-0.000521367103762339,-0.001763832638992664
-0.003004186114848002,-0.0001830856782885325,-0.001763832638992664
-0.003003056114848002,-0.0001830856782885325,-0.001763832638992664
-0.003001926114848002,-0.0001830856782885325,-0.001763832638992664
-0.003000796114848002,0.0001551957471852741,-0.001763832638992664
-0.002999666114848002,-0.0001830856782885325,-0.001763832638992664
-0.002998536114848002,-0.0001830856782885325,-0.00176383263899251
-0.002997406114848002,-0.0001830856782885325,-0.001425038662276558
-0.002996276114848002,-0.0001830856782885325,-0.001425038662276404
-0.002995146114848002,0.0001551957471852741,-0.001763832638992664
-0.002994016114848002,0.0001551957471851202,-0.001763832638992664
-0.002992886114848002,-0.0001830856782885325,-0.001763832638992664
-0.002991756114848002,0.0001551957471852741,-0.001425038662276404
-0.002990626114848002,0.0001551957471852741,-0.001763832638992664
-0.002989496114848003,0.0001551957471852741,-0.001763832638992664
-0.002988366114848002,-0.000521367103762339,-0.001763832638992664
-0.002987236114848002,-0.0001830856782885325,-0.001763832638992664
-0.002986106114848002,0.0001551957471852741,-0.002102626615708925
-0.002984976114848002,0.0001551957471852741,-0.002102626615708925
-0.002983846114848002,0.0001551957471852741,-0.001763832638992664
-0.002982716114848002,-0.0001830856782885325,-0.001763832638992664
-0.002981586114848002,-0.0001830856782885325,-0.002102626615708616
-0.002980456114848002,-0.0001830856782885325,-0.001425038662276712
-0.002979326114848002,-0.0001830856782885325,-0.001763832638992664
-0.002978196114848002,0.0001551957471852741,-0.001425038662276404
-0.002977066114848002,0.0001551957471851202,-0.002102626615708771
-0.002975936114848002,-0.0001830856782883786,-0.001763832638992818
-0.002974806114848002,-0.0001830856782885325,-0.001763832638992664
-0.002973676114848002,-0.0001830856782885325,-0.001425038662276404
-0.002972546114848002,-0.0001830856782883787,-0.00176383263899251
-0.002971416114848002,0.0001551957471852741,-0.001425038662276404
-0.002970286114848002,0.0001551957471852741,-0.001763832638992664
-0.002969156114848002,-0.0001830856782885325,-0.001763832638992664
-0.002968026114848003,-0.0001830856782885325,-0.002102626615708771
-0.002966896114848002,-0.000521367103762339,-0.001763832638992664
-0.002965766114848002,-0.0001830856782885325,-0.001425038662276404
-0.002964636114848002,0.0001551957471852741,-0.001763832638992664
-0.002963506114848003,0.0001551957471852741,-0.001763832638992664
-0.002962376114848002,0.0001551957471852741,-0.002102626615708925
-0.002961246114848002,-0.000521367103762339,-0.001763832638992664
-0.002960116114848002,-0.000521367103762339,-0.001425038662276712
-0.002958986114848002,-0.000521367103762339,-0.002102626615708617
-0.002957856114848002,-0.000521367103762339,-0.002102626615708925
-0.002956726114848002,-0.000521367103762339,-0.001763832638992664
-0.002955596114848002,-0.0001830856782883787,-0.001763832638992818
-0.002954466114848002,0.0001551957471851202,-0.002102626615708771
-0.002953336114848002,0.0001551957471852741,-0.002441420592425185
-0.002952206114848002,-0.0001830856782885325,-0.002102626615708925
-0.002951076114848002,0.0001551957471854279,-0.001425038662276404
-0.002949946114848002,0.0004934771726590806,-0.001425038662276404
-0.002948816114848002,0.0001551957471852741,-0.001763832638992664
-0.002947686114848002,0.0001551957471852741,-0.001763832638992664
-0.002946556114848003,-0.0001830856782883786,-0.001425038662276558
-0.002945426114848002,0.0001551957471852741,-0.001763832638992664
-0.002944296114848002,0.0001551957471852741,-0.002102626615708925
-0.002943166114848002,0.0001551957471852741,-0.001763832638992664
-0.002942036114848003,-0.0005213671037620313,-0.001425038662276558
-0.002940906114848002,-0.0001830856782885325,-0.001763832638992664
-0.002939776114848002,0.0001551957471852741,-0.001763832638992664
-0.002938646114848002,0.0001551957471851202,-0.00176383263899251
-0.002937516114848002,-0.0001830856782883786,-0.001425038662276558
-0.002936386114848002,-0.0001830856782885325,-0.001763832638992664
-0.002935256114848002,-0.0001830856782885325,-0.001763832638992664
-0.002934126114848002,-0.0005213671037621852,-0.002102626615708616
-0.002932996114848002,-0.0001830856782886863,-0.001425038662276712
-0.002931866114848002,0.0001551957471852741,-0.001425038662276404
-0.002930736114848002,0.0001551957471852741,-0.001763832638992664
-0.002929606114848002,-0.0005213671037621852,-0.002102626615708616
-0.002928476114848002,-0.0001830856782885325,-0.001425038662276404
-0.002927346114848002,0.0001551957471852741,-0.001763832638992664
-0.002926216114848002,-0.0001830856782885325,-0.001763832638992664
-0.002925086114848003,-0.0001830856782885325,-0.002102626615708771
-0.002923956114848002,-0.0001830856782885325,-0.002102626615708925
-0.002922826114848002,-0.000521367103762339,-0.002102626615708925
-0.002921696114848002,-0.000521367103762339,-0.001763832638992664
-0.002920566114848003,-0.000521367103762339,-0.002102626615708771
-0.002919436114848002,-0.000521367103762339,-0.001763832638992664
-0.002918306114848002,-0.0001830856782885325,-0.001425038662276404
-0.002917176114848002,0.0001551957471851202,-0.001763832638992664
-0.002916046114848002,-0.0001830856782883786,-0.001763832638992664
-0.002914916114848002,-0.000521367103762339,-0.002102626615708925
-0.002913786114848002,0.0001551957471852741,-0.002102626615708925
-0.002912656114848002,-0.0001830856782883787,-0.002441420592425185
-0.002911526114848002,0.0001551957471851202,-0.002441420592425185
-0.002910396114848002,0.0001551957471852741,-0.001763832638992664
-0.002909266114848002,-0.0001830856782885325,-0.001763832638992664
-0.002908136114848002,-0.000521367103762339,-0.001763832638992664
-0.002907006114848002,-0.000521367103762339,-0.001763832638992664
-0.002905876114848002,-0.0001830856782885325,-0.001425038662276404
-0.002904746114848002,-0.0001830856782885325,-0.001763832638992664
-0.002903616114848002,-0.0001830856782886863,-0.002102626615708616
-0.002902486114848002,-0.000521367103762339,-0.001425038662276404
-0.002901356114848002,-0.0001830856782885325,-0.001763832638992664
-0.002900226114848002,-0.000521367103762339,-0.001763832638992664
-0.002899096114848003,-0.0008596485292359917,-0.001763832638992664
-0.002897966114848002,-0.000521367103762339,-0.001763832638992664
-0.002896836114848002,-0.0001830856782885325,-0.001425038662276404
-0.002895706114848002,-0.000521367103762339,-0.002102626615708925
-0.002894576114848002,-0.000521367103762339,-0.002102626615708925
-0.002893446114848002,0.0001551957471852741,-0.001763832638992664
-0.002892316114848002,-0.0001830856782885325,-0.002102626615708925
-0.002891186114848002,0.0001551957471851202,-0.001763832638992664
-0.002890056114848002,-0.0001830856782883786,-0.001763832638992664
-0.002888926114848002,-0.000521367103762339,-0.001425038662276404
-0.002887796114848002,-0.0001830856782885325,-0.001763832638992664
-0.002886666114848002,-0.000521367103762339,-0.001425038662276712
-0.002885536114848002,-0.000521367103762339,-0.002102626615708617
-0.002884406114848002,-0.0001830856782885325,-0.002102626615708925
-0.002883276114848002,-0.0001830856782885325,-0.002102626615708925
-0.002882146114848002,-0.0001830856782885325,-0.00176383263899251
-0.002881016114848002,-0.0001830856782885325,-0.001425038662276404
-0.002879886114848002,-0.0001830856782885325,-0.001763832638992664
-0.002878756114848002,-0.0001830856782885325,-0.002102626615708925
-0.002877626114848003,-0.0001830856782885325,-0.002102626615708925
-0.002876496114848002,-0.000521367103762339,-0.001763832638992664
-0.002875366114848002,-0.000521367103762339,-0.001763832638992664
-0.002874236114848002,-0.0008596485292359917,-0.001425038662276558
-0.002873106114848002,-0.0005213671037624929,-0.00176383263899251
-0.002871976114848002,-0.0001830856782885325,-0.001425038662276404
-0.002870846114848002,0.0001551957471852741,-0.001086244685560143
-0.002869716114848002,0.0001551957471851202,-0.001086244685560298
-0.002868586114848002,-0.0001830856782883786,-0.00142503866227625
-0.002867456114848002,-0.0001830856782885325,-0.001425038662276404
