Paper2024_SSW/ResultadosOndaP/ResultadosVelocidadOndaPProctorsPabloMajo/M4_25_Est_Run#5.csv

#Digilent WaveForms Oscilloscope Acquisition
#Device Name: Discovery2
#Serial Number: SN:210321AD1806
#Date Time: 2023-11-30 22:20:45.356
#Sample rate: 884956Hz
#Samples: 8192
#Trigger: Source: Channel 2 Type: Edge Condition: Rising Level: 135 mV Hyst.: Auto HoldOff: 0 s
#Channel 1: Range: 20 mV/div Offset: 14 mV Attenuation: 1 X Sample Mode: Average
#Channel 2: Range: 100 mV/div Offset: 65 mV Attenuation: 1 X Sample Mode: Average

Time (s),Channel 1 (V),Channel 2 (V)
-0.003197052900562288,-0.004242462783974213,-0.001599869272903148
-0.003195922900562287,-0.004580744209447866,-0.0009222813194709357
-0.003194792900562288,-0.004242462783974366,-0.00159986927290284
-0.003193662900562288,-0.003904181358500406,-0.001599869272903148
-0.003192532900562288,-0.004242462783974213,-0.001261075296186881
-0.003191402900562287,-0.004580744209447711,-0.001599869272903302
-0.003190272900562288,-0.003904181358500406,-0.001938663249619402
-0.003189142900562288,-0.004580744209448019,-0.001938663249619402
-0.003188012900562288,-0.004580744209448019,-0.001599869272903148
-0.003186882900562288,-0.004242462783974366,-0.001938663249619248
-0.003185752900562288,-0.004242462783974213,-0.002277457226335669
-0.003184622900562288,-0.004242462783974213,-0.001938663249619402
-0.003183492900562288,-0.004242462783974213,-0.001938663249619402
-0.003182362900562288,-0.004580744209447866,-0.001938663249619402
-0.003181232900562288,-0.004242462783974213,-0.001261075296186881
-0.003180102900562288,-0.004242462783974213,-0.001938663249619402
-0.003178972900562287,-0.004580744209447866,-0.001599869272902994
-0.003177842900562288,-0.004242462783974366,-0.001261075296187035
-0.003176712900562288,-0.004580744209448019,-0.0009222813194706275
-0.003175582900562288,-0.004580744209448019,-0.001599869272903148
-0.003174452900562287,-0.004580744209447866,-0.001599869272903148
-0.003173322900562288,-0.004242462783974366,-0.001599869272903148
-0.003172192900562288,-0.003904181358500406,-0.001599869272903148
-0.003171062900562288,-0.004580744209448019,-0.001599869272903148
-0.003169932900562287,-0.004919025634921674,-0.001261075296186727
-0.003168802900562288,-0.004580744209448019,-0.0009222813194706275
-0.003167672900562288,-0.004242462783974213,-0.001938663249619402
-0.003166542900562288,-0.004919025634921827,-0.002277457226335669
-0.003165412900562288,-0.00525730706039548,-0.001599869272903456
-0.003164282900562288,-0.003904181358500406,-0.001599869272903148
-0.003163152900562288,-0.004919025634921827,-0.001261075296186881
-0.003162022900562288,-0.004242462783974213,-0.001599869272903148
-0.003160892900562288,-0.004242462783974213,-0.002277457226335361
-0.003159762900562288,-0.004242462783974213,-0.001599869272903148
-0.003158632900562288,-0.004580744209448019,-0.001599869272903148
-0.003157502900562287,-0.004242462783974521,-0.001261075296186881
-0.003156372900562288,-0.004919025634921519,-0.001261075296186881
-0.003155242900562288,-0.004580744209448019,-0.001599869272903148
-0.003154112900562288,-0.004580744209448019,-0.001261075296186881
-0.003152982900562287,-0.004580744209448019,-0.001261075296187035
-0.003151852900562288,-0.004580744209448019,-0.001599869272902994
-0.003150722900562288,-0.004242462783974213,-0.001599869272903148
-0.003149592900562288,-0.004919025634921827,-0.0009222813194706275
-0.003148462900562287,-0.004919025634921827,-0.001261075296187035
-0.003147332900562288,-0.004919025634921827,-0.001599869272903148
-0.003146202900562288,-0.004580744209448019,-0.001938663249619402
-0.003145072900562288,-0.004580744209448019,-0.001599869272903148
-0.003143942900562287,-0.004580744209448019,-0.001261075296187035
-0.003142812900562288,-0.004580744209448019,-0.001599869272903148
-0.003141682900562288,-0.004580744209448019,-0.002277457226335669
-0.003140552900562288,-0.004242462783974213,-0.001599869272903148
-0.003139422900562288,-0.004580744209447866,-0.001599869272903148
-0.003138292900562288,-0.004242462783974213,-0.001599869272903148
-0.003137162900562288,-0.004242462783974213,-0.001261075296186881
-0.003136032900562287,-0.004919025634921674,-0.001261075296187035
-0.003134902900562288,-0.004580744209448173,-0.001599869272902994
-0.003133772900562288,-0.004242462783974213,-0.001938663249619402
-0.003132642900562288,-0.004242462783974213,-0.001938663249619402
-0.003131512900562287,-0.003904181358500406,-0.001599869272903302
-0.003130382900562288,-0.003904181358500406,-0.001938663249619248
-0.003129252900562288,-0.004242462783974213,-0.001599869272903148
-0.003128122900562288,-0.004242462783974213,-0.001938663249619402
-0.003126992900562287,-0.004919025634921519,-0.001599869272903148
-0.003125862900562288,-0.004242462783974213,-0.001599869272903148
-0.003124732900562288,-0.004580744209448019,-0.001599869272903148
-0.003123602900562288,-0.004580744209448019,-0.001938663249619402
-0.003122472900562287,-0.004242462783974213,-0.001261075296186881
-0.003121342900562288,-0.004242462783974213,-0.001261075296186881
-0.003120212900562288,-0.004580744209448019,-0.001599869272903148
-0.003119082900562288,-0.004580744209448019,-0.001599869272903148
-0.003117952900562288,-0.004580744209448019,-0.001261075296187035
-0.003116822900562288,-0.004242462783974213,-0.0009222813194706275
-0.003115692900562288,-0.004580744209448019,-0.001599869272903148
-0.003114562900562287,-0.004242462783974213,-0.001938663249619402
-0.003113432900562288,-0.004242462783974213,-0.001938663249619402
-0.003112302900562288,-0.004242462783974213,-0.001938663249619402
-0.003111172900562288,-0.004580744209448019,-0.001599869272903148
-0.003110042900562287,-0.004919025634921827,-0.001938663249619248
-0.003108912900562288,-0.004919025634921827,-0.001599869272903302
-0.003107782900562288,-0.004919025634921827,-0.001261075296186881
-0.003106652900562288,-0.004919025634921827,-0.001261075296186881
-0.003105522900562287,-0.004580744209448019,-0.001599869272903148
-0.003104392900562288,-0.004580744209448019,-0.001599869272903148
-0.003103262900562288,-0.004580744209448019,-0.001599869272903148
-0.003102132900562288,-0.004242462783974213,-0.001261075296186881
-0.003101002900562287,-0.004242462783974521,-0.001261075296187035
-0.003099872900562288,-0.004919025634921827,-0.001599869272903148
-0.003098742900562288,-0.004580744209448019,-0.001599869272903148
-0.003097612900562288,-0.004580744209448019,-0.001261075296186881
-0.003096482900562288,-0.004242462783974366,-0.001261075296186881
-0.003095352900562288,-0.004242462783974213,-0.001261075296186881
-0.003094222900562288,-0.004242462783974213,-0.001599869272903148
-0.003093092900562287,-0.004242462783974366,-0.001938663249619402
-0.003091962900562288,-0.004580744209447866,-0.001938663249619402
-0.003090832900562288,-0.004919025634921827,-0.001599869272903148
-0.003089702900562288,-0.003904181358500406,-0.001938663249619402
-0.003088572900562287,-0.004919025634921674,-0.001599869272902994
-0.003087442900562288,-0.004580744209448173,-0.001261075296187035
-0.003086312900562288,-0.004242462783974213,-0.001261075296186881
-0.003085182900562288,-0.004580744209448019,-0.001261075296186881
-0.003084052900562287,-0.004242462783974366,-0.001261075296187035
-0.003082922900562288,-0.004580744209447866,-0.001599869272902994
-0.003081792900562288,-0.004919025634921827,-0.001599869272903148
-0.003080662900562288,-0.004580744209448019,-0.001261075296186881
-0.003079532900562287,-0.004580744209447866,-0.001599869272903302
-0.003078402900562288,-0.004242462783974213,-0.001938663249619402
-0.003077272900562288,-0.004242462783974213,-0.001938663249619402
-0.003076142900562288,-0.004242462783974213,-0.002277457226335669
-0.003075012900562288,-0.004242462783974213,-0.001599869272903456
-0.003073882900562288,-0.004242462783974213,-0.001261075296186881
-0.003072752900562288,-0.004580744209448019,-0.001261075296186881
-0.003071622900562287,-0.004919025634921674,-0.001599869272903148
-0.003070492900562288,-0.004580744209448173,-0.001599869272903148
-0.003069362900562288,-0.004580744209448019,-0.001599869272903148
-0.003068232900562288,-0.004242462783974213,-0.001599869272903148
-0.003067102900562287,-0.004580744209448019,-0.002277457226335515
-0.003065972900562288,-0.004580744209448019,-0.001938663249619556
-0.003064842900562288,-0.004242462783974213,-0.001599869272903148
-0.003063712900562288,-0.004242462783974213,-0.001599869272903148
-0.003062582900562287,-0.004580744209447866,-0.001261075296187035
-0.003061452900562288,-0.004242462783974366,-0.001599869272902994
-0.003060322900562288,-0.005257307060395634,-0.001599869272903148
-0.003059192900562288,-0.004580744209448019,-0.001599869272903148
-0.003058062900562287,-0.004242462783974366,-0.001261075296187035
-0.003056932900562288,-0.004580744209448019,-0.001599869272903148
-0.003055802900562288,-0.004919025634921827,-0.001599869272903148
-0.003054672900562288,-0.004580744209448019,-0.001599869272903148
-0.003053542900562288,-0.004580744209448019,-0.001938663249619248
-0.003052412900562288,-0.004580744209448019,-0.001261075296186881
-0.003051282900562288,-0.004580744209448019,-0.001599869272903148
-0.003050152900562287,-0.004580744209448019,-0.001261075296186881
-0.003049022900562288,-0.004580744209448019,-0.001261075296186881
-0.003047892900562288,-0.004580744209448019,-0.001261075296186881
-0.003046762900562288,-0.004242462783974213,-0.001599869272903148
-0.003045632900562287,-0.00390418135850056,-0.001599869272903302
-0.003044502900562288,-0.004242462783974059,-0.001938663249619248
-0.003043372900562288,-0.004242462783974213,-0.001938663249619402
-0.003042242900562288,-0.003904181358500406,-0.001938663249619402
-0.003041112900562287,-0.004242462783974213,-0.001599869272903148
-0.003039982900562288,-0.004242462783974213,-0.001599869272903148
-0.003038852900562288,-0.004242462783974213,-0.001938663249619402
-0.003037722900562288,-0.004242462783974213,-0.002277457226335669
-0.003036592900562287,-0.004580744209447866,-0.001938663249619248
-0.003035462900562288,-0.004242462783974213,-0.001599869272903148
-0.003034332900562288,-0.004242462783974213,-0.001599869272903148
-0.003033202900562288,-0.004242462783974213,-0.001938663249619402
-0.003032072900562288,-0.004242462783974213,-0.001261075296187189
-0.003030942900562288,-0.004242462783974213,-0.001261075296186881
-0.003029812900562288,-0.004580744209448019,-0.001599869272903148
-0.003028682900562287,-0.004580744209447866,-0.001261075296187189
-0.003027552900562288,-0.004242462783974366,-0.001938663249619094
-0.003026422900562288,-0.004580744209448019,-0.001261075296186881
-0.003025292900562288,-0.004242462783974213,-0.001599869272903148
-0.003024162900562287,-0.004242462783974366,-0.001261075296187035
-0.003023032900562288,-0.004580744209447866,-0.001599869272902994
-0.003021902900562288,-0.004242462783974213,-0.001599869272903148
-0.003020772900562288,-0.004580744209448019,-0.001599869272903148
-0.003019642900562287,-0.004919025634921674,-0.001938663249619402
-0.003018512900562288,-0.004580744209448173,-0.001938663249619402
-0.003017382900562288,-0.004242462783974213,-0.001599869272903148
-0.003016252900562288,-0.004242462783974213,-0.001938663249619402
-0.003015122900562287,-0.004919025634921827,-0.001261075296187035
-0.003013992900562288,-0.004919025634921827,-0.001599869272903148
-0.003012862900562288,-0.004580744209448019,-0.001261075296186881
-0.003011732900562288,-0.004242462783974213,-0.001261075296186881
-0.003010602900562288,-0.004580744209447866,-0.001599869272902994
-0.003009472900562288,-0.004242462783974213,-0.001599869272903148
-0.003008342900562288,-0.004919025634921827,-0.001599869272903148
-0.003007212900562287,-0.005257307060395326,-0.001599869272903148
-0.003006082900562288,-0.004580744209448327,-0.001599869272903148
-0.003004952900562288,-0.004580744209448019,-0.001938663249619402
-0.003003822900562288,-0.004580744209448019,-0.001261075296186881
-0.003002692900562287,-0.004580744209448019,-0.0009222813194707816
-0.003001562900562288,-0.004580744209448019,-0.001261075296186727
-0.003000432900562288,-0.004580744209448019,-0.001599869272903148
-0.002999302900562288,-0.004580744209448019,-0.001261075296186881
-0.002998172900562287,-0.004919025634921674,-0.0009222813194707816
-0.002997042900562288,-0.004580744209448173,-0.001261075296186727
-0.002995912900562288,-0.004580744209448019,-0.001261075296186881
-0.002994782900562288,-0.004580744209448019,-0.001599869272903148
-0.002993652900562287,-0.004242462783974366,-0.001599869272903148
-0.002992522900562288,-0.004580744209448019,-0.001599869272903148
-0.002991392900562288,-0.004242462783974213,-0.001938663249619402
-0.002990262900562288,-0.004580744209448019,-0.001261075296186881
-0.002989132900562288,-0.004580744209448019,-0.001599869272902994
-0.002988002900562288,-0.004919025634921827,-0.001938663249619402
-0.002986872900562288,-0.004242462783974213,-0.001599869272903148
-0.002985742900562287,-0.004580744209447866,-0.001599869272903302
-0.002984612900562288,-0.004242462783974366,-0.001938663249619248
-0.002983482900562288,-0.004580744209448019,-0.001599869272903148
-0.002982352900562288,-0.004242462783974213,-0.001938663249619402
-0.002981222900562287,-0.004580744209448019,-0.001938663249619248
-0.002980092900562288,-0.004580744209448019,-0.001599869272903302
-0.002978962900562288,-0.004242462783974213,-0.001261075296186881
-0.002977832900562288,-0.004580744209448019,-0.001599869272903148
-0.002976702900562287,-0.004580744209448019,-0.001599869272902994
-0.002975572900562288,-0.004580744209448019,-0.001261075296187035
-0.002974442900562288,-0.004919025634921827,-0.001261075296186881
-0.002973312900562288,-0.004919025634921827,-0.001938663249619402
-0.002972182900562287,-0.004242462783974366,-0.001599869272903148
-0.002971052900562288,-0.004580744209448019,-0.001599869272903148
-0.002969922900562288,-0.004580744209448019,-0.001938663249619402
-0.002968792900562288,-0.004242462783974213,-0.001938663249619402
-0.002967662900562288,-0.004242462783974213,-0.001599869272903302
-0.002966532900562288,-0.004242462783974213,-0.001938663249619402
-0.002965402900562288,-0.004580744209448019,-0.001599869272903148
-0.002964272900562288,-0.004242462783974366,-0.001599869272903148
-0.002963142900562288,-0.004580744209447866,-0.001599869272903148
-0.002962012900562288,-0.004580744209448019,-0.001599869272903148
-0.002960882900562288,-0.004580744209448019,-0.001938663249619402
-0.002959752900562287,-0.004580744209448019,-0.001599869272903148
-0.002958622900562288,-0.004580744209448019,-0.001599869272903148
-0.002957492900562288,-0.004242462783974213,-0.001599869272903148
-0.002956362900562288,-0.004580744209448019,-0.001599869272903148
-0.002955232900562287,-0.004242462783974521,-0.001938663249619248
-0.002954102900562288,-0.004919025634921519,-0.001599869272903302
-0.002952972900562288,-0.004580744209448019,-0.001261075296186881
-0.002951842900562288,-0.004580744209448019,-0.001599869272903148
-0.002950712900562287,-0.004242462783974366,-0.001261075296186881
-0.002949582900562288,-0.004580744209448019,-0.001261075296186881
-0.002948452900562288,-0.004242462783974213,-0.001599869272903148
-0.002947322900562288,-0.004580744209448019,-0.001261075296186881
-0.002946192900562288,-0.004580744209448019,-0.001938663249619094
-0.002945062900562288,-0.004242462783974213,-0.001599869272903148
-0.002943932900562288,-0.004580744209448019,-0.001261075296186881
-0.002942802900562288,-0.004919025634921827,-0.001261075296186881
-0.002941672900562288,-0.004919025634921827,-0.001261075296186881
-0.002940542900562288,-0.004580744209448019,-0.001599869272903148
-0.002939412900562288,-0.004580744209448019,-0.001599869272903148
-0.002938282900562287,-0.004242462783974059,-0.001599869272903148
-0.002937152900562288,-0.00390418135850056,-0.001599869272903148
-0.002936022900562288,-0.003904181358500406,-0.001599869272903148
-0.002934892900562288,-0.004580744209448019,-0.001261075296186881
-0.002933762900562287,-0.004580744209448173,-0.001261075296187035
-0.002932632900562288,-0.004919025634921674,-0.001599869272902994
-0.002931502900562288,-0.004580744209448019,-0.001599869272903148
-0.002930372900562288,-0.004580744209448019,-0.001599869272903148
-0.002929242900562287,-0.004580744209448019,-0.001938663249619402
-0.002928112900562288,-0.004580744209448019,-0.001938663249619402
-0.002926982900562288,-0.004242462783974213,-0.001938663249619402
-0.002925852900562288,-0.004242462783974213,-0.001261075296186881
-0.002924722900562288,-0.004580744209447866,-0.001938663249619094
-0.002923592900562288,-0.004580744209448019,-0.001938663249619402
-0.002922462900562288,-0.004580744209448019,-0.001938663249619402
-0.002921332900562288,-0.004580744209448019,-0.001938663249619402
-0.002920202900562288,-0.004580744209448019,-0.001261075296187189
-0.002919072900562288,-0.004580744209448019,-0.001599869272903148
-0.002917942900562288,-0.004580744209448019,-0.001599869272903148
-0.002916812900562287,-0.005257307060395172,-0.001599869272902994
-0.002915682900562288,-0.004242462783974674,-0.001261075296187035
-0.002914552900562288,-0.004580744209448019,-0.001599869272903148
-0.002913422900562288,-0.004919025634921827,-0.001599869272903148
-0.002912292900562287,-0.004580744209448019,-0.001599869272903302
-0.002911162900562288,-0.004580744209448019,-0.001938663249619248
-0.002910032900562288,-0.004919025634921827,-0.0009222813194706275
-0.002908902900562288,-0.004580744209448019,-0.001599869272903148
-0.002907772900562287,-0.004242462783974521,-0.001599869272903148
-0.002906642900562288,-0.004919025634921827,-0.001599869272903148
-0.002905512900562288,-0.004242462783974213,-0.001599869272903148
-0.002904382900562288,-0.004580744209448019,-0.001938663249619402
-0.002903252900562287,-0.004580744209448019,-0.001599869272903302
-0.002902122900562288,-0.004580744209448019,-0.001938663249619402
-0.002900992900562288,-0.004580744209448019,-0.001261075296186881
-0.002899862900562288,-0.004242462783974213,-0.001599869272903148
-0.002898732900562288,-0.004580744209447866,-0.001599869272903148
-0.002897602900562288,-0.004919025634921827,-0.001599869272903148
-0.002896472900562288,-0.004242462783974213,-0.001599869272903148
-0.002895342900562287,-0.004242462783974521,-0.001599869272902994
-0.002894212900562288,-0.004919025634921519,-0.001261075296187035
-0.002893082900562288,-0.004580744209448019,-0.001599869272903148
-0.002891952900562288,-0.004580744209448019,-0.001261075296186881
-0.002890822900562287,-0.004580744209448019,-0.001599869272903148
-0.002889692900562288,-0.004580744209448019,-0.001599869272903148
-0.002888562900562288,-0.004242462783974213,-0.001261075296186881
-0.002887432900562288,-0.004242462783974213,-0.001261075296186881
-0.002886302900562287,-0.004242462783974366,-0.001261075296187035
-0.002885172900562288,-0.004580744209447866,-0.001599869272902994
-0.002884042900562288,-0.003904181358500406,-0.001599869272903148
-0.002882912900562288,-0.004580744209448019,-0.001599869272903148
-0.002881782900562287,-0.004919025634921674,-0.001938663249619248
-0.002880652900562288,-0.004580744209448019,-0.001599869272903148
-0.002879522900562288,-0.004242462783974213,-0.001599869272903148
-0.002878392900562288,-0.004580744209448019,-0.001261075296186881
-0.002877262900562288,-0.004242462783974366,-0.001599869272902994
-0.002876132900562288,-0.004580744209448019,-0.001938663249619402
-0.002875002900562288,-0.004919025634921827,-0.001599869272903148
-0.002873872900562287,-0.004919025634921827,-0.001261075296187035
-0.002872742900562288,-0.004919025634921827,-0.001599869272902994
-0.002871612900562288,-0.004580744209448019,-0.001599869272903148
-0.002870482900562288,-0.004919025634921827,-0.001599869272903148
-0.002869352900562287,-0.004580744209448173,-0.001938663249619402
-0.002868222900562288,-0.004919025634921674,-0.001938663249619402
-0.002867092900562288,-0.004919025634921827,-0.001938663249619402
-0.002865962900562288,-0.004242462783974213,-0.001599869272903148
-0.002864832900562287,-0.004242462783974366,-0.001938663249619402
