Paper2024_SSW/ResultadosOndaP/ResultadosVelocidadOndaPProctorsPabloMajo2/M4_56_Mod_Run#4.csv

#Digilent WaveForms Oscilloscope Acquisition
#Device Name: Discovery2
#Serial Number: SN:210321AD1806
#Date Time: 2023-12-07 19:18:06.247
#Sample rate: 884956Hz
#Samples: 8192
#Trigger: Source: Channel 2 Type: Edge Condition: Rising Level: 135 mV Hyst.: Auto HoldOff: 0 s
#Channel 1: Range: 20 mV/div Offset: 8 mV Attenuation: 1 X Sample Mode: Average
#Channel 2: Range: 100 mV/div Offset: 35 mV Attenuation: 1 X Sample Mode: Average

Time (s),Channel 1 (V),Channel 2 (V)
-0.003197674400562288,0.0003080348442134062,-0.0004086567321276227
-0.003196544400562287,-0.001045090857681359,-0.0007474507088438831
-0.003195414400562288,-3.024658126086176e-05,-0.0007474507088438831
-0.003194284400562288,-0.001045090857681821,-0.0007474507088438831
-0.003193154400562287,-0.0003685280067342069,-0.0007474507088438831
-0.003192024400562287,-0.0003685280067342069,-0.000747450708843729
-0.003190894400562288,-0.0003685280067342069,-0.0004086567321276227
-0.003189764400562288,-0.0007068094322080134,-0.0007474507088438831
-0.003188634400562287,-3.024658126040032e-05,-0.0007474507088438831
-0.003187504400562288,-0.000368528006734053,-0.0004086567321277768
-0.003186374400562288,-0.0007068094322080134,-0.0007474507088438831
-0.003185244400562288,-0.0007068094322080134,-0.0004086567321276227
-0.003184114400562287,-0.0007068094322080134,-0.0004086567321276227
-0.003182984400562288,-0.0003685280067343607,-6.98627554115164e-05
-0.003181854400562288,-0.0007068094322080134,-6.986275541136233e-05
-0.003180724400562288,-0.0003685280067342069,-6.986275541136233e-05
-0.003179594400562287,-0.0003685280067343607,-6.98627554115164e-05
-0.003178464400562288,-0.0007068094322078595,-0.0004086567321274686
-0.003177334400562288,-3.024658126040032e-05,-0.0007474507088438831
-0.003176204400562288,-0.0007068094322080134,-0.001086244685560143
-0.003175074400562287,-0.0003685280067343607,-0.001086244685559989
-0.003173944400562288,-0.0007068094322078595,-0.0007474507088440372
-0.003172814400562288,-0.001045090857681821,-0.0004086567321276227
-0.003171684400562287,-0.0007068094322080134,-6.986275541136233e-05
-0.003170554400562287,-0.001045090857681667,-0.0004086567321276227
-0.003169424400562288,-0.0007068094322080134,-0.0004086567321276227
-0.003168294400562288,-0.001045090857681821,-0.0007474507088438831
-0.003167164400562287,-0.0003685280067342069,-0.0007474507088438831
-0.003166034400562288,-0.0007068094322078595,-0.0004086567321277768
-0.003164904400562288,-0.0007068094322080134,-6.986275541136233e-05
-0.003163774400562288,-0.001721653708629434,-0.0004086567321276227
-0.003162644400562287,-3.024658126040032e-05,-0.0007474507088438831
-0.003161514400562288,-0.001045090857681359,-0.0007474507088438831
-0.003160384400562288,-0.0003685280067342069,-0.001086244685560143
-0.003159254400562288,-0.001045090857681821,-0.0004086567321276227
-0.003158124400562287,-3.024658126070799e-05,-0.001086244685559989
-0.003156994400562288,-0.0007068094322077057,-0.0007474507088440372
-0.003155864400562288,-0.0007068094322080134,-0.0007474507088438831
-0.003154734400562288,-0.0007068094322080134,-0.0007474507088438831
-0.003153604400562287,-0.0003685280067342069,-0.0004086567321277768
-0.003152474400562288,-0.0003685280067342069,-0.000747450708843729
-0.003151344400562288,-0.0007068094322080134,-0.0004086567321276227
-0.003150214400562287,-0.0003685280067342069,-0.0004086567321276227
-0.003149084400562287,-0.001045090857681667,-0.0004086567321277768
-0.003147954400562288,-0.0007068094322080134,-0.0007474507088438831
-0.003146824400562288,-0.0007068094322080134,-0.0007474507088438831
-0.003145694400562287,-0.0003685280067342069,-0.0007474507088438831
-0.003144564400562287,-0.001045090857681513,-0.0007474507088438831
-0.003143434400562288,-0.0003685280067342069,-0.0007474507088438831
-0.003142304400562288,-0.0003685280067342069,-0.0007474507088438831
-0.003141174400562287,-0.0003685280067342069,-0.0007474507088438831
-0.003140044400562288,-3.024658126055417e-05,-0.0007474507088438831
-0.003138914400562288,-3.024658126040032e-05,-0.0007474507088438831
-0.003137784400562288,-0.001045090857681821,-0.0004086567321276227
-0.003136654400562287,-0.001045090857681667,-0.0004086567321277768
-0.003135524400562288,-0.0007068094322081672,-0.000747450708843729
-0.003134394400562288,-0.0003685280067342069,-0.001086244685560143
-0.003133264400562288,-0.0003685280067342069,-0.0007474507088438831
-0.003132134400562287,-0.0007068094322077057,-0.0007474507088438831
-0.003131004400562288,-3.024658126070802e-05,-0.0007474507088438831
-0.003129874400562288,-3.024658126040032e-05,-0.0004086567321276227
-0.003128744400562287,-0.0007068094322080134,-0.0007474507088438831
-0.003127614400562287,0.0006463162696864436,-0.0007474507088438831
-0.003126484400562288,-0.001045090857681821,-0.0007474507088438831
-0.003125354400562288,-0.0007068094322080134,-0.0007474507088438831
-0.003124224400562287,-0.001045090857681821,-0.0004086567321276227
-0.003123094400562287,0.0003080348442130986,-0.0004086567321277768
-0.003121964400562288,-0.0003685280067342069,-0.0007474507088438831
-0.003120834400562288,-3.024658126040032e-05,-0.0007474507088438831
-0.003119704400562287,-0.0003685280067342069,-0.0004086567321276227
-0.003118574400562288,-0.0007068094322078595,-0.000747450708843729
-0.003117444400562288,-0.0003685280067342069,-0.0007474507088438831
-0.003116314400562288,-0.0003685280067342069,-0.0007474507088438831
-0.003115184400562287,-0.0007068094322077057,-0.0004086567321276227
-0.003114054400562288,-3.024658126070802e-05,-0.0004086567321276227
-0.003112924400562288,-0.0003685280067342069,-0.0007474507088438831
-0.003111794400562288,-0.001383372283155627,-0.0007474507088438831
-0.003110664400562287,-0.0003685280067343607,-0.0004086567321274686
-0.003109534400562288,-0.0007068094322078595,-6.98627554115164e-05
-0.003108404400562288,0.0003080348442134062,-0.0004086567321276227
-0.003107274400562287,-0.0007068094322080134,-0.0004086567321276227
-0.003106144400562287,-0.0003685280067345145,-0.0007474507088438831
-0.003105014400562288,-0.001045090857681513,-0.0007474507088438831
-0.003103884400562288,-0.0007068094322080134,-0.001086244685560143
-0.003102754400562287,-0.0007068094322080134,-0.0004086567321276227
-0.003101624400562287,-0.0007068094322080134,-0.0007474507088438831
-0.003100494400562288,-0.0007068094322080134,-0.0007474507088438831
-0.003099364400562288,-0.0003685280067342069,-0.0004086567321276227
-0.003098234400562287,-0.0003685280067342069,-0.0004086567321276227
-0.003097104400562288,-0.0007068094322078595,-0.0004086567321276227
-0.003095974400562288,-0.0007068094322080134,-0.0004086567321276227
-0.003094844400562288,-0.0003685280067342069,-0.0004086567321276227
-0.003093714400562287,-3.024658126055415e-05,-0.0007474507088438831
-0.003092584400562288,-0.000368528006734053,-0.0007474507088438831
-0.003091454400562288,-3.024658126040032e-05,-0.0004086567321276227
-0.003090324400562288,-0.0003685280067342069,-0.0004086567321276227
-0.003089194400562287,-0.0007068094322077057,-0.0007474507088440372
-0.003088064400562288,-3.024658126070802e-05,-0.00108624468555999
-0.003086934400562288,-0.0003685280067342069,-0.0004086567321276227
-0.003085804400562287,-0.0007068094322080134,-0.0004086567321276227
-0.003084674400562287,-0.0007068094322077057,-0.0004086567321276227
-0.003083544400562288,-3.024658126070802e-05,-0.0004086567321276227
-0.003082414400562288,-0.0007068094322080134,-0.0004086567321276227
-0.003081284400562287,-0.0003685280067342069,-0.0007474507088438831
-0.003080154400562287,-3.024658126070799e-05,-0.0007474507088438831
-0.003079024400562288,-0.0007068094322080134,-0.0007474507088438831
-0.003077894400562288,-0.0007068094322080134,-0.0007474507088438831
-0.003076764400562287,-0.0003685280067342069,-0.0004086567321276227
-0.003075634400562288,-0.001045090857681513,-0.000747450708843729
-0.003074504400562288,-0.0003685280067342069,-0.0004086567321276227
-0.003073374400562288,-0.0003685280067342069,-0.0007474507088438831
-0.003072244400562287,-0.0007068094322080134,-0.0004086567321277768
-0.003071114400562288,-0.0007068094322080134,-0.000747450708843729
-0.003069984400562288,-0.0003685280067342069,-0.0007474507088438831
-0.003068854400562288,-0.0007068094322080134,-0.0007474507088438831
-0.003067724400562287,-0.0007068094322083211,-0.000747450708843729
-0.003066594400562288,-0.00138337228315532,-0.0004086567321277768
-0.003065464400562288,-0.0007068094322080134,-0.0004086567321276227
-0.003064334400562287,-0.0007068094322080134,-0.0004086567321276227
-0.003063204400562287,-0.0003685280067345145,-0.0007474507088438831
-0.003062074400562288,-0.001045090857681513,-0.0007474507088438831
-0.003060944400562288,-0.001045090857681821,-0.0007474507088438831
-0.003059814400562287,-0.001045090857681821,-0.0007474507088438831
-0.003058684400562287,-0.0007068094322078595,-0.000747450708843729
-0.003057554400562288,-0.0003685280067342069,-0.0004086567321276227
-0.003056424400562288,-0.001383372283155627,-0.0007474507088438831
-0.003055294400562287,-0.001045090857681821,-0.001086244685560143
-0.003054164400562288,-0.001045090857681821,-0.0004086567321279308
-0.003053034400562288,-0.0007068094322080134,-0.0004086567321276227
-0.003051904400562288,-0.001045090857681821,-0.0004086567321276227
-0.003050774400562287,-0.0007068094322080134,-6.986275541167046e-05
-0.003049644400562288,-0.0007068094322080134,-0.000747450708843575
-0.003048514400562288,-0.0007068094322080134,-0.0007474507088438831
-0.003047384400562288,-0.0007068094322080134,-0.0007474507088438831
-0.003046254400562287,-0.0007068094322080134,-0.0004086567321276227
-0.003045124400562288,-0.0007068094322080134,-0.0004086567321276227
-0.003043994400562288,-0.0007068094322080134,-0.0004086567321276227
-0.003042864400562287,-3.024658126040032e-05,-0.0004086567321276227
-0.003041734400562287,-0.001383372283155166,-0.0004086567321276227
-0.003040604400562288,-0.0003685280067346683,-0.0004086567321276227
-0.003039474400562288,-0.0007068094322080134,-6.986275541136233e-05
-0.003038344400562287,-0.0007068094322080134,-0.0007474507088438831
-0.003037214400562287,-0.0007068094322078595,-0.001086244685559835
-0.003036084400562288,-0.0003685280067342069,-0.0004086567321276227
-0.003034954400562288,-0.0007068094322080134,-6.986275541136233e-05
-0.003033824400562287,-0.0007068094322080134,-0.0007474507088438831
-0.003032694400562288,-0.001045090857681667,-0.0007474507088438831
-0.003031564400562288,-0.0007068094322080134,-0.0004086567321276227
-0.003030434400562288,-0.0007068094322080134,-0.0007474507088438831
-0.003029304400562287,-3.024658126070799e-05,-0.001086244685560143
-0.003028174400562288,-0.0007068094322077057,-0.001086244685560143
-0.003027044400562288,-0.0003685280067342069,-0.0007474507088438831
-0.003025914400562288,-0.0007068094322080134,-0.0004086567321276227
-0.003024784400562287,-0.00138337228315532,-0.0004086567321276227
-0.003023654400562288,-0.0007068094322083211,-0.0004086567321276227
-0.003022524400562288,-0.0003685280067342069,-0.0004086567321276227
-0.003021394400562287,-0.001045090857681821,-0.0004086567321276227
-0.003020264400562287,-0.001045090857681359,-0.0004086567321276227
-0.003019134400562288,-3.024658126086176e-05,-0.0004086567321276227
-0.003018004400562288,-0.0003685280067342069,-0.0004086567321276227
-0.003016874400562287,-0.0007068094322080134,-0.0004086567321276227
-0.003015744400562287,-0.0007068094322081672,-0.0004086567321279308
-0.003014614400562288,-0.001045090857681821,-0.001086244685560143
-0.003013484400562288,-0.0007068094322080134,-0.001086244685560143
-0.003012354400562287,-3.024658126040032e-05,-0.001086244685560143
-0.003011224400562288,-0.0007068094322077057,-0.0007474507088440372
-0.003010094400562288,-0.0003685280067342069,-0.0007474507088438831
-0.003008964400562288,-3.024658126040032e-05,-0.0007474507088438831
-0.003007834400562287,-0.0003685280067343607,-0.0004086567321276227
-0.003006704400562288,-0.0007068094322078595,-0.0004086567321276227
-0.003005574400562288,-0.0007068094322080134,-0.0007474507088438831
-0.003004444400562288,-0.0003685280067342069,-0.0007474507088438831
-0.003003314400562287,-0.0007068094322078595,-0.001086244685559989
-0.003002184400562288,-0.0003685280067343607,-0.0007474507088440372
-0.003001054400562288,-3.024658126040032e-05,-0.0007474507088438831
-0.002999924400562287,-0.001045090857681821,-0.0004086567321276227
-0.002998794400562287,-0.001045090857681667,-0.0004086567321276227
-0.002997664400562288,-0.0007068094322081672,-0.0004086567321276227
-0.002996534400562288,-0.001045090857681821,-0.0004086567321276227
-0.002995404400562287,-0.0003685280067342069,-0.0004086567321276227
-0.002994274400562287,-0.0003685280067342069,-0.0004086567321274686
-0.002993144400562288,-0.0003685280067342069,-6.986275541136233e-05
-0.002992014400562288,-0.0007068094322080134,-0.0007474507088438831
-0.002990884400562287,-0.0007068094322080134,-0.0004086567321276227
-0.002989754400562288,-3.024658126070802e-05,-0.0004086567321276227
-0.002988624400562288,-0.0007068094322080134,-0.0004086567321276227
-0.002987494400562288,-0.001383372283155627,-0.0007474507088438831
-0.002986364400562287,-0.0003685280067343607,-0.0007474507088438831
-0.002985234400562288,-0.0007068094322078595,-0.0007474507088438831
-0.002984104400562288,-0.0007068094322080134,-0.0007474507088438831
-0.002982974400562288,-0.0007068094322080134,-0.0007474507088438831
-0.002981844400562287,-3.024658126132332e-05,-0.0004086567321277768
-0.002980714400562288,-0.002059935134102318,-0.000747450708843729
-0.002979584400562288,0.0003080348442134062,-0.0007474507088438831
-0.002978454400562288,-0.001383372283155627,-0.0007474507088438831
-0.002977324400562287,-0.0007068094322080134,-0.0004086567321277768
-0.002976194400562288,-0.0007068094322080134,-0.000747450708843729
-0.002975064400562288,-0.0007068094322080134,-0.001086244685560143
-0.002973934400562287,-0.0007068094322080134,-0.0004086567321276227
-0.002972804400562287,-0.001045090857681513,-0.0004086567321276227
-0.002971674400562288,-0.0003685280067342069,-0.0004086567321276227
-0.002970544400562288,-0.001383372283155627,-6.986275541136233e-05
-0.002969414400562287,-0.0003685280067342069,-0.0004086567321276227
-0.002968284400562288,-0.0007068094322078595,-0.001086244685559835
-0.002967154400562288,-3.024658126040032e-05,-0.0004086567321276227
-0.002966024400562288,-0.0007068094322080134,-0.0004086567321276227
-0.002964894400562287,-3.024658126040032e-05,-0.0004086567321277768
-0.002963764400562288,-3.024658126040032e-05,-0.000747450708843729
-0.002962634400562288,-0.001045090857681821,-0.001086244685560143
-0.002961504400562288,-0.0007068094322080134,-0.0004086567321276227
-0.002960374400562287,-0.0003685280067343607,-0.0007474507088438831
-0.002959244400562288,-0.0007068094322078595,-0.0007474507088438831
-0.002958114400562288,-0.0007068094322080134,-0.0004086567321276227
-0.002956984400562288,-0.001045090857681821,-0.0007474507088438831
-0.002955854400562287,0.0006463162696864436,-0.0007474507088438831
-0.002954724400562288,-0.001045090857681052,-0.0007474507088438831
-0.002953594400562288,-3.024658126040032e-05,-0.0007474507088438831
-0.002952464400562287,-0.0007068094322080134,-0.001086244685560143
-0.002951334400562287,-0.0003685280067343607,-6.986275541120827e-05
-0.002950204400562288,-0.0007068094322080134,0.000268931221304898
-0.002949074400562288,0.0003080348442134062,-0.0004086567321276227
-0.002947944400562287,-0.001045090857681821,-0.0004086567321276227
-0.002946814400562288,-3.024658126086176e-05,-0.000747450708843729
-0.002945684400562288,-0.001045090857681821,-0.001086244685560143
-0.002944554400562288,-0.0007068094322080134,-0.001086244685560143
-0.002943424400562287,-0.0007068094322080134,-0.0004086567321276227
-0.002942294400562288,-0.0003685280067343607,-6.98627554115164e-05
-0.002941164400562288,-0.0007068094322080134,-6.986275541136233e-05
-0.002940034400562288,-0.001045090857681821,-0.0004086567321276227
-0.002938904400562287,-0.0007068094322081672,-0.0007474507088438831
-0.002937774400562288,-0.001045090857681667,-0.0007474507088438831
-0.002936644400562288,-0.0007068094322080134,-0.0004086567321276227
-0.002935514400562288,-0.001045090857681821,-6.986275541136233e-05
-0.002934384400562287,-0.0003685280067343607,-0.0004086567321277768
-0.002933254400562288,-0.0007068094322078595,-0.000747450708843729
-0.002932124400562288,-0.0003685280067342069,-6.986275541136233e-05
-0.002930994400562287,-0.0003685280067342069,-0.0004086567321276227
-0.002929864400562287,-0.0003685280067343607,-0.0007474507088440372
-0.002928734400562288,-0.0007068094322080134,-0.001086244685560143
-0.002927604400562288,-3.024658126040032e-05,-0.0004086567321276227
-0.002926474400562287,-0.0003685280067342069,-0.0004086567321276227
-0.002925344400562288,-0.0003685280067342069,-0.0004086567321276227
-0.002924214400562288,-0.0003685280067342069,-0.0004086567321276227
-0.002923084400562288,-0.0003685280067342069,-0.0007474507088438831
-0.002921954400562287,-3.024658126040032e-05,-0.0004086567321276227
-0.002920824400562288,-3.024658126040032e-05,-0.000747450708843729
-0.002919694400562288,-0.0003685280067342069,-0.0007474507088438831
-0.002918564400562288,-0.0003685280067342069,-0.0004086567321276227
-0.002917434400562287,-0.0007068094322075518,-0.0004086567321277768
-0.002916304400562288,0.0003080348442129448,-0.000747450708843729
-0.002915174400562288,-0.001383372283155627,-0.0007474507088438831
-0.002914044400562288,-0.0003685280067342069,-0.0004086567321276227
-0.002912914400562287,-0.00138337228315532,-6.98627554115164e-05
-0.002911784400562288,-0.0007068094322083211,-0.0004086567321274686
-0.002910654400562288,-0.001045090857681821,-0.0004086567321276227
-0.002909524400562287,-0.0007068094322080134,-6.986275541136233e-05
-0.002908394400562287,-0.001045090857681667,-0.0004086567321277768
-0.002907264400562288,-0.0007068094322080134,-0.0007474507088438831
-0.002906134400562288,-0.001045090857681821,-0.0004086567321276227
-0.002905004400562287,-0.0007068094322080134,-0.0004086567321276227
-0.002903874400562287,-0.0003685280067342069,-0.000747450708843729
-0.002902744400562288,-0.0003685280067342069,-0.0004086567321276227
-0.002901614400562288,-3.024658126040032e-05,-0.0004086567321276227
-0.002900484400562287,-0.0007068094322080134,-0.0007474507088438831
-0.002899354400562288,-0.0007068094322080134,-0.0007474507088438831
-0.002898224400562288,-0.0007068094322080134,-0.0004086567321276227
-0.002897094400562288,-0.0003685280067342069,-0.0007474507088438831
-0.002895964400562287,-0.0003685280067342069,-0.0004086567321277768
-0.002894834400562288,-0.0003685280067342069,-0.000747450708843729
-0.002893704400562288,-0.0003685280067342069,-0.0007474507088438831
-0.002892574400562288,-3.024658126040032e-05,-0.0007474507088438831
-0.002891444400562287,-0.001383372283155474,-0.0004086567321277768
-0.002890314400562288,-0.001045090857681975,-0.000747450708843729
-0.002889184400562288,-0.0003685280067342069,-0.0007474507088438831
-0.002888054400562287,-0.001045090857681821,-0.0004086567321276227
-0.002886924400562287,-0.001045090857681205,-0.000747450708843729
-0.002885794400562288,0.0003080348442127908,-0.0004086567321277768
-0.002884664400562288,-0.0003685280067342069,-6.986275541136233e-05
-0.002883534400562287,-3.024658126040032e-05,-0.0007474507088438831
-0.002882404400562287,-3.024658126040032e-05,-0.001086244685559835
-0.002881274400562288,-3.024658126040032e-05,-0.0004086567321276227
-0.002880144400562288,-0.0007068094322080134,-0.0007474507088438831
-0.002879014400562287,-3.024658126040032e-05,-0.0004086567321276227
-0.002877884400562288,-3.024658126040032e-05,-0.000747450708843729
-0.002876754400562288,-0.0007068094322080134,-0.0004086567321276227
-0.002875624400562288,-0.0003685280067342069,-0.0004086567321276227
-0.002874494400562287,0.0003080348442127909,-0.0004086567321276227
-0.002873364400562288,-0.001045090857681205,-0.0004086567321276227
-0.002872234400562288,-0.0007068094322080134,-0.0004086567321276227
