ResultadosOndaP/ResultadosVelocidadOndaP/ProbetaM5_Run#4.csv

#Digilent WaveForms Oscilloscope Acquisition
#Device Name: Discovery2
#Serial Number: SN:210321AD1806
#Date Time: 2023-10-20 19:25:08.829
#Sample rate: 884956Hz
#Samples: 8192
#Trigger: Source: Channel 2 Type: Edge Condition: Rising Level: 35 mV Hyst.: Auto HoldOff: 0 s
#Channel 1: Range: 20 mV/div Offset: 8 mV Attenuation: 1 X Sample Mode: Average
#Channel 2: Range: 100 mV/div Offset: 35 mV Attenuation: 1 X Sample Mode: Average

Time (s),Channel 1 (V),Channel 2 (V)
-0.003196841025562288,-0.002059935134103241,-0.004474184452722751
-0.003195711025562287,-0.002059935134103395,-0.004474184452722905
-0.003194581025562288,-0.002398216559576894,-0.004812978429438857
-0.003193451025562288,-0.002059935134103241,-0.00413539047600649
-0.003192321025562288,-0.001721653708629434,-0.00413539047600649
-0.003191191025562287,-0.002398216559577202,-0.004812978429438857
-0.003190061025562288,-0.002736497985050854,-0.004474184452722751
-0.003188931025562288,-0.002736497985050854,-0.005151772406155272
-0.003187801025562288,-0.002736497985050854,-0.00413539047600649
-0.003186671025562288,-0.001721653708629895,-0.00413539047600649
-0.003185541025562288,-0.002398216559577048,-0.004474184452722751
-0.003184411025562288,-0.002059935134103241,-0.00413539047600649
-0.003183281025562288,-0.002398216559577048,-0.004474184452722751
-0.003182151025562288,-0.0027364979850507,-0.004474184452722751
-0.003181021025562288,-0.002398216559577048,-0.004474184452722751
-0.003179891025562288,-0.003074779410524661,-0.004812978429439011
-0.003178761025562288,-0.002736497985050547,-0.004135390476006645
-0.003177631025562288,-0.002059935134103549,-0.004474184452722596
-0.003176501025562288,-0.002398216559577048,-0.004812978429439011
-0.003175371025562288,-0.002398216559577048,-0.004474184452722751
-0.003174241025562287,-0.002398216559577048,-0.004812978429439011
-0.003173111025562288,-0.002398216559577048,-0.004812978429439011
-0.003171981025562288,-0.002398216559577048,-0.004812978429439011
-0.003170851025562288,-0.002059935134103241,-0.004812978429439011
-0.003169721025562287,-0.002059935134103241,-0.004812978429439011
-0.003168591025562288,-0.002059935134103241,-0.004812978429439011
-0.003167461025562288,-0.001721653708629434,-0.004474184452722751
-0.003166331025562288,-0.002059935134103241,-0.004474184452722751
-0.003165201025562288,-0.002059935134103241,-0.004474184452722751
-0.003164071025562288,-0.002059935134103241,-0.00413539047600649
-0.003162941025562288,-0.001721653708629434,-0.00413539047600649
-0.003161811025562288,-0.002398216559577048,-0.005151772406155272
-0.003160681025562288,-0.002398216559577048,-0.004474184452723059
-0.003159551025562288,-0.002059935134103241,-0.004474184452722751
-0.003158421025562288,-0.002398216559577048,-0.004812978429439011
-0.003157291025562288,-0.002059935134103395,-0.004812978429438857
-0.003156161025562288,-0.002398216559576894,-0.004474184452722905
-0.003155031025562288,-0.002398216559577048,-0.004812978429439011
-0.003153901025562288,-0.002059935134103241,-0.004812978429439011
-0.003152771025562287,-0.002398216559577048,-0.005151772406155272
-0.003151641025562288,-0.002398216559577048,-0.005151772406155272
-0.003150511025562288,-0.002398216559577048,-0.004812978429439011
-0.003149381025562288,-0.002736497985050854,-0.004812978429439011
-0.003148251025562287,-0.002398216559577048,-0.004474184452722905
-0.003147121025562288,-0.002398216559577048,-0.004812978429439011
-0.003145991025562288,-0.002398216559577048,-0.005151772406155272
-0.003144861025562288,-0.002398216559577048,-0.005490566382871532
-0.003143731025562287,-0.002059935134103395,-0.005151772406155117
-0.003142601025562288,-0.002398216559577048,-0.004812978429439011
-0.003141471025562288,-0.002059935134103241,-0.004812978429439011
-0.003140341025562288,-0.002059935134103241,-0.005490566382871532
-0.003139211025562288,-0.002398216559576894,-0.005490566382871532
-0.003138081025562288,-0.001721653708629434,-0.004812978429439011
-0.003136951025562288,-0.002059935134103241,-0.005151772406155272
-0.003135821025562288,-0.002398216559576894,-0.004812978429438857
-0.003134691025562288,-0.002059935134103395,-0.004474184452722905
-0.003133561025562288,-0.002398216559577048,-0.004474184452722751
-0.003132431025562288,-0.001721653708629434,-0.004812978429439011
-0.003131301025562287,-0.001721653708629588,-0.004812978429438857
-0.003130171025562288,-0.002059935134103087,-0.004474184452722905
-0.003129041025562288,-0.001383372283155627,-0.005151772406155272
-0.003127911025562288,-0.002398216559577048,-0.004474184452722751
-0.003126781025562287,-0.002398216559576894,-0.004812978429438857
-0.003125651025562288,-0.002059935134103241,-0.004474184452722751
-0.003124521025562288,-0.002059935134103241,-0.004812978429439011
-0.003123391025562288,-0.002059935134103241,-0.00413539047600649
-0.003122261025562287,-0.002059935134103241,-0.004135390476006645
-0.003121131025562288,-0.002059935134103241,-0.004474184452722751
-0.003120001025562288,-0.002059935134103241,-0.00413539047600649
-0.003118871025562288,-0.002059935134103241,-0.00413539047600649
-0.003117741025562288,-0.002398216559576894,-0.004474184452722596
-0.003116611025562288,-0.002398216559577048,-0.004812978429439011
-0.003115481025562288,-0.002398216559577048,-0.004812978429439011
-0.003114351025562288,-0.002398216559577048,-0.004812978429438703
-0.003113221025562288,-0.002398216559577048,-0.004135390476006798
-0.003112091025562288,-0.002398216559577048,-0.004474184452722751
-0.003110961025562288,-0.002398216559577048,-0.004812978429439011
-0.003109831025562287,-0.001721653708629742,-0.004812978429439319
-0.003108701025562288,-0.00239821655957674,-0.005490566382871224
-0.003107571025562288,-0.002059935134103241,-0.004812978429439011
-0.003106441025562288,-0.002059935134103241,-0.004474184452722751
-0.003105311025562287,-0.002059935134103395,-0.005490566382871224
-0.003104181025562288,-0.002398216559576894,-0.004812978429439319
-0.003103051025562288,-0.002736497985050854,-0.004474184452722751
-0.003101921025562288,-0.002398216559577048,-0.005151772406155272
-0.003100791025562287,-0.002398216559577048,-0.004812978429438857
-0.003099661025562288,-0.002398216559577048,-0.004474184452722751
-0.003098531025562288,-0.002059935134103241,-0.004812978429439011
-0.003097401025562288,-0.002059935134103241,-0.004474184452722751
-0.003096271025562288,-0.002059935134103241,-0.004474184452722751
-0.003095141025562288,-0.002059935134103241,-0.004474184452722751
-0.003094011025562288,-0.002059935134103241,-0.004812978429439011
-0.003092881025562288,-0.002398216559576894,-0.004812978429439011
-0.003091751025562288,-0.002059935134103395,-0.004812978429439011
-0.003090621025562288,-0.002398216559577048,-0.004812978429439011
-0.003089491025562288,-0.002398216559577048,-0.004812978429439011
-0.003088361025562288,-0.002398216559577048,-0.005490566382871224
-0.003087231025562288,-0.002398216559577048,-0.004812978429439319
-0.003086101025562288,-0.002059935134103241,-0.004474184452722751
-0.003084971025562288,-0.001721653708629434,-0.004812978429439011
-0.003083841025562287,-0.00239821655957674,-0.004812978429439011
-0.003082711025562288,-0.001721653708629742,-0.004812978429439011
-0.003081581025562288,-0.002059935134103241,-0.005151772406155272
-0.003080451025562288,-0.002398216559577048,-0.004474184452722751
-0.003079321025562287,-0.0027364979850507,-0.004474184452722905
-0.003078191025562288,-0.002398216559577048,-0.004812978429439011
-0.003077061025562288,-0.002398216559577048,-0.004812978429439011
-0.003075931025562288,-0.002736497985050854,-0.004812978429439011
-0.003074801025562288,-0.002398216559577202,-0.004812978429439011
-0.003073671025562288,-0.002398216559577048,-0.004474184452722751
-0.003072541025562288,-0.002398216559577048,-0.005151772406155272
-0.003071411025562288,-0.002398216559577048,-0.004474184452723059
-0.003070281025562288,-0.002398216559577048,-0.005151772406154964
-0.003069151025562288,-0.002398216559577048,-0.005151772406155272
-0.003068021025562288,-0.002736497985050854,-0.004812978429439011
-0.003066891025562288,-0.002398216559577048,-0.004812978429438857
-0.003065761025562288,-0.002398216559577048,-0.004474184452722905
-0.003064631025562288,-0.002059935134103241,-0.004474184452722751
-0.003063501025562288,-0.002398216559577048,-0.004812978429439011
-0.003062371025562287,-0.002059935134103395,-0.004812978429438857
-0.003061241025562288,-0.002398216559576894,-0.004474184452722905
-0.003060111025562288,-0.002398216559577048,-0.004812978429439011
-0.003058981025562288,-0.002059935134103241,-0.004474184452722751
-0.003057851025562287,-0.002059935134103241,-0.005151772406155117
-0.003056721025562288,-0.002059935134103241,-0.004812978429439011
-0.003055591025562288,-0.002398216559577048,-0.00413539047600649
-0.003054461025562288,-0.002059935134103241,-0.004474184452722751
-0.003053331025562288,-0.002398216559576894,-0.004474184452722751
-0.003052201025562288,-0.002736497985050854,-0.005151772406155272
-0.003051071025562288,-0.002398216559577048,-0.004812978429439011
-0.003049941025562288,-0.001721653708629742,-0.004474184452722751
-0.003048811025562288,-0.00239821655957674,-0.004474184452722751
-0.003047681025562288,-0.002398216559577048,-0.00413539047600649
-0.003046551025562288,-0.002398216559577048,-0.004474184452722751
-0.003045421025562288,-0.002736497985050854,-0.004812978429439011
-0.003044291025562288,-0.002736497985050854,-0.004812978429439011
-0.003043161025562288,-0.002059935134103241,-0.004474184452722751
-0.003042031025562288,-0.002398216559577048,-0.004812978429439011
-0.003040901025562287,-0.0027364979850507,-0.004474184452723059
-0.003039771025562288,-0.002398216559577202,-0.005151772406154964
-0.003038641025562288,-0.002059935134103241,-0.004812978429439011
-0.003037511025562288,-0.002059935134103241,-0.004812978429439011
-0.003036381025562287,-0.002398216559577048,-0.005151772406155272
-0.003035251025562288,-0.002398216559577048,-0.005151772406155272
-0.003034121025562288,-0.002398216559577048,-0.004812978429439011
-0.003032991025562288,-0.002398216559577048,-0.004812978429439011
-0.003031861025562288,-0.002059935134103395,-0.004812978429439011
-0.003030731025562288,-0.002059935134103241,-0.004474184452722751
-0.003029601025562288,-0.002398216559577048,-0.004812978429439011
-0.003028471025562288,-0.002398216559576894,-0.004812978429438857
-0.003027341025562288,-0.002059935134103395,-0.004474184452722905
-0.003026211025562288,-0.002398216559577048,-0.00413539047600649
-0.003025081025562288,-0.002736497985050854,-0.004474184452722751
-0.003023951025562288,-0.0027364979850507,-0.00413539047600649
-0.003022821025562288,-0.002398216559577202,-0.00413539047600649
-0.003021691025562288,-0.002059935134103241,-0.004474184452722751
-0.003020561025562288,-0.002059935134103241,-0.004474184452722751
-0.003019431025562287,-0.002059935134103395,-0.004474184452722751
-0.003018301025562288,-0.002398216559576894,-0.004474184452722751
-0.003017171025562288,-0.002398216559577048,-0.004812978429439011
-0.003016041025562288,-0.002398216559577048,-0.004474184452722751
-0.003014911025562287,-0.002736497985050854,-0.004474184452722905
-0.003013781025562288,-0.002736497985050854,-0.004812978429439011
-0.003012651025562288,-0.002398216559577048,-0.004474184452722751
-0.003011521025562288,-0.002398216559577048,-0.004812978429439011
-0.003010391025562288,-0.002398216559577048,-0.004474184452722905
-0.003009261025562288,-0.001721653708629434,-0.004812978429439011
-0.003008131025562288,-0.001721653708629434,-0.004812978429439011
-0.003007001025562288,-0.002059935134103395,-0.004474184452722751
-0.003005871025562288,-0.002398216559576894,-0.004474184452722751
-0.003004741025562288,-0.002398216559577048,-0.004474184452722751
-0.003003611025562288,-0.002059935134103241,-0.004474184452722751
-0.003002481025562288,-0.002059935134103395,-0.00413539047600649
-0.003001351025562288,-0.002398216559576894,-0.00413539047600649
-0.003000221025562288,-0.001721653708629434,-0.004474184452722751
-0.002999091025562288,-0.002398216559577048,-0.004812978429439011
-0.002997961025562287,-0.002398216559576894,-0.004812978429438857
-0.002996831025562288,-0.002059935134103395,-0.004474184452722905
-0.002995701025562288,-0.002059935134103241,-0.00413539047600649
-0.002994571025562288,-0.002059935134103241,-0.005151772406155272
-0.002993441025562287,-0.002398216559576894,-0.004812978429439011
-0.002992311025562288,-0.002059935134103241,-0.004812978429439011
-0.002991181025562288,-0.002059935134103241,-0.004474184452722751
-0.002990051025562288,-0.002398216559577048,-0.004474184452722751
-0.002988921025562288,-0.002398216559577048,-0.004812978429438857
-0.002987791025562288,-0.002736497985050854,-0.004474184452722751
-0.002986661025562288,-0.002398216559577048,-0.004474184452722751
-0.002985531025562288,-0.002398216559577048,-0.005151772406155117
-0.002984401025562288,-0.002398216559577048,-0.004812978429439166
-0.002983271025562288,-0.002398216559577048,-0.004474184452722751
-0.002982141025562288,-0.002398216559577048,-0.004474184452722751
-0.002981011025562288,-0.002736497985050393,-0.004474184452722905
-0.002979881025562288,-0.001721653708629895,-0.004812978429438857
-0.002978751025562288,-0.002059935134103241,-0.005829360359587792
-0.002977621025562288,-0.002398216559577048,-0.004812978429439011
-0.002976491025562287,-0.002059935134103087,-0.005151772406155117
-0.002975361025562288,-0.001721653708629588,-0.004812978429439166
-0.002974231025562288,-0.002059935134103241,-0.004812978429439011
-0.002973101025562288,-0.002398216559577048,-0.004812978429439011
-0.002971971025562287,-0.002398216559577048,-0.004812978429438857
-0.002970841025562288,-0.002398216559577048,-0.004474184452722751
-0.002969711025562288,-0.002398216559577048,-0.005151772406155272
-0.002968581025562288,-0.002059935134103241,-0.005151772406155272
-0.002967451025562288,-0.002398216559576894,-0.005151772406155272
-0.002966321025562288,-0.002059935134103241,-0.005151772406155272
-0.002965191025562288,-0.002059935134103241,-0.005151772406155272
-0.002964061025562288,-0.002398216559577048,-0.004812978429439011
-0.002962931025562288,-0.002398216559577048,-0.004812978429439011
-0.002961801025562288,-0.002736497985050854,-0.004474184452722751
-0.002960671025562288,-0.002059935134103241,-0.004474184452722751
-0.002959541025562288,-0.002059935134103241,-0.004474184452722751
-0.002958411025562288,-0.002059935134103241,-0.004474184452722751
-0.002957281025562288,-0.001721653708629434,-0.004474184452722751
-0.002956151025562288,-0.001721653708629434,-0.004474184452722751
-0.002955021025562287,-0.002398216559576894,-0.005151772406155117
-0.002953891025562288,-0.002059935134103395,-0.004812978429439166
-0.002952761025562288,-0.002736497985050854,-0.004474184452722751
-0.002951631025562288,-0.002398216559577048,-0.004812978429439011
-0.002950501025562287,-0.002736497985050547,-0.004474184452722751
-0.002949371025562288,-0.002059935134103241,-0.004474184452722751
-0.002948241025562288,-0.002059935134103241,-0.004812978429439011
-0.002947111025562288,-0.002059935134103241,-0.004474184452722751
-0.002945981025562288,-0.002059935134103241,-0.004135390476006645
-0.002944851025562288,-0.001721653708629434,-0.00413539047600649
-0.002943721025562288,-0.002059935134103241,-0.004474184452722751
-0.002942591025562288,-0.002398216559577048,-0.00413539047600649
-0.002941461025562288,-0.002059935134103395,-0.004474184452722596
-0.002940331025562288,-0.002059935134103241,-0.004474184452722751
-0.002939201025562288,-0.002398216559577048,-0.00413539047600649
-0.002938071025562288,-0.001721653708629434,-0.004474184452722751
-0.002936941025562288,-0.001721653708629434,-0.004474184452722751
-0.002935811025562288,-0.002398216559577048,-0.004812978429439011
-0.002934681025562288,-0.002059935134103241,-0.004474184452722751
-0.002933551025562287,-0.002398216559576894,-0.003796596499290689
-0.002932421025562288,-0.002059935134103395,-0.004812978429438549
-0.002931291025562288,-0.002398216559577048,-0.004474184452722751
-0.002930161025562288,-0.002398216559577048,-0.004474184452722751
-0.002929031025562287,-0.002398216559576894,-0.004135390476006645
-0.002927901025562288,-0.002059935134103241,-0.004474184452722751
-0.002926771025562288,-0.002059935134103241,-0.004474184452722751
-0.002925641025562288,-0.002059935134103241,-0.004474184452722751
-0.002924511025562288,-0.002398216559576894,-0.004474184452722751
-0.002923381025562288,-0.002398216559577048,-0.004474184452722751
-0.002922251025562288,-0.002398216559577048,-0.004812978429439011
-0.002921121025562288,-0.002736497985050854,-0.004812978429439011
-0.002919991025562288,-0.002059935134103549,-0.004474184452722905
-0.002918861025562288,-0.002398216559577048,-0.004812978429439011
-0.002917731025562288,-0.002398216559577048,-0.004812978429439011
-0.002916601025562288,-0.002059935134103241,-0.004474184452722905
-0.002915471025562288,-0.002059935134103241,-0.004812978429438857
-0.002914341025562288,-0.002059935134103241,-0.004474184452722751
-0.002913211025562288,-0.002398216559577048,-0.004812978429439011
-0.002912081025562287,-0.0027364979850507,-0.005151772406155272
-0.002910951025562288,-0.002398216559577202,-0.005151772406155272
-0.002909821025562288,-0.002398216559577048,-0.004812978429439011
-0.002908691025562288,-0.002736497985050854,-0.004474184452722751
-0.002907561025562287,-0.002398216559577048,-0.004474184452722751
-0.002906431025562288,-0.002398216559577048,-0.004474184452722751
-0.002905301025562288,-0.001721653708629434,-0.004812978429439011
-0.002904171025562288,-0.002059935134103241,-0.004812978429439011
-0.002903041025562287,-0.001383372283155781,-0.004812978429438857
-0.002901911025562288,-0.001721653708629434,-0.004474184452722751
-0.002900781025562288,-0.002398216559577048,-0.00413539047600649
-0.002899651025562288,-0.002398216559577048,-0.00413539047600649
-0.002898521025562288,-0.002398216559577048,-0.004474184452722596
-0.002897391025562288,-0.002398216559577048,-0.00413539047600649
-0.002896261025562288,-0.001721653708629434,-0.004474184452722751
-0.002895131025562288,-0.0027364979850507,-0.00413539047600649
-0.002894001025562288,-0.002398216559577202,-0.00413539047600649
-0.002892871025562288,-0.002398216559577048,-0.004474184452722751
-0.002891741025562288,-0.002398216559577048,-0.004474184452722751
-0.002890611025562287,-0.002059935134103087,-0.004474184452722751
-0.002889481025562288,-0.001721653708629588,-0.004474184452722751
-0.002888351025562288,-0.002398216559577048,-0.004812978429439011
-0.002887221025562288,-0.002398216559577048,-0.004812978429439011
-0.002886091025562287,-0.002398216559577048,-0.005151772406155117
-0.002884961025562288,-0.002398216559577048,-0.004812978429439166
-0.002883831025562288,-0.002398216559577048,-0.005151772406155272
-0.002882701025562288,-0.002398216559577048,-0.004474184452722751
-0.002881571025562287,-0.002398216559577048,-0.004474184452722751
-0.002880441025562288,-0.002398216559577048,-0.004474184452722751
-0.002879311025562288,-0.002398216559577048,-0.00413539047600649
-0.002878181025562288,-0.002059935134103241,-0.004812978429439011
-0.002877051025562288,-0.002059935134103241,-0.004812978429439011
-0.002875921025562288,-0.002398216559577048,-0.004812978429439011
-0.002874791025562288,-0.002059935134103241,-0.00413539047600649
-0.002873661025562288,-0.002059935134103549,-0.004135390476006645
-0.002872531025562288,-0.002736497985050546,-0.004474184452722596
-0.002871401025562288,-0.002059935134103241,-0.00413539047600649
-0.002870271025562288,-0.001721653708629434,-0.003796596499290227
-0.002869141025562287,-0.001721653708629434,-0.004474184452722905
-0.002868011025562288,-0.001721653708629434,-0.004812978429438857
-0.002866881025562288,-0.002398216559577048,-0.004812978429439011
-0.002865751025562288,-0.002398216559577048,-0.004812978429439011
-0.002864621025562287,-0.002059935134103395,-0.004812978429438857
-0.002863491025562288,-0.002398216559576894,-0.004474184452722905
