ResultadosOndaP/ResultadosVelocidadOndaP/ProbetaM7_Run#3.csv

#Digilent WaveForms Oscilloscope Acquisition
#Device Name: Discovery2
#Serial Number: SN:210321AD1806
#Date Time: 2023-10-20 19:36:07.678
#Sample rate: 884956Hz
#Samples: 8192
#Trigger: Source: Channel 2 Type: Edge Condition: Rising Level: 35 mV Hyst.: Auto HoldOff: 0 s
#Channel 1: Range: 20 mV/div Offset: 8 mV Attenuation: 1 X Sample Mode: Average
#Channel 2: Range: 100 mV/div Offset: 35 mV Attenuation: 1 X Sample Mode: Average

Time (s),Channel 1 (V),Channel 2 (V)
-0.003197523733895621,0.0003080348442134062,0.000268931221304898
-0.003196393733895621,0.0006463162696872127,-6.986275541120827e-05
-0.003195263733895622,0.0006463162696872127,0.000268931221304744
-0.003194133733895621,0.0006463162696872127,0.000268931221304898
-0.003193003733895621,0.0006463162696872127,-6.986275541136233e-05
-0.003191873733895621,0.0006463162696872127,-6.98627554110542e-05
-0.003190743733895622,0.0006463162696872127,0.0006077251980211584
-0.003189613733895621,0.0006463162696872127,0.000268931221304898
-0.003188483733895621,0.0003080348442134062,0.000268931221304898
-0.003187353733895622,0.0003080348442134062,0.000268931221304898
-0.003186223733895622,0.0006463162696872127,-6.986275541136233e-05
-0.003185093733895621,0.0003080348442134062,0.000268931221304898
-0.003183963733895621,0.0003080348442134062,0.000268931221304898
-0.003182833733895622,0.0009845976951607116,0.0006077251980210044
-0.003181703733895621,0.0006463162696872127,0.0006077251980211584
-0.003180573733895621,0.0003080348442134062,0.0006077251980211584
-0.003179443733895621,0.0006463162696870589,0.000268931221304898
-0.003178313733895622,0.0003080348442135601,0.000268931221304898
-0.003177183733895621,0.0003080348442134062,0.0006077251980211584
-0.003176053733895621,0.0006463162696872127,0.000268931221304898
-0.003174923733895621,0.0003080348442135601,0.000268931221304898
-0.003173793733895622,0.0006463162696870589,0.000268931221304898
-0.003172663733895621,0.0006463162696872127,0.000268931221304898
-0.003171533733895621,0.0003080348442134062,0.0006077251980211584
-0.003170403733895621,0.0003080348442135601,0.000268931221304744
-0.003169273733895622,0.0006463162696872127,-6.986275541136233e-05
-0.003168143733895621,0.0009845976951610193,-6.986275541136233e-05
-0.003167013733895621,0.0003080348442134062,-0.0004086567321276227
-0.003165883733895622,0.0006463162696870589,0.0002689312213045899
-0.003164753733895622,0.0006463162696872127,0.0006077251980211584
-0.003163623733895621,0.0003080348442134062,-6.986275541136233e-05
-0.003162493733895621,0.0006463162696872127,-6.986275541136233e-05
-0.003161363733895622,0.0006463162696872127,-6.986275541136233e-05
-0.003160233733895621,0.0003080348442134062,0.000268931221304898
-0.003159103733895621,0.0006463162696872127,0.0006077251980211584
-0.003157973733895621,0.0009845976951607116,-6.986275541120827e-05
-0.003156843733895622,0.0003080348442137139,0.000268931221304744
-0.003155713733895621,0.0006463162696872127,0.000268931221304898
-0.003154583733895621,0.0003080348442134062,-6.986275541136233e-05
-0.003153453733895621,0.0006463162696873666,0.000268931221304898
-0.003152323733895622,0.0009845976951608653,0.000268931221304898
-0.003151193733895621,0.0006463162696872127,0.000268931221304898
-0.003150063733895621,0.0003080348442134062,-0.0004086567321276227
-0.003148933733895621,0.0006463162696872127,-6.986275541136233e-05
-0.003147803733895622,0.0006463162696872127,-6.986275541136233e-05
-0.003146673733895621,0.0006463162696872127,0.000268931221304898
-0.003145543733895621,0.0006463162696872127,0.000268931221304898
-0.003144413733895621,0.0006463162696872127,0.000268931221304898
-0.003143283733895622,0.0006463162696872127,0.000268931221304898
-0.003142153733895621,0.0003080348442134062,0.0006077251980211584
-0.003141023733895621,0.0003080348442134062,0.000268931221304898
-0.003139893733895622,0.0003080348442134062,-6.986275541120827e-05
-0.003138763733895622,0.0006463162696872127,-6.986275541136233e-05
-0.003137633733895621,0.0006463162696872127,0.0006077251980211584
-0.003136503733895621,0.0003080348442135601,0.0006077251980211584
-0.003135373733895622,0.0006463162696870589,0.0006077251980211584
-0.003134243733895621,0.0006463162696872127,-6.986275541136233e-05
-0.003133113733895621,0.0006463162696872127,0.0006077251980211584
-0.003131983733895621,0.0003080348442135601,0.0009465191747372647
-0.003130853733895622,0.0006463162696870589,0.0006077251980213125
-0.003129723733895621,0.0009845976951610193,-6.986275541136233e-05
-0.003128593733895621,0.0009845976951610193,0.0006077251980211584
-0.003127463733895621,0.0009845976951610193,0.000268931221304898
-0.003126333733895622,0.0009845976951610193,0.000268931221304898
-0.003125203733895621,0.0003080348442134062,-6.986275541136233e-05
-0.003124073733895621,0.0003080348442134062,0.000268931221304898
-0.003122943733895621,0.0009845976951608655,-6.986275541120827e-05
-0.003121813733895622,0.0006463162696872127,0.000268931221304898
-0.003120683733895621,0.0003080348442134062,0.0009465191747374188
-0.003119553733895621,0.0006463162696872127,0.0009465191747374188
-0.003118423733895622,0.0006463162696872127,0.0002689312213052062
-0.003117293733895622,0.0009845976951610193,-6.986275541136233e-05
-0.003116163733895621,0.0006463162696872127,-6.986275541136233e-05
-0.003115033733895621,0.0003080348442132524,0.000268931221304744
-0.003113903733895622,-3.024658126024647e-05,-6.986275541120827e-05
-0.003112773733895621,0.0006463162696872127,0.000268931221304898
-0.003111643733895621,0.0003080348442134062,-6.986275541136233e-05
-0.003110513733895621,0.0006463162696872127,-6.986275541120827e-05
-0.003109383733895622,0.0006463162696872127,0.000268931221304744
-0.003108253733895621,0.0006463162696872127,0.0006077251980211584
-0.003107123733895621,0.0009845976951610193,0.0006077251980211584
-0.003105993733895621,0.0006463162696870589,0.0002689312213050521
-0.003104863733895622,0.0003080348442135601,0.0006077251980210044
-0.003103733733895621,0.0003080348442134062,0.000268931221304898
-0.003102603733895621,0.0003080348442134062,0.000268931221304898
-0.003101473733895621,0.0006463162696872127,0.0006077251980211584
-0.003100343733895622,0.0006463162696872127,0.0006077251980211584
-0.003099213733895621,0.0006463162696872127,0.000268931221304898
-0.003098083733895621,0.0009845976951610193,0.0006077251980211584
-0.003096953733895622,0.0003080348442137139,0.0002689312213050521
-0.003095823733895622,0.0003080348442134062,-6.986275541136233e-05
-0.003094693733895621,0.0006463162696872127,0.000268931221304898
-0.003093563733895621,0.0003080348442135601,0.000268931221304898
-0.003092433733895622,0.0006463162696870589,0.000268931221304898
-0.003091303733895621,0.0009845976951610193,-6.986275541136233e-05
-0.003090173733895621,0.0006463162696872127,0.0006077251980211584
-0.003089043733895621,0.0006463162696872127,0.0006077251980210044
-0.003087913733895622,0.0006463162696872127,0.0002689312213050521
-0.003086783733895621,0.0006463162696872127,-6.986275541136233e-05
-0.003085653733895621,0.0006463162696872127,-0.0004086567321276227
-0.003084523733895621,0.0006463162696872127,0.0006077251980210044
-0.003083393733895622,0.0006463162696872127,0.0002689312213050521
-0.003082263733895621,0.0006463162696872127,-6.986275541136233e-05
-0.003081133733895621,0.0006463162696872127,0.000268931221304898
-0.003080003733895621,0.0006463162696872127,0.000268931221304898
-0.003078873733895622,0.0006463162696872127,0.000268931221304898
-0.003077743733895621,0.0009845976951610193,0.000268931221304898
-0.003076613733895621,0.0006463162696872127,0.000268931221304898
-0.003075483733895622,0.0009845976951608653,-6.986275541120827e-05
-0.003074353733895622,0.0009845976951610193,0.000268931221304898
-0.003073223733895621,0.0006463162696872127,0.0006077251980211584
-0.003072093733895621,0.0006463162696873666,0.000268931221304744
-0.003070963733895622,0.0009845976951608653,-6.986275541120827e-05
-0.003069833733895621,0.0006463162696872127,0.000268931221304898
-0.003068703733895621,0.0009845976951610193,0.000268931221304898
-0.003067573733895621,0.0006463162696872127,0.000268931221304744
-0.003066443733895622,0.0006463162696872127,-6.986275541120827e-05
-0.003065313733895621,-3.024658126040032e-05,0.000268931221304898
-0.003064183733895621,0.0003080348442134062,0.000268931221304898
-0.003063053733895621,0.0006463162696870589,0.000268931221304898
-0.003061923733895622,0.0003080348442135601,0.000268931221304898
-0.003060793733895621,0.0003080348442134062,0.0006077251980211584
-0.003059663733895621,0.0003080348442134062,0.0009465191747374188
-0.003058533733895621,0.0006463162696872127,0.000268931221304744
-0.003057403733895622,0.0006463162696872127,-6.986275541136233e-05
-0.003056273733895621,0.0009845976951610193,0.000268931221304898
-0.003055143733895621,0.0003080348442134062,-6.986275541136233e-05
-0.003054013733895622,0.0006463162696870589,0.0006077251980208503
-0.003052883733895622,0.0006463162696872127,0.0006077251980211584
-0.003051753733895621,0.0006463162696872127,0.0006077251980211584
-0.003050623733895621,0.0006463162696872127,0.000268931221304898
-0.003049493733895622,0.0006463162696872127,0.000268931221304898
-0.003048363733895621,0.0006463162696872127,0.000268931221304898
-0.003047233733895621,0.0009845976951610193,0.0006077251980211584
-0.003046103733895621,0.0003080348442134062,-6.986275541136233e-05
-0.003044973733895622,0.0003080348442134062,-6.986275541136233e-05
-0.003043843733895621,0.0003080348442134062,-6.986275541136233e-05
-0.003042713733895621,-3.024658126040032e-05,0.0006077251980211584
-0.003041583733895621,0.0003080348442134062,0.0006077251980210044
-0.003040453733895622,0.0003080348442134062,0.0002689312213050521
-0.003039323733895621,0.0003080348442134062,-6.986275541136233e-05
-0.003038193733895621,0.0006463162696872127,0.0006077251980211584
-0.003037063733895621,0.0006463162696870589,0.000268931221304898
-0.003035933733895622,0.0003080348442134062,0.000268931221304898
-0.003034803733895621,0.0003080348442134062,0.000268931221304898
-0.003033673733895621,0.0003080348442134062,-6.986275541136233e-05
-0.003032543733895622,0.0003080348442134062,-6.986275541136233e-05
-0.003031413733895622,0.0006463162696872127,0.000268931221304898
-0.003030283733895621,0.0006463162696872127,0.0009465191747374188
-0.003029153733895621,0.0006463162696872127,0.0006077251980211584
-0.003028023733895622,0.0006463162696872127,0.0006077251980211584
-0.003026893733895621,-3.024658126040032e-05,0.000268931221304898
-0.003025763733895621,0.0006463162696872127,0.0009465191747374188
-0.003024633733895621,0.0003080348442135601,0.0002689312213050521
-0.003023503733895622,0.0006463162696870589,0.0006077251980210044
-0.003022373733895621,0.0006463162696872127,0.000268931221304898
-0.003021243733895621,0.0006463162696872127,-6.986275541136233e-05
-0.003020113733895621,0.000646316269686905,0.0002689312213050521
-0.003018983733895622,-3.024658126009262e-05,0.0006077251980210044
-0.003017853733895621,-3.024658126040032e-05,0.0009465191747374188
-0.003016723733895621,0.0003080348442134062,0.000268931221304898
-0.003015593733895621,0.0006463162696870589,-6.986275541136233e-05
-0.003014463733895622,0.0003080348442134062,-6.986275541136233e-05
-0.003013333733895621,0.0003080348442134062,0.000268931221304898
-0.003012203733895621,0.0003080348442134062,0.000268931221304898
-0.003011073733895622,0.0006463162696870589,0.0006077251980210044
-0.003009943733895622,0.0006463162696872127,0.0006077251980211584
-0.003008813733895621,0.0006463162696872127,0.000268931221304898
-0.003007683733895621,0.0006463162696872127,-6.986275541120827e-05
-0.003006553733895622,0.0006463162696872127,0.000268931221304744
-0.003005423733895621,0.0006463162696872127,0.000268931221304898
-0.003004293733895621,0.0006463162696872127,0.000268931221304898
-0.003003163733895621,0.0006463162696870589,-6.986275541136233e-05
-0.003002033733895622,0.0003080348442135601,-6.986275541136233e-05
-0.003000903733895621,0.0003080348442134062,0.000268931221304898
-0.002999773733895621,0.0006463162696872127,0.000268931221304898
-0.002998643733895621,0.0006463162696872127,0.0006077251980210044
-0.002997513733895622,0.0006463162696872127,0.0002689312213050521
-0.002996383733895621,0.0006463162696872127,0.000268931221304898
-0.002995253733895621,0.0009845976951610193,-6.986275541136233e-05
-0.002994123733895621,0.0006463162696873666,0.000268931221304744
-0.002992993733895622,0.0009845976951610193,-6.986275541136233e-05
-0.002991863733895621,0.0003080348442134062,-6.986275541136233e-05
-0.002990733733895621,0.0006463162696872127,0.000268931221304898
-0.002989603733895622,0.0006463162696872127,0.000268931221304898
-0.002988473733895622,0.0009845976951610193,-6.986275541136233e-05
-0.002987343733895621,0.0006463162696872127,-6.986275541136233e-05
-0.002986213733895621,0.0006463162696872127,-6.986275541120827e-05
-0.002985083733895622,0.0006463162696872127,0.000268931221304744
-0.002983953733895621,0.0003080348442134062,-6.986275541136233e-05
-0.002982823733895621,-3.024658126040032e-05,0.000268931221304898
-0.002981693733895621,0.0006463162696872127,0.0006077251980211584
-0.002980563733895622,0.0006463162696872127,0.0006077251980211584
-0.002979433733895621,0.0003080348442134062,-6.986275541136233e-05
-0.002978303733895621,-3.024658126040032e-05,-6.986275541136233e-05
-0.002977173733895621,0.0003080348442134062,0.0006077251980211584
-0.002976043733895622,0.0003080348442134062,0.0006077251980211584
-0.002974913733895621,0.0003080348442134062,0.000268931221304898
-0.002973783733895621,-3.024658126040032e-05,-6.986275541136233e-05
-0.002972653733895621,0.0006463162696872127,0.0002689312213052062
-0.002971523733895622,0.0006463162696872127,0.0009465191747374188
-0.002970393733895621,0.0009845976951610193,0.000268931221304898
-0.002969263733895621,0.0003080348442134062,0.000268931221304898
-0.002968133733895622,0.0003080348442134062,0.0006077251980210044
-0.002967003733895622,0.0006463162696872127,0.000268931221304898
-0.002965873733895621,0.0006463162696872127,0.000268931221304898
-0.002964743733895621,0.0009845976951610193,0.000268931221304898
-0.002963613733895622,0.0009845976951610193,0.000268931221304898
-0.002962483733895621,0.0009845976951610193,0.000268931221304898
-0.002961353733895621,0.0009845976951610193,-6.986275541136233e-05
-0.002960223733895621,0.0006463162696873666,0.000268931221304898
-0.002959093733895622,0.0009845976951608653,0.000268931221304898
-0.002957963733895621,0.0009845976951610193,-6.986275541136233e-05
-0.002956833733895621,0.0006463162696872127,0.0006077251980211584
-0.002955703733895621,0.0006463162696872127,0.0006077251980208503
-0.002954573733895622,0.0006463162696872127,-6.98627554110542e-05
-0.002953443733895621,0.0003080348442134062,0.000268931221304898
-0.002952313733895621,0.0003080348442134062,0.0006077251980211584
-0.002951183733895621,-3.024658126024649e-05,0.000268931221304744
-0.002950053733895622,0.0003080348442134062,-6.986275541136233e-05
-0.002948923733895621,0.0006463162696872127,0.000268931221304898
-0.002947793733895621,0.0006463162696872127,0.0006077251980211584
-0.002946663733895622,0.0006463162696872127,0.0006077251980211584
-0.002945533733895622,0.0006463162696872127,0.0009465191747374188
-0.002944403733895621,-3.024658126040032e-05,-0.0004086567321276227
-0.002943273733895621,0.0003080348442134062,-6.986275541136233e-05
-0.002942143733895622,0.0006463162696870589,0.000268931221304744
-0.002941013733895621,0.0009845976951610193,0.0006077251980211584
-0.002939883733895621,0.0006463162696872127,-6.986275541136233e-05
-0.002938753733895621,0.0003080348442134062,-6.986275541120827e-05
-0.002937623733895622,0.0003080348442134062,0.000268931221304744
-0.002936493733895621,0.0006463162696872127,0.000268931221304898
-0.002935363733895621,0.0006463162696872127,-6.986275541136233e-05
-0.002934233733895621,0.0009845976951607116,0.000268931221304744
-0.002933103733895622,0.0003080348442137139,-6.986275541120827e-05
-0.002931973733895621,0.0003080348442134062,0.000268931221304898
-0.002930843733895621,0.0009845976951610193,0.000268931221304898
-0.002929713733895621,0.0009845976951608655,0.0006077251980210044
-0.002928583733895622,0.0006463162696872127,0.000268931221304898
-0.002927453733895621,0.0009845976951610193,0.000268931221304898
-0.002926323733895621,0.0006463162696872127,0.000268931221304898
-0.002925193733895622,0.0009845976951608653,0.000268931221304898
-0.002924063733895622,0.0006463162696872127,-6.986275541136233e-05
-0.002922933733895621,0.0006463162696872127,-6.986275541136233e-05
-0.002921803733895621,0.0006463162696872127,0.000268931221304898
-0.002920673733895622,0.0003080348442135601,-6.986275541120827e-05
-0.002919543733895621,0.0006463162696872127,-6.986275541136233e-05
-0.002918413733895621,0.0003080348442134062,-6.986275541136233e-05
-0.002917283733895621,-0.0003685280067338992,0.0002689312213050521
-0.002916153733895622,0.0003080348442130985,0.0006077251980210044
-0.002915023733895621,0.0003080348442134062,0.0006077251980211584
-0.002913893733895621,0.0006463162696872127,0.0006077251980211584
-0.002912763733895621,0.0006463162696872127,0.000268931221304898
-0.002911633733895622,0.0006463162696872127,0.000268931221304898
-0.002910503733895621,0.0006463162696872127,0.000268931221304898
-0.002909373733895621,0.0003080348442134062,0.000268931221304898
-0.002908243733895621,0.0006463162696870589,-6.986275541120827e-05
-0.002907113733895622,0.0003080348442134062,0.000268931221304898
-0.002905983733895621,0.0009845976951610193,0.000268931221304898
-0.002904853733895621,0.0009845976951610193,0.0009465191747374188
-0.002903723733895621,0.0006463162696870589,0.000268931221304898
-0.002902593733895622,0.0003080348442134062,0.000268931221304898
-0.002901463733895621,0.0003080348442134062,0.000268931221304898
-0.002900333733895621,-3.024658126040032e-05,0.000268931221304898
-0.002899203733895622,0.000646316269686905,0.000268931221304898
-0.002898073733895621,0.0006463162696872127,0.000268931221304898
-0.002896943733895621,0.0003080348442134062,0.000268931221304898
-0.002895813733895621,0.000646316269686905,0.000268931221304744
-0.002894683733895622,-3.024658126009262e-05,-6.986275541120827e-05
-0.002893553733895621,0.0006463162696872127,-0.0004086567321276227
-0.002892423733895621,0.0006463162696872127,0.000268931221304898
-0.002891293733895621,0.0006463162696870589,0.000268931221304898
-0.002890163733895622,0.0003080348442135601,0.000268931221304898
-0.002889033733895621,0.0009845976951610193,0.000268931221304898
-0.002887903733895621,0.0006463162696872127,-6.986275541136233e-05
-0.002886773733895621,0.0009845976951608655,0.000268931221304744
-0.002885643733895622,0.0006463162696873666,-6.986275541120827e-05
-0.002884513733895621,0.0003080348442134062,-0.0004086567321276227
-0.002883383733895621,0.0006463162696872127,0.000268931221304898
-0.002882253733895621,0.0006463162696870589,-6.986275541136233e-05
-0.002881123733895622,0.0003080348442134062,-6.986275541136233e-05
-0.002879993733895621,0.0006463162696872127,0.000268931221304898
-0.002878863733895621,0.0006463162696872127,-6.986275541136233e-05
-0.002877733733895622,0.0006463162696872127,0.000268931221304744
-0.002876603733895622,0.0009845976951610193,0.0009465191747374188
-0.002875473733895621,0.0009845976951610193,0.000268931221304898
-0.002874343733895621,0.0009845976951608655,0.000268931221304744
-0.002873213733895622,0.0006463162696873666,-6.986275541120827e-05
-0.002872083733895621,0.0006463162696872127,0.0006077251980211584
-0.002870953733895621,0.0006463162696872127,0.000268931221304898
-0.002869823733895621,0.0009845976951607116,-6.986275541120827e-05
-0.002868693733895622,0.0003080348442137139,0.000268931221304744
-0.002867563733895621,0.0006463162696872127,0.000268931221304898
-0.002866433733895621,0.0006463162696872127,-6.986275541136233e-05
-0.002865303733895621,0.0006463162696870589,-0.0004086567321273146
-0.002864173733895622,0.0003080348442135601,0.0002689312213045899
