ResultadosOndaP/ResultadosVelocidadOndaP/ProbetaM8_Run#5.csv

#Digilent WaveForms Oscilloscope Acquisition
#Device Name: Discovery2
#Serial Number: SN:210321AD1806
#Date Time: 2023-10-20 19:41:47.669
#Sample rate: 884956Hz
#Samples: 8192
#Trigger: Source: Channel 2 Type: Edge Condition: Rising Level: 85 mV Hyst.: Auto HoldOff: 0 s
#Channel 1: Range: 20 mV/div Offset: 8 mV Attenuation: 1 X Sample Mode: Average
#Channel 2: Range: 100 mV/div Offset: 35 mV Attenuation: 1 X Sample Mode: Average

Time (s),Channel 1 (V),Channel 2 (V)
-0.003196975855107742,-0.0003685280067342069,0.000268931221304898
-0.003195845855107742,-3.024658126040032e-05,0.000268931221304744
-0.003194715855107743,-3.024658126040032e-05,-6.986275541120827e-05
-0.003193585855107743,-0.0003685280067342069,-6.986275541136233e-05
-0.003192455855107742,-0.0003685280067342069,-0.0004086567321276227
-0.003191325855107742,-3.024658126055415e-05,-6.986275541120827e-05
-0.003190195855107743,-0.0003685280067342069,0.000268931221304898
-0.003189065855107742,-0.0003685280067342069,-6.986275541136233e-05
-0.003187935855107742,-0.0003685280067342069,0.000268931221304898
-0.003186805855107743,-0.0007068094322078595,-6.986275541120827e-05
-0.003185675855107743,-3.024658126040032e-05,-6.986275541136233e-05
-0.003184545855107742,-3.024658126040032e-05,-6.986275541136233e-05
-0.003183415855107742,-0.0007068094322080134,0.000268931221304898
-0.003182285855107743,-0.0003685280067343607,0.000268931221304898
-0.003181155855107743,-0.0003685280067342069,0.000268931221304898
-0.003180025855107742,-0.0003685280067342069,0.000268931221304898
-0.003178895855107742,-3.024658126040032e-05,-6.98627554115164e-05
-0.003177765855107743,-3.024658126040032e-05,-0.0004086567321274686
-0.003176635855107743,-3.024658126040032e-05,-6.986275541136233e-05
-0.003175505855107742,-0.0003685280067342069,0.000268931221304898
-0.003174375855107742,-0.0003685280067342069,-6.986275541136233e-05
-0.003173245855107743,-0.0003685280067342069,-6.986275541136233e-05
-0.003172115855107743,-0.0003685280067342069,0.000268931221304898
-0.003170985855107742,-0.0003685280067342069,0.000268931221304898
-0.003169855855107742,-0.0003685280067342069,0.000268931221304898
-0.003168725855107743,-0.0003685280067342069,0.000268931221304898
-0.003167595855107742,-0.0003685280067342069,0.000268931221304898
-0.003166465855107742,-0.0003685280067342069,0.000268931221304898
-0.003165335855107743,-0.0003685280067342069,-6.986275541120827e-05
-0.003164205855107743,-3.024658126040032e-05,-6.986275541136233e-05
-0.003163075855107742,-0.0003685280067342069,-6.986275541136233e-05
-0.003161945855107742,-0.0003685280067342069,0.000268931221304898
-0.003160815855107743,-3.024658126055417e-05,-6.986275541120827e-05
-0.003159685855107743,-3.024658126040032e-05,0.0006077251980211584
-0.003158555855107742,-3.024658126040032e-05,-6.986275541136233e-05
-0.003157425855107742,-0.0003685280067342069,-6.986275541136233e-05
-0.003156295855107743,-0.0003685280067342069,-6.986275541136233e-05
-0.003155165855107743,-0.0007068094322080134,-0.0004086567321276227
-0.003154035855107742,-0.0003685280067342069,-6.986275541136233e-05
-0.003152905855107742,-0.0007068094322077057,0.000268931221304744
-0.003151775855107743,-3.024658126070802e-05,-6.986275541120827e-05
-0.003150645855107743,-3.024658126040032e-05,0.000268931221304898
-0.003149515855107742,-0.0003685280067342069,0.000268931221304898
-0.003148385855107742,-3.024658126040032e-05,0.000268931221304744
-0.003147255855107743,-3.024658126040032e-05,-6.986275541136233e-05
-0.003146125855107742,-3.024658126040032e-05,-6.986275541136233e-05
-0.003144995855107742,-0.0003685280067342069,-6.986275541136233e-05
-0.003143865855107742,-3.024658126070799e-05,0.000268931221304898
-0.003142735855107743,-0.0007068094322080134,0.000268931221304898
-0.003141605855107742,-0.0003685280067342069,-6.986275541136233e-05
-0.003140475855107742,-3.024658126040032e-05,-6.986275541136233e-05
-0.003139345855107743,-0.000368528006734053,0.000268931221304744
-0.003138215855107743,-0.001045090857681821,-6.986275541136233e-05
-0.003137085855107742,-0.0007068094322080134,-6.986275541136233e-05
-0.003135955855107742,-0.0007068094322078595,0.000268931221304744
-0.003134825855107743,-0.0003685280067343607,-6.986275541120827e-05
-0.003133695855107743,-0.0007068094322080134,-6.986275541136233e-05
-0.003132565855107742,-0.0003685280067342069,-6.986275541136233e-05
-0.003131435855107742,-0.0007068094322078595,0.000268931221304898
-0.003130305855107743,-0.0003685280067343607,0.000268931221304898
-0.003129175855107743,-3.024658126040032e-05,0.000268931221304898
-0.003128045855107742,-3.024658126040032e-05,0.000268931221304898
-0.003126915855107742,-0.000368528006734053,-6.986275541136233e-05
-0.003125785855107743,-3.024658126040032e-05,-6.986275541136233e-05
-0.003124655855107742,-0.0003685280067342069,-6.986275541136233e-05
-0.003123525855107742,-0.0003685280067342069,-6.986275541136233e-05
-0.003122395855107742,-0.0003685280067342069,-0.0004086567321274686
-0.003121265855107743,-0.0003685280067342069,-6.986275541136233e-05
-0.003120135855107742,-0.0003685280067342069,-0.0004086567321276227
-0.003119005855107742,-3.024658126040032e-05,-6.986275541136233e-05
-0.003117875855107743,-0.000368528006734053,-6.986275541136233e-05
-0.003116745855107743,-3.024658126040032e-05,0.000268931221304898
-0.003115615855107742,-0.0003685280067342069,-6.986275541136233e-05
-0.003114485855107742,-0.0003685280067342069,0.0002689312213050521
-0.003113355855107743,-0.0003685280067342069,0.0006077251980210044
-0.003112225855107743,-3.024658126040032e-05,0.000268931221304898
-0.003111095855107742,-0.0007068094322080134,0.0006077251980211584
-0.003109965855107742,-0.0007068094322077057,0.000268931221304898
-0.003108835855107743,-3.024658126070802e-05,0.000268931221304898
-0.003107705855107743,-0.0003685280067342069,-6.986275541136233e-05
-0.003106575855107742,-0.0003685280067342069,0.000268931221304898
-0.003105445855107742,-0.0003685280067343607,-6.986275541136233e-05
-0.003104315855107743,-0.0007068094322078595,-6.986275541136233e-05
-0.003103185855107742,-0.0007068094322080134,-6.986275541136233e-05
-0.003102055855107742,-0.0007068094322080134,0.000268931221304898
-0.003100925855107742,-0.0007068094322078595,0.0006077251980210044
-0.003099795855107743,-0.0003685280067342069,0.000268931221304898
-0.003098665855107742,-3.024658126040032e-05,-6.986275541136233e-05
-0.003097535855107742,-3.024658126040032e-05,-6.986275541136233e-05
-0.003096405855107743,-0.000368528006734053,-6.986275541136233e-05
-0.003095275855107743,-0.0007068094322080134,-0.0004086567321276227
-0.003094145855107742,-3.024658126040032e-05,-0.0004086567321276227
-0.003093015855107742,-3.024658126086182e-05,-0.0004086567321274686
-0.003091885855107743,-0.001045090857681359,-6.98627554115164e-05
-0.003090755855107743,-0.0007068094322080134,-0.0004086567321276227
-0.003089625855107742,-0.0003685280067342069,0.000268931221304898
-0.003088495855107742,-0.0003685280067342069,0.000268931221304744
-0.003087365855107743,-0.0003685280067342069,-6.986275541120827e-05
-0.003086235855107743,-0.0003685280067342069,-0.0004086567321276227
-0.003085105855107742,-0.0003685280067342069,-6.986275541136233e-05
-0.003083975855107742,-0.0003685280067342069,-6.98627554110542e-05
-0.003082845855107743,-0.0003685280067342069,0.0006077251980208503
-0.003081715855107742,-3.024658126040032e-05,0.0006077251980211584
-0.003080585855107742,-3.024658126040032e-05,0.000268931221304898
-0.003079455855107742,-0.0003685280067342069,-6.986275541136233e-05
-0.003078325855107743,-0.0003685280067342069,-6.986275541136233e-05
-0.003077195855107742,-0.0003685280067342069,-0.0004086567321276227
-0.003076065855107742,-3.024658126040032e-05,-6.986275541136233e-05
-0.003074935855107743,-0.000368528006734053,-0.0004086567321274686
-0.003073805855107743,-0.0007068094322080134,-6.986275541136233e-05
-0.003072675855107742,-0.0003685280067342069,0.000268931221304898
-0.003071545855107742,-0.0007068094322080134,-6.986275541120827e-05
-0.003070415855107743,-0.0007068094322080134,0.000268931221304744
-0.003069285855107743,-0.0003685280067342069,0.000268931221304898
-0.003068155855107742,-0.0007068094322080134,-6.986275541136233e-05
-0.003067025855107742,-0.0003685280067342069,0.000268931221304744
-0.003065895855107743,-0.0003685280067342069,-6.986275541120827e-05
-0.003064765855107743,-0.0003685280067342069,0.000268931221304898
-0.003063635855107742,-0.0003685280067342069,0.000268931221304898
-0.003062505855107742,-0.0003685280067342069,0.000268931221304898
-0.003061375855107743,-0.0003685280067342069,0.000268931221304898
-0.003060245855107742,-0.0003685280067342069,0.000268931221304898
-0.003059115855107742,-0.0003685280067342069,0.000268931221304898
-0.003057985855107742,-3.024658126070799e-05,0.000268931221304898
-0.003056855855107743,-0.0007068094322080134,0.000268931221304898
-0.003055725855107742,-0.0003685280067342069,-6.986275541136233e-05
-0.003054595855107742,-0.0007068094322080134,-6.986275541136233e-05
-0.003053465855107743,-3.024658126070802e-05,-6.986275541136233e-05
-0.003052335855107743,-0.0003685280067342069,0.000268931221304898
-0.003051205855107742,-0.0007068094322080134,0.0006077251980211584
-0.003050075855107742,-0.0003685280067343607,0.000268931221304744
-0.003048945855107743,-0.0007068094322078595,-6.986275541120827e-05
-0.003047815855107743,-0.0007068094322080134,0.0006077251980211584
-0.003046685855107742,-0.0007068094322080134,0.000268931221304898
-0.003045555855107742,-0.0007068094322077057,-0.0004086567321276227
-0.003044425855107743,-3.024658126070802e-05,-0.0004086567321276227
-0.003043295855107743,-0.0003685280067342069,-0.0004086567321276227
-0.003042165855107742,-3.024658126040032e-05,-6.986275541136233e-05
-0.003041035855107742,-0.0003685280067338992,-6.986275541120827e-05
-0.003039905855107743,0.0003080348442130985,0.000268931221304744
-0.003038775855107742,-0.0003685280067342069,0.000268931221304898
-0.003037645855107742,-0.0007068094322080134,-6.986275541136233e-05
-0.003036515855107742,-0.0003685280067343607,0.000268931221304744
-0.003035385855107743,-0.0007068094322080134,-6.986275541136233e-05
-0.003034255855107742,-0.0003685280067342069,-6.986275541136233e-05
-0.003033125855107742,-0.0003685280067342069,0.000268931221304898
-0.003031995855107743,-0.0003685280067342069,0.000268931221304898
-0.003030865855107743,-0.0003685280067342069,-6.986275541136233e-05
-0.003029735855107742,-3.024658126040032e-05,-6.986275541136233e-05
-0.003028605855107742,-0.0003685280067342069,-6.986275541136233e-05
-0.003027475855107743,-0.0003685280067342069,-6.986275541136233e-05
-0.003026345855107743,-0.0003685280067342069,-6.986275541136233e-05
-0.003025215855107742,-3.024658126040032e-05,-6.986275541136233e-05
-0.003024085855107742,-0.0007068094322077057,-6.986275541136233e-05
-0.003022955855107743,-3.024658126070802e-05,-6.986275541136233e-05
-0.003021825855107743,-0.0007068094322080134,-6.986275541136233e-05
-0.003020695855107742,-0.0003685280067342069,-6.986275541136233e-05
-0.003019565855107742,-0.0003685280067342069,-6.986275541136233e-05
-0.003018435855107743,-0.0003685280067342069,-6.986275541136233e-05
-0.003017305855107743,-0.0003685280067342069,-0.0004086567321276227
-0.003016175855107742,-3.024658126040032e-05,-6.986275541136233e-05
-0.003015045855107742,-0.0003685280067345145,0.000268931221304898
-0.003013915855107743,-0.001045090857681821,0.000268931221304898
-0.003012785855107742,-0.001045090857681821,-6.986275541136233e-05
-0.003011655855107742,-0.0007068094322080134,-6.986275541136233e-05
-0.003010525855107743,-0.0003685280067343607,0.000268931221304744
-0.003009395855107743,0.0003080348442134062,0.0006077251980211584
-0.003008265855107742,-3.024658126040032e-05,0.000268931221304898
-0.003007135855107742,-0.0003685280067342069,0.0006077251980210044
-0.003006005855107743,-0.0003685280067342069,0.0002689312213050521
-0.003004875855107743,-0.0003685280067342069,0.000268931221304898
-0.003003745855107742,-0.0003685280067342069,-6.986275541136233e-05
-0.003002615855107742,-0.000368528006734053,0.000268931221304898
-0.003001485855107743,-3.024658126055417e-05,0.000268931221304898
-0.003000355855107743,-0.0003685280067342069,-6.986275541136233e-05
-0.002999225855107742,-3.024658126040032e-05,-6.986275541136233e-05
-0.002998095855107742,-3.024658126055415e-05,-6.986275541136233e-05
-0.002996965855107743,-0.000368528006734053,-6.986275541136233e-05
-0.002995835855107743,-3.024658126040032e-05,0.000268931221304898
-0.002994705855107742,-0.0003685280067342069,0.000268931221304898
-0.002993575855107742,-0.000368528006734053,0.000268931221304744
-0.002992445855107743,-3.024658126040032e-05,-6.986275541136233e-05
-0.002991315855107742,-3.024658126040032e-05,-6.986275541136233e-05
-0.002990185855107742,-0.0003685280067342069,-6.986275541136233e-05
-0.002989055855107743,-0.0003685280067342069,-6.986275541136233e-05
-0.002987925855107743,-0.0003685280067342069,-0.0004086567321276227
-0.002986795855107742,-3.024658126040032e-05,-6.986275541136233e-05
-0.002985665855107742,-0.0007068094322077057,-6.986275541120827e-05
-0.002984535855107743,-3.024658126070802e-05,0.000268931221304744
-0.002983405855107743,-0.0003685280067342069,0.000268931221304898
-0.002982275855107742,-0.0003685280067342069,0.000268931221304898
-0.002981145855107742,-0.0003685280067343607,-6.986275541136233e-05
-0.002980015855107743,-0.0007068094322078595,-6.986275541136233e-05
-0.002978885855107743,-0.0003685280067342069,-6.986275541136233e-05
-0.002977755855107742,-0.0003685280067342069,0.000268931221304898
-0.002976625855107742,-0.000368528006734053,0.0006077251980210044
-0.002975495855107743,-3.024658126055417e-05,0.0002689312213050521
-0.002974365855107743,-3.024658126040032e-05,-6.986275541136233e-05
-0.002973235855107742,-0.0003685280067342069,-6.986275541136233e-05
-0.002972105855107742,-3.024658126070799e-05,0.000268931221304744
-0.002970975855107743,-0.0007068094322080134,-6.986275541136233e-05
-0.002969845855107742,-3.024658126040032e-05,-6.986275541136233e-05
-0.002968715855107742,-3.024658126040032e-05,-6.986275541136233e-05
-0.002967585855107743,-0.000368528006734053,-0.0004086567321274686
-0.002966455855107743,-0.0007068094322080134,0.000268931221304898
-0.002965325855107742,-0.0007068094322080134,-6.986275541136233e-05
-0.002964195855107742,-0.0003685280067342069,-0.0004086567321273146
-0.002963065855107743,-0.0003685280067342069,0.0002689312213045899
-0.002961935855107743,-0.0003685280067342069,-6.986275541136233e-05
-0.002960805855107742,-0.0003685280067342069,-0.0004086567321276227
-0.002959675855107742,-0.0003685280067342069,0.0006077251980210044
-0.002958545855107743,-0.0003685280067342069,0.0002689312213050521
-0.002957415855107743,-0.0003685280067342069,0.000268931221304898
-0.002956285855107742,-0.0007068094322080134,0.000268931221304898
-0.002955155855107742,-0.0003685280067342069,0.000268931221304898
-0.002954025855107743,-0.0003685280067342069,0.000268931221304898
-0.002952895855107743,-0.001045090857681821,-6.986275541136233e-05
-0.002951765855107742,-0.0007068094322080134,0.000268931221304898
-0.002950635855107742,-3.024658126070799e-05,-6.98627554115164e-05
-0.002949505855107743,-0.0007068094322080134,-0.0004086567321276227
-0.002948375855107742,-0.0003685280067342069,-6.986275541136233e-05
-0.002947245855107742,-0.0003685280067342069,-6.986275541136233e-05
-0.002946115855107743,-0.0003685280067342069,0.000268931221304744
-0.002944985855107743,-0.0007068094322080134,0.000268931221304898
-0.002943855855107742,-0.0003685280067342069,0.000268931221304898
-0.002942725855107742,-3.024658126040032e-05,-6.986275541136233e-05
-0.002941595855107743,-0.000368528006734053,0.000268931221304744
-0.002940465855107743,-0.0003685280067342069,0.000268931221304898
-0.002939335855107742,-0.0003685280067342069,0.000268931221304898
-0.002938205855107742,-0.0003685280067342069,0.000268931221304744
-0.002937075855107743,-0.0003685280067342069,-6.986275541120827e-05
-0.002935945855107743,-0.0007068094322080134,0.000268931221304898
-0.002934815855107742,-0.0003685280067342069,0.0006077251980211584
-0.002933685855107742,-0.0003685280067342069,0.000268931221304898
-0.002932555855107743,-0.0003685280067342069,0.000268931221304898
-0.002931425855107743,-0.0007068094322080134,0.000268931221304898
-0.002930295855107742,-3.024658126040032e-05,0.000268931221304898
-0.002929165855107742,-0.0003685280067342069,0.000268931221304898
-0.002928035855107743,-0.0003685280067342069,0.000268931221304898
-0.002926905855107742,-0.0003685280067342069,0.000268931221304898
-0.002925775855107742,-0.0003685280067342069,0.000268931221304898
-0.002924645855107743,-0.0003685280067342069,0.0006077251980210044
-0.002923515855107743,-0.0003685280067342069,0.0006077251980211584
-0.002922385855107742,-0.0003685280067342069,0.000268931221304898
-0.002921255855107742,-3.024658126040032e-05,-6.986275541136233e-05
-0.002920125855107743,-3.024658126040032e-05,-0.0004086567321274686
-0.002918995855107743,-0.0003685280067342069,0.000268931221304898
-0.002917865855107742,-3.024658126040032e-05,-6.986275541136233e-05
-0.002916735855107742,-0.000368528006734053,-6.986275541120827e-05
-0.002915605855107743,-3.024658126055417e-05,0.000268931221304744
-0.002914475855107743,-3.024658126040032e-05,-6.986275541136233e-05
-0.002913345855107742,-3.024658126040032e-05,-6.986275541136233e-05
-0.002912215855107742,-3.024658126055415e-05,-6.986275541120827e-05
-0.002911085855107743,-0.000368528006734053,0.000268931221304744
-0.002909955855107743,-0.0003685280067342069,0.000268931221304898
-0.002908825855107742,-3.024658126040032e-05,0.000268931221304898
-0.002907695855107742,-0.0007068094322077057,0.0006077251980210044
-0.002906565855107743,-3.024658126040032e-05,0.000268931221304898
-0.002905435855107742,-3.024658126040032e-05,-6.986275541136233e-05
-0.002904305855107742,-3.024658126040032e-05,0.000268931221304898
-0.002903175855107742,-0.000368528006734053,-6.986275541120827e-05
-0.002902045855107743,-3.024658126040032e-05,0.000268931221304898
-0.002900915855107742,-0.0003685280067342069,0.000268931221304898
-0.002899785855107742,-0.0003685280067342069,-6.986275541136233e-05
-0.002898655855107743,-0.0007068094322078595,0.000268931221304744
-0.002897525855107743,-0.0003685280067342069,0.000268931221304898
-0.002896395855107742,-0.001045090857681821,-6.986275541136233e-05
-0.002895265855107742,-0.0003685280067342069,-0.0004086567321273146
-0.002894135855107743,-0.0003685280067342069,0.0002689312213045899
-0.002893005855107743,-0.0007068094322080134,0.000268931221304898
-0.002891875855107742,-0.0003685280067342069,0.000268931221304898
-0.002890745855107742,-0.0007068094322080134,-6.986275541120827e-05
-0.002889615855107743,-0.0007068094322080134,0.000268931221304744
-0.002888485855107743,-0.0003685280067342069,0.0006077251980211584
-0.002887355855107742,-0.0003685280067342069,-6.986275541136233e-05
-0.002886225855107742,-0.0003685280067342069,0.0009465191747371107
-0.002885095855107743,-0.0003685280067342069,0.0002689312213052062
-0.002883965855107742,-0.0003685280067342069,-6.986275541136233e-05
-0.002882835855107742,-0.0003685280067342069,0.000268931221304898
-0.002881705855107742,-0.0007068094322078595,0.0002689312213050521
-0.002880575855107743,-0.0003685280067342069,0.0006077251980211584
-0.002879445855107742,-3.024658126040032e-05,0.000268931221304898
-0.002878315855107742,-3.024658126040032e-05,-6.986275541136233e-05
-0.002877185855107743,-0.000368528006734053,0.000268931221304744
-0.002876055855107743,-0.0007068094322080134,0.000268931221304898
-0.002874925855107742,-0.0003685280067342069,-6.986275541136233e-05
-0.002873795855107742,-0.0003685280067343607,0.0006077251980211584
-0.002872665855107743,-0.0007068094322078595,0.0006077251980211584
-0.002871535855107743,-0.0007068094322080134,0.000268931221304898
-0.002870405855107742,-0.0007068094322080134,-6.986275541136233e-05
-0.002869275855107742,-0.0003685280067342069,-6.98627554110542e-05
