ResultadosOndaP/ResultadosVelocidadOndaP/ProbetaM3_Run#3.csv

#Digilent WaveForms Oscilloscope Acquisition
#Device Name: Discovery2
#Serial Number: SN:210321AD1806
#Date Time: 2023-10-16 10:40:38.917
#Sample rate: 909091Hz
#Samples: 8192
#Trigger: Source: Channel 2 Type: Edge Condition: Rising Level: 22 mV Hyst.: Auto HoldOff: 0 s
#Channel 1: Range: 20 mV/div Offset: 8 mV Attenuation: 1 X Sample Mode: Average
#Channel 2: Range: 100 mV/div Offset: 35 mV Attenuation: 1 X Sample Mode: Average

Time (s),Channel 1 (V),Channel 2 (V)
-0.00450505,0.0003080348442134062,-0.0004086567321276227
-0.00450395,-0.0003685280067342069,-0.0004086567321274686
-0.00450285,-0.0003685280067342069,-6.986275541136233e-05
-0.00450175,-3.024658126055415e-05,-6.98627554115164e-05
-0.00450065,-0.0003685280067342069,-0.0004086567321276227
-0.00449955,-0.0003685280067342069,-6.986275541136233e-05
-0.00449845,0.0003080348442134062,-6.986275541136233e-05
-0.00449735,-3.024658126040032e-05,-0.0004086567321276227
-0.00449625,-0.000368528006734053,-6.98627554115164e-05
-0.00449515,0.0003080348442134062,0.000268931221304898
-0.00449405,0.0003080348442134062,-6.986275541120827e-05
-0.00449295,0.0003080348442134062,-0.0004086567321276227
-0.00449185,0.0003080348442134062,-0.000747450708843729
-0.00449075,-3.024658126040032e-05,-6.986275541136233e-05
-0.00448965,-3.024658126055415e-05,-6.986275541136233e-05
-0.00448855,-0.0003685280067342069,-6.986275541136233e-05
-0.00448745,-0.0003685280067342069,-0.0004086567321274686
-0.00448635,-0.0003685280067342069,-6.986275541136233e-05
-0.00448525,-3.024658126024649e-05,0.000268931221304898
-0.00448415,0.0003080348442134062,0.000268931221304898
-0.00448305,0.0003080348442134062,-6.986275541136233e-05
-0.00448195,-3.024658126040032e-05,0.000268931221304898
-0.00448085,-3.024658126040032e-05,-6.986275541136233e-05
-0.00447975,-3.024658126040032e-05,-6.986275541136233e-05
-0.00447865,-3.024658126040032e-05,-6.986275541136233e-05
-0.00447755,-3.024658126040032e-05,0.000268931221304744
-0.00447645,-3.024658126040032e-05,-6.986275541136233e-05
-0.00447535,-0.000368528006734053,-0.0004086567321274686
-0.00447425,0.0003080348442134062,-6.986275541136233e-05
-0.00447315,0.0003080348442132524,-0.0004086567321274686
-0.00447205,-3.024658126040032e-05,-6.986275541136233e-05
-0.00447095,-3.024658126024649e-05,-6.98627554115164e-05
-0.00446985,0.0003080348442134062,-0.0004086567321276227
-0.00446875,-3.024658126040032e-05,0.000268931221304898
-0.00446765,-3.024658126040032e-05,0.000268931221304898
-0.00446655,-0.0003685280067342069,-0.0004086567321276227
-0.00446545,-0.0003685280067342069,-0.0004086567321276227
-0.00446435,-0.0007068094322080134,-0.0007474507088438831
-0.00446325,-0.0007068094322080134,-0.0004086567321277768
-0.00446215,-3.024658126040032e-05,-6.986275541136233e-05
-0.00446105,0.0003080348442132524,0.000268931221304744
-0.00445995,-3.024658126040032e-05,-6.986275541136233e-05
-0.00445885,-0.000368528006734053,-6.986275541136233e-05
-0.00445775,-3.024658126040032e-05,0.000268931221304898
-0.00445665,-3.024658126040032e-05,-6.986275541120827e-05
-0.00445555,-0.0003685280067342069,-6.986275541136233e-05
-0.00445445,-0.000368528006734053,-6.986275541136233e-05
-0.00445335,-3.024658126040032e-05,-6.986275541136233e-05
-0.00445225,-3.024658126040032e-05,-6.986275541136233e-05
-0.00445115,-3.024658126040032e-05,-6.986275541136233e-05
-0.00445005,0.000646316269686905,0.000268931221304744
-0.00444895,-3.024658126040032e-05,-6.986275541136233e-05
-0.00444785,-0.0003685280067342069,-6.986275541136233e-05
-0.00444675,-0.0003685280067342069,-6.986275541136233e-05
-0.00444565,-3.024658126040032e-05,-6.986275541136233e-05
-0.00444455,-0.0007068094322077057,-6.986275541136233e-05
-0.00444345,-0.0003685280067342069,-0.0004086567321276227
-0.00444235,-3.024658126055417e-05,-6.98627554115164e-05
-0.00444125,-0.0007068094322080134,-0.0004086567321276227
-0.00444015,-0.0003685280067343607,-0.0004086567321276227
-0.00443905,-3.024658126040032e-05,-0.0004086567321276227
-0.00443795,-0.0003685280067342069,-6.98627554115164e-05
-0.00443685,-0.0003685280067342069,-0.0004086567321276227
-0.00443575,-3.024658126040032e-05,-0.0004086567321274686
-0.00443465,-3.024658126040032e-05,-6.986275541136233e-05
-0.00443355,0.0003080348442134062,-0.0004086567321277768
-0.00443245,0.0003080348442134062,-0.0007474507088438831
-0.00443135,-0.000368528006734053,-6.986275541136233e-05
-0.00443025,-3.024658126040032e-05,-6.986275541136233e-05
-0.00442915,-0.0003685280067342069,-0.0004086567321276227
-0.00442805,-0.0003685280067342069,-0.0004086567321276227
-0.00442695,-0.0003685280067342069,-0.0007474507088438831
-0.00442585,-3.024658126055417e-05,-0.0004086567321277768
-0.00442475,-3.024658126040032e-05,-0.0007474507088438831
-0.00442365,-0.000368528006734053,0.0002689312213044357
-0.00442255,-0.0003685280067342069,0.000268931221304898
-0.00442145,-0.0003685280067342069,0.000268931221304898
-0.00442035,-3.024658126040032e-05,-0.0007474507088438831
-0.00441925,-3.024658126024649e-05,-6.986275541136233e-05
-0.00441815,0.0003080348442134062,-6.986275541136233e-05
-0.00441705,-3.024658126040032e-05,-0.0004086567321276227
-0.00441595,-3.024658126040032e-05,-0.0004086567321276227
-0.00441485,0.0003080348442134062,-6.986275541167046e-05
-0.00441375,0.0003080348442134062,-0.0007474507088438831
-0.00441265,0.0003080348442134062,-0.0004086567321276227
-0.00441155,0.0003080348442134062,-0.0004086567321276227
-0.00441045,0.0003080348442134062,-0.0004086567321276227
-0.00440935,-3.024658126024647e-05,-0.000747450708843729
-0.00440825,0.0003080348442134062,-0.0004086567321276227
-0.00440715,-0.0003685280067338992,-0.0004086567321276227
-0.00440605,-3.024658126040032e-05,-0.0004086567321276227
-0.00440495,-3.024658126040032e-05,-6.98627554115164e-05
-0.00440385,0.0003080348442134062,0.000268931221304898
-0.00440275,0.0003080348442134062,-6.986275541167046e-05
-0.00440165,0.0003080348442134062,-0.0007474507088438831
-0.00440055,-3.024658126055415e-05,-0.0004086567321276227
-0.00439945,-0.0003685280067342069,-0.0004086567321276227
-0.00439835,-0.000368528006734053,-6.986275541136233e-05
-0.00439725,-3.024658126040032e-05,-6.986275541136233e-05
-0.00439615,-0.0003685280067342069,-0.0004086567321276227
-0.00439505,-0.0003685280067342069,-6.986275541136233e-05
-0.00439395,-3.024658126040032e-05,-6.986275541136233e-05
-0.00439285,-3.024658126040032e-05,-6.986275541136233e-05
-0.00439175,-3.024658126040032e-05,-0.0004086567321276227
-0.00439065,-3.024658126040032e-05,-0.0004086567321276227
-0.00438955,-3.024658126040032e-05,-6.986275541136233e-05
-0.00438845,0.0003080348442132524,-6.986275541136233e-05
-0.00438735,0.0003080348442134062,-0.0007474507088438831
-0.00438625,0.0006463162696870589,-0.000747450708843575
-0.00438515,0.0003080348442134062,-6.986275541136233e-05
-0.00438405,0.0003080348442132524,-0.0004086567321274686
-0.00438295,-3.024658126040032e-05,-6.986275541136233e-05
-0.00438185,-3.024658126009265e-05,-6.98627554115164e-05
-0.00438075,0.0006463162696872127,-0.0004086567321276227
-0.00437965,-3.024658126040032e-05,-6.986275541136233e-05
-0.00437855,-3.024658126040032e-05,-6.986275541136233e-05
-0.00437745,-3.024658126040032e-05,-0.0004086567321276227
-0.00437635,-0.000368528006734053,-0.000747450708843729
-0.00437525,-0.0003685280067342069,-6.986275541136233e-05
-0.00437415,0.0003080348442130985,-6.986275541136233e-05
-0.00437305,-3.024658126040032e-05,-0.0004086567321276227
-0.00437195,-0.000368528006734053,-6.98627554115164e-05
-0.00437085,-0.0003685280067342069,-6.986275541136233e-05
-0.00436975,-0.0003685280067342069,-0.0004086567321274686
-0.00436865,0.0006463162696872127,-0.0004086567321276227
-0.00436755,-3.024658126055415e-05,-6.986275541136233e-05
-0.00436645,-0.0003685280067342069,-6.986275541136233e-05
-0.00436535,-3.024658126040032e-05,-6.986275541136233e-05
-0.00436425,-3.024658126040032e-05,-6.986275541136233e-05
-0.00436315,-3.024658126024649e-05,-6.98627554115164e-05
-0.00436205,0.0003080348442134062,-0.0004086567321276227
-0.00436095,0.0003080348442134062,-6.986275541136233e-05
-0.00435985,-0.0003685280067342069,-6.986275541136233e-05
-0.00435875,-0.0003685280067342069,-0.0004086567321276227
-0.00435765,-0.0003685280067342069,-6.98627554115164e-05
-0.00435655,0.0003080348442134062,-0.0004086567321276227
-0.00435545,-3.024658126024647e-05,0.0002689312213045899
-0.00435435,0.0003080348442134062,-6.986275541136233e-05
-0.00435325,0.0006463162696870589,-6.986275541136233e-05
-0.00435215,-3.024658126040032e-05,0.000268931221304898
-0.00435105,-3.024658126024649e-05,-6.986275541167046e-05
-0.00434995,0.0003080348442134062,-0.0007474507088438831
-0.00434885,-3.024658126055415e-05,-0.000747450708843729
-0.00434775,-0.0003685280067342069,-0.0004086567321276227
-0.00434665,-0.000368528006734053,-6.98627554115164e-05
-0.00434555,-3.024658126040032e-05,-0.0004086567321276227
-0.00434445,0.0003080348442134062,-6.986275541136233e-05
-0.00434335,0.0003080348442134062,-0.0004086567321276227
-0.00434225,0.0003080348442134062,-6.986275541136233e-05
-0.00434115,0.0003080348442134062,-0.0004086567321274686
-0.00434005,0.0003080348442134062,-0.001086244685560143
-0.00433895,0.0003080348442134062,-0.0007474507088440372
-0.00433785,-3.024658126040032e-05,-6.986275541136233e-05
-0.00433675,0.0003080348442132524,-0.0004086567321274686
-0.00433565,-3.024658126040032e-05,-0.0004086567321276227
-0.00433455,-0.000368528006734053,-0.000747450708843729
-0.00433345,-0.0007068094322080134,-6.986275541136233e-05
-0.00433235,-0.0003685280067342069,-6.98627554115164e-05
-0.00433125,-0.0003685280067342069,-0.0004086567321276227
-0.00433015,0.0003080348442135601,-6.986275541136233e-05
-0.00432905,0.0006463162696872127,-6.986275541136233e-05
-0.00432795,0.0003080348442130986,-0.0004086567321277768
-0.00432685,-0.0003685280067342069,-0.0007474507088438831
-0.00432575,0.0003080348442134062,-0.0007474507088438831
-0.00432465,0.0003080348442134062,-0.0004086567321276227
-0.00432355,0.0003080348442134062,-0.0004086567321276227
-0.00432245,-3.024658126024647e-05,0.0002689312213045899
-0.00432135,-3.024658126040032e-05,-6.986275541136233e-05
-0.00432025,-3.024658126040032e-05,-0.0004086567321274686
-0.00431915,-0.0003685280067342069,-0.0004086567321276227
-0.00431805,-0.0003685280067342069,-6.98627554115164e-05
-0.00431695,-3.024658126040032e-05,-6.986275541136233e-05
-0.00431585,0.0003080348442134062,-0.0004086567321273146
-0.00431475,0.0003080348442134062,0.000268931221304898
-0.00431365,0.0003080348442134062,-6.986275541136233e-05
-0.00431255,0.0003080348442134062,-6.986275541136233e-05
-0.00431145,0.0003080348442132524,0.000268931221304744
-0.00431035,-3.024658126040032e-05,-6.986275541136233e-05
-0.00430925,-3.024658126040032e-05,-6.986275541136233e-05
-0.00430815,-3.024658126040032e-05,-6.986275541136233e-05
-0.00430705,-3.024658126040032e-05,-6.986275541136233e-05
-0.00430595,-0.000368528006734053,-6.986275541136233e-05
-0.00430485,-0.0003685280067342069,-0.0007474507088438831
-0.00430375,-0.0003685280067342069,-0.0004086567321277768
-0.00430265,-0.0003685280067342069,-0.0004086567321276227
-0.00430155,-3.024658126055417e-05,0.0002689312213045899
-0.00430045,0.0003080348442134062,-6.986275541136233e-05
-0.00429935,-3.024658126040032e-05,-6.986275541136233e-05
-0.00429825,-3.024658126040032e-05,-6.986275541136233e-05
-0.00429715,0.0003080348442132524,-6.986275541136233e-05
-0.00429605,-3.024658126040032e-05,-6.986275541136233e-05
-0.00429495,0.0003080348442134062,-6.98627554115164e-05
-0.00429385,0.0003080348442134062,-0.0004086567321276227
-0.00429275,0.0003080348442132524,-6.986275541120827e-05
-0.00429165,-3.024658126040032e-05,0.000268931221304898
-0.00429055,-3.024658126040032e-05,-0.0004086567321276227
-0.00428945,-0.000368528006734053,-6.98627554115164e-05
-0.00428835,-3.024658126040032e-05,-6.986275541136233e-05
-0.00428725,-3.024658126040032e-05,-0.0004086567321274686
-0.00428615,-3.024658126040032e-05,-0.0004086567321276227
-0.00428505,-3.024658126040032e-05,0.0002689312213045899
-0.00428395,-0.0003685280067342069,-6.986275541136233e-05
-0.00428285,-3.024658126055417e-05,-6.986275541136233e-05
-0.00428175,-3.024658126040032e-05,-0.0004086567321276227
-0.00428065,-3.024658126055415e-05,-0.0004086567321276227
-0.00427955,-0.0003685280067342069,-0.0004086567321276227
-0.00427845,-0.0007068094322078595,-0.0004086567321274686
-0.00427735,-0.0003685280067342069,-6.986275541136233e-05
-0.00427625,0.0003080348442130986,-0.0004086567321274686
-0.00427515,-0.0003685280067342069,-6.986275541136233e-05
-0.00427405,-0.0003685280067342069,-6.986275541136233e-05
-0.00427295,-3.024658126040032e-05,-6.986275541136233e-05
-0.00427185,-3.024658126040032e-05,-6.986275541136233e-05
-0.00427075,-0.000368528006734053,-0.0004086567321274686
-0.00426965,-3.024658126040032e-05,-6.986275541136233e-05
-0.00426855,-3.024658126040032e-05,-0.0004086567321274686
-0.00426745,-3.024658126040032e-05,-0.0007474507088438831
-0.00426635,-0.000368528006734053,-0.0007474507088438831
-0.00426525,-3.024658126040032e-05,0.000268931221304898
-0.00426415,0.0003080348442134062,-0.0004086567321276227
-0.00426305,0.0003080348442134062,-0.0004086567321276227
-0.00426195,-3.024658126040032e-05,-6.986275541120827e-05
-0.00426085,-3.024658126040032e-05,0.000268931221304898
-0.00425975,-3.024658126055415e-05,-6.98627554115164e-05
-0.00425865,-0.0003685280067342069,-0.0004086567321276227
-0.00425755,-0.0007068094322080134,-6.986275541136233e-05
-0.00425645,0.0003080348442134062,-0.0004086567321276227
-0.00425535,-3.024658126040032e-05,-0.0004086567321276227
-0.00425425,-3.024658126040032e-05,0.0002689312213045899
-0.00425315,-3.024658126040032e-05,-6.986275541136233e-05
-0.00425205,-3.024658126040032e-05,-0.000747450708843575
-0.00425095,-3.024658126040032e-05,-0.0004086567321276227
-0.00424985,-3.024658126040032e-05,-0.0004086567321276227
-0.00424875,-3.024658126040032e-05,-0.0004086567321276227
-0.00424765,0.0003080348442134062,-0.0004086567321274686
-0.00424655,0.0003080348442134062,-6.986275541136233e-05
-0.00424545,0.0003080348442132524,-6.98627554115164e-05
-0.00424435,-3.024658126040032e-05,-0.0004086567321276227
-0.00424325,0.0003080348442132524,0.000268931221304898
-0.00424215,-3.024658126040032e-05,0.000268931221304898
-0.00424105,-3.024658126040032e-05,-6.986275541136233e-05
-0.00423995,-3.024658126040032e-05,-6.986275541136233e-05
-0.00423885,-0.0003685280067342069,-6.986275541136233e-05
-0.00423775,-3.024658126055417e-05,-6.986275541136233e-05
-0.00423665,-3.024658126040032e-05,-6.986275541136233e-05
-0.00423555,-3.024658126040032e-05,-0.0004086567321274686
-0.00423445,-0.0003685280067342069,-0.0007474507088438831
-0.00423335,-3.024658126055417e-05,-0.0004086567321277768
-0.00423225,0.0003080348442134062,-6.986275541136233e-05
-0.00423115,-3.024658126024647e-05,-0.0004086567321274686
-0.00423005,-3.024658126040032e-05,-0.0004086567321276227
-0.00422895,-0.0003685280067342069,-0.0004086567321274686
-0.00422785,-0.0003685280067342069,-6.986275541136233e-05
-0.00422675,0.0003080348442132524,-6.986275541167046e-05
-0.00422565,-3.024658126040032e-05,-0.0007474507088438831
-0.00422455,-0.0003685280067338992,-0.000747450708843729
-0.00422345,0.0003080348442134062,-0.0004086567321276227
-0.00422235,-3.024658126040032e-05,-0.0004086567321276227
-0.00422125,-3.024658126040032e-05,-0.0007474507088438831
-0.00422015,-3.024658126040032e-05,-0.0004086567321276227
-0.00421905,-3.024658126040032e-05,-6.98627554115164e-05
-0.00421795,-3.024658126040032e-05,-6.986275541136233e-05
-0.00421685,-0.000368528006734053,-6.986275541136233e-05
-0.00421575,-0.0003685280067342069,-6.986275541136233e-05
-0.00421465,-3.024658126055417e-05,-6.986275541136233e-05
-0.00421355,0.0003080348442134062,-0.0004086567321276227
-0.00421245,-3.024658126040032e-05,-0.0004086567321276227
-0.00421135,-3.024658126040032e-05,-0.0004086567321276227
-0.00421025,-3.024658126024649e-05,-0.0004086567321274686
-0.00420915,0.0003080348442134062,-6.986275541136233e-05
-0.00420805,-3.024658126040032e-05,-6.986275541120827e-05
-0.00420695,-3.024658126040032e-05,0.000268931221304898
-0.00420585,0.0003080348442132524,0.000268931221304744
-0.00420475,-3.024658126040032e-05,-6.986275541136233e-05
-0.00420365,0.0003080348442134062,-6.986275541136233e-05
-0.00420255,0.0003080348442134062,-0.0004086567321274686
-0.00420145,0.0003080348442134062,-0.0004086567321276227
-0.00420035,-3.024658126024647e-05,0.0002689312213045899
-0.00419925,0.0003080348442134062,-0.0004086567321276227
-0.00419815,-3.024658126024647e-05,-0.0004086567321276227
-0.00419705,-3.024658126040032e-05,-0.0004086567321276227
-0.00419595,-0.0007068094322077057,-0.0004086567321276227
-0.00419485,-0.0003685280067342069,-6.986275541136233e-05
-0.00419375,-3.024658126040032e-05,-6.98627554115164e-05
-0.00419265,-3.024658126040032e-05,-0.0004086567321276227
-0.00419155,0.0003080348442134062,-0.0004086567321276227
-0.00419045,0.0003080348442134062,-0.0004086567321276227
-0.00418935,-3.024658126040032e-05,-6.98627554115164e-05
-0.00418825,-3.024658126040032e-05,-0.0004086567321276227
-0.00418715,-3.024658126040032e-05,-0.0004086567321276227
-0.00418605,-0.0003685280067342069,-0.0007474507088438831
-0.00418495,-3.024658126040032e-05,-0.0004086567321276227
-0.00418385,-3.024658126040032e-05,-0.000747450708843729
-0.00418275,0.0003080348442134062,-0.0004086567321276227
-0.00418165,-3.024658126024647e-05,-6.98627554115164e-05
-0.00418055,-0.0003685280067342069,-6.986275541136233e-05
-0.00417945,-0.0003685280067342069,-6.986275541136233e-05
-0.00417835,-0.0003685280067342069,-6.986275541136233e-05
-0.00417725,0.0003080348442134062,-0.0004086567321274686
-0.00417615,0.0003080348442134062,-6.986275541136233e-05
-0.00417505,0.0003080348442132524,-6.986275541136233e-05
-0.00417395,-3.024658126040032e-05,-6.986275541136233e-05
-0.00417285,-0.000368528006734053,-0.0004086567321276227
-0.00417175,-3.024658126040032e-05,-0.0004086567321276227
-0.00417065,-3.024658126040032e-05,-0.0004086567321276227
-0.00416955,-0.0003685280067342069,-6.986275541136233e-05
-0.00416845,-0.0003685280067342069,-6.986275541136233e-05
-0.00416735,-0.0007068094322078595,-0.000747450708843575
-0.00416625,-0.0007068094322080134,-0.0007474507088438831
-0.00416515,0.0003080348442129448,-0.0004086567321277768
-0.00416405,-3.024658126040032e-05,-0.0004086567321276227
-0.00416295,-0.000368528006734053,-0.0004086567321276227
-0.00416185,-3.024658126040032e-05,-6.986275541136233e-05
-0.00416075,-0.000368528006734053,-0.0004086567321276227
-0.00415965,-3.024658126040032e-05,-0.0004086567321276227
-0.00415855,-3.024658126070799e-05,-6.986275541136233e-05
-0.00415745,-0.0007068094322080134,-6.986275541136233e-05
-0.00415635,-0.000368528006734053,0.000268931221304898
-0.00415525,-3.024658126040032e-05,0.000268931221304898
-0.00415415,-3.024658126055415e-05,-0.0004086567321276227
-0.00415305,-0.0003685280067342069,-0.0004086567321276227
-0.00415195,-0.0003685280067342069,-6.986275541136233e-05
-0.00415085,-3.024658126055417e-05,-0.0004086567321274686
-0.00414975,0.0003080348442134062,-0.0007474507088438831
-0.00414865,0.0003080348442134062,-0.0007474507088438831
-0.00414755,-3.024658126040032e-05,-0.0004086567321276227
-0.00414645,-3.024658126040032e-05,-0.0004086567321276227
-0.00414535,-0.0003685280067342069,-0.0007474507088438831
-0.00414425,-3.024658126055417e-05,-6.986275541167046e-05
-0.00414315,-3.024658126040032e-05,-0.0004086567321276227
-0.00414205,-0.0007068094322078595,-0.0004086567321274686
-0.00414095,-0.0003685280067342069,-6.986275541136233e-05
-0.00413985,-3.024658126024649e-05,-0.000747450708843729
-0.00413875,0.0003080348442134062,-0.0004086567321276227
-0.00413765,0.0003080348442130986,-0.000747450708843575
-0.00413655,-0.0003685280067342069,-6.986275541136233e-05
-0.00413545,-3.024658126040032e-05,-0.0004086567321276227
-0.00413435,-0.0003685280067342069,-6.986275541136233e-05
-0.00413325,-0.0003685280067342069,-0.0004086567321276227
-0.00413215,-0.0003685280067342069,-0.000747450708843729
