ResultadosOndaP/ResultadosVelocidadOndaP/ProbetaM8_Run#1.csv

#Digilent WaveForms Oscilloscope Acquisition
#Device Name: Discovery2
#Serial Number: SN:210321AD1806
#Date Time: 2023-10-20 19:41:02.122
#Sample rate: 884956Hz
#Samples: 8192
#Trigger: Source: Channel 2 Type: Edge Condition: Rising Level: 85 mV Hyst.: Auto HoldOff: 0 s
#Channel 1: Range: 20 mV/div Offset: 8 mV Attenuation: 1 X Sample Mode: Average
#Channel 2: Range: 100 mV/div Offset: 35 mV Attenuation: 1 X Sample Mode: Average

Time (s),Channel 1 (V),Channel 2 (V)
-0.003197496829133716,-0.001045090857681821,0.000268931221304898
-0.003196366829133716,-0.001383372283155627,0.000268931221304898
-0.003195236829133717,-0.001383372283155627,0.000268931221304898
-0.003194106829133716,-0.001045090857681821,0.000268931221304898
-0.003192976829133716,-0.001045090857681821,0.000268931221304898
-0.003191846829133716,-0.0003685280067345145,0.000268931221304898
-0.003190716829133717,-0.001045090857681821,0.000268931221304898
-0.003189586829133716,-0.001045090857681821,-6.986275541136233e-05
-0.003188456829133716,-0.0003685280067342069,0.0006077251980211584
-0.003187326829133717,-0.0003685280067342069,-6.98627554110542e-05
-0.003186196829133717,-3.024658126040032e-05,-6.986275541136233e-05
-0.003185066829133716,-0.0003685280067342069,-0.0004086567321276227
-0.003183936829133716,-0.0007068094322080134,-0.0004086567321276227
-0.003182806829133717,-0.001045090857681667,-6.98627554115164e-05
-0.003181676829133717,-0.0003685280067342069,-6.986275541136233e-05
-0.003180546829133716,-0.0007068094322080134,0.000268931221304898
-0.003179416829133716,-0.0003685280067342069,0.0006077251980210044
-0.003178286829133717,-0.0003685280067342069,0.0002689312213050521
-0.003177156829133717,-0.001045090857681821,0.000268931221304898
-0.003176026829133716,-0.001045090857681821,0.0006077251980211584
-0.003174896829133716,-0.0007068094322081672,0.0009465191747372647
-0.003173766829133717,-0.001045090857681667,0.0006077251980213125
-0.003172636829133716,-0.001383372283155627,0.000268931221304898
-0.003171506829133716,-0.001045090857681821,-6.986275541136233e-05
-0.003170376829133716,-0.0007068094322080134,0.000268931221304898
-0.003169246829133717,-0.0007068094322080134,0.000268931221304898
-0.003168116829133716,-0.001045090857681821,-6.986275541136233e-05
-0.003166986829133716,-0.001045090857681821,0.000268931221304898
-0.003165856829133717,-0.001045090857681821,0.000268931221304898
-0.003164726829133717,-0.0007068094322080134,0.0006077251980211584
-0.003163596829133716,-0.0007068094322080134,0.0006077251980211584
-0.003162466829133716,-0.0003685280067342069,-6.986275541136233e-05
-0.003161336829133717,-0.001045090857681513,0.000268931221304744
-0.003160206829133717,-0.001045090857681821,0.000268931221304898
-0.003159076829133716,-0.0003685280067342069,-0.0004086567321276227
-0.003157946829133716,-3.024658126070799e-05,-6.98627554110542e-05
-0.003156816829133717,-0.0007068094322077057,0.0006077251980208503
-0.003155686829133717,-0.001383372283155627,0.000268931221304898
-0.003154556829133716,-0.001045090857681821,-6.986275541136233e-05
-0.003153426829133716,-0.001045090857681975,-6.986275541136233e-05
-0.003152296829133717,-0.001383372283155473,-6.986275541136233e-05
-0.003151166829133716,-0.001045090857681821,-6.986275541136233e-05
-0.003150036829133716,-0.001045090857681821,-6.986275541136233e-05
-0.003148906829133716,-0.001383372283155474,0.0002689312213045899
-0.003147776829133717,-0.001045090857681821,-0.0004086567321276227
-0.003146646829133716,-0.0007068094322080134,-6.986275541136233e-05
-0.003145516829133716,-0.0003685280067342069,0.000268931221304898
-0.003144386829133716,-0.0007068094322080134,-6.986275541136233e-05
-0.003143256829133717,-0.0007068094322080134,-6.986275541136233e-05
-0.003142126829133716,-0.0007068094322080134,-0.0004086567321276227
-0.003140996829133716,-0.0007068094322080134,-0.0004086567321276227
-0.003139866829133717,-0.0003685280067343607,-6.98627554115164e-05
-0.003138736829133717,-0.0003685280067342069,0.000268931221304898
-0.003137606829133716,-0.0007068094322080134,0.000268931221304898
-0.003136476829133716,-0.0007068094322081672,0.0006077251980210044
-0.003135346829133717,-0.001045090857681667,0.0002689312213050521
-0.003134216829133717,-0.0003685280067342069,-6.986275541136233e-05
-0.003133086829133716,-0.0003685280067342069,-0.0007474507088438831
-0.003131956829133716,-0.001045090857681667,-0.0004086567321274686
-0.003130826829133717,-0.0007068094322081672,-6.98627554115164e-05
-0.003129696829133716,-0.0007068094322080134,0.000268931221304898
-0.003128566829133716,-0.0007068094322080134,0.000268931221304898
-0.003127436829133716,-0.0007068094322080134,0.000268931221304898
-0.003126306829133717,-0.0007068094322080134,0.000268931221304898
-0.003125176829133716,-0.0003685280067342069,0.000268931221304898
-0.003124046829133716,-0.0003685280067342069,-6.986275541136233e-05
-0.003122916829133716,-0.0007068094322080134,-0.0004086567321273146
-0.003121786829133717,-0.0007068094322080134,0.000268931221304898
-0.003120656829133716,-3.024658126040032e-05,0.000268931221304898
-0.003119526829133716,-0.0007068094322080134,-6.986275541136233e-05
-0.003118396829133717,-0.0007068094322080134,0.000268931221304744
-0.003117266829133717,-0.0003685280067342069,0.000268931221304898
-0.003116136829133716,-0.0003685280067342069,0.000268931221304898
-0.003115006829133716,-0.0003685280067343607,0.000268931221304744
-0.003113876829133717,-0.0007068094322078595,-6.986275541120827e-05
-0.003112746829133717,-0.0007068094322080134,-6.986275541136233e-05
-0.003111616829133716,-0.0003685280067342069,-6.986275541136233e-05
-0.003110486829133716,-0.0003685280067345145,-0.0004086567321274686
-0.003109356829133717,-0.001045090857681513,-6.98627554115164e-05
-0.003108226829133717,-0.001045090857681821,-6.986275541136233e-05
-0.003107096829133716,-0.001045090857681821,0.000268931221304898
-0.003105966829133716,-0.0007068094322081672,0.000268931221304744
-0.003104836829133717,-0.001045090857681667,-6.986275541120827e-05
-0.003103706829133716,-0.0003685280067342069,-6.986275541136233e-05
-0.003102576829133716,-0.0007068094322080134,-6.986275541136233e-05
-0.003101446829133716,-0.001045090857681667,0.000268931221304744
-0.003100316829133717,-0.0007068094322080134,-6.986275541136233e-05
-0.003099186829133716,-0.0007068094322080134,-6.986275541136233e-05
-0.003098056829133716,-0.0007068094322080134,0.000268931221304898
-0.003096926829133717,-0.0007068094322080134,0.000268931221304898
-0.003095796829133717,-0.0007068094322080134,0.000268931221304898
-0.003094666829133716,-0.0003685280067342069,-6.986275541136233e-05
-0.003093536829133716,-0.0003685280067345145,-6.986275541120827e-05
-0.003092406829133717,-0.001045090857681513,0.000268931221304744
-0.003091276829133717,-0.0003685280067342069,0.0006077251980211584
-0.003090146829133716,-0.0007068094322080134,0.000268931221304898
-0.003089016829133716,-0.001045090857681821,0.000268931221304744
-0.003087886829133717,-0.001045090857681821,-6.986275541120827e-05
-0.003086756829133717,-0.0007068094322080134,-0.0004086567321276227
-0.003085626829133716,-0.001045090857681821,0.000268931221304898
-0.003084496829133716,-0.001045090857681667,0.0006077251980211584
-0.003083366829133717,-0.0007068094322081672,0.0006077251980211584
-0.003082236829133716,-0.0007068094322080134,0.0006077251980211584
-0.003081106829133716,-0.0003685280067342069,0.000268931221304898
-0.003079976829133716,-0.0003685280067343607,0.000268931221304744
-0.003078846829133717,-0.0007068094322080134,-6.986275541136233e-05
-0.003077716829133716,-0.0003685280067342069,-6.986275541136233e-05
-0.003076586829133716,-0.0007068094322080134,0.000268931221304898
-0.003075456829133717,-0.0007068094322080134,0.000268931221304898
-0.003074326829133717,-0.0007068094322080134,0.0006077251980211584
-0.003073196829133716,-0.001045090857681821,0.0009465191747374188
-0.003072066829133716,-0.0007068094322078595,0.0002689312213050521
-0.003070936829133717,-0.0003685280067343607,0.0006077251980210044
-0.003069806829133717,-0.001045090857681821,0.0006077251980211584
-0.003068676829133716,-0.001045090857681821,0.000268931221304898
-0.003067546829133716,-0.001383372283155474,0.000268931221304898
-0.003066416829133717,-0.001045090857681975,0.000268931221304898
-0.003065286829133717,-0.0007068094322080134,0.000268931221304898
-0.003064156829133716,-0.0003685280067342069,-6.986275541136233e-05
-0.003063026829133716,-0.0003685280067343607,0.0006077251980211584
-0.003061896829133717,-0.0007068094322078595,0.0006077251980211584
-0.003060766829133716,-0.001045090857681821,-6.986275541136233e-05
-0.003059636829133716,-0.001045090857681821,0.000268931221304898
-0.003058506829133716,-0.0007068094322078595,-6.986275541120827e-05
-0.003057376829133717,-0.0003685280067342069,0.000268931221304898
-0.003056246829133716,-3.024658126040032e-05,-6.986275541136233e-05
-0.003055116829133716,-0.0003685280067342069,0.0006077251980211584
-0.003053986829133717,-0.0007068094322078595,-6.98627554110542e-05
-0.003052856829133717,-0.0003685280067342069,0.000268931221304898
-0.003051726829133716,-0.001045090857681821,0.000268931221304898
-0.003050596829133716,-0.001045090857681513,0.000268931221304744
-0.003049466829133717,-0.0003685280067345145,-6.986275541120827e-05
-0.003048336829133717,-0.0007068094322080134,0.000268931221304898
-0.003047206829133716,-0.0007068094322080134,0.000268931221304898
-0.003046076829133716,-0.0003685280067342069,0.000268931221304744
-0.003044946829133717,-0.0003685280067342069,-6.986275541120827e-05
-0.003043816829133717,-0.0007068094322080134,0.000268931221304898
-0.003042686829133716,-0.0007068094322080134,0.000268931221304898
-0.003041556829133716,-0.0007068094322080134,-6.986275541136233e-05
-0.003040426829133717,-0.0007068094322080134,-6.986275541136233e-05
-0.003039296829133716,-0.0003685280067342069,-6.986275541136233e-05
-0.003038166829133716,-0.0003685280067342069,0.000268931221304898
-0.003037036829133716,-0.0003685280067343607,-6.986275541136233e-05
-0.003035906829133717,-0.0007068094322080134,-6.986275541136233e-05
-0.003034776829133716,-0.0007068094322080134,-6.986275541136233e-05
-0.003033646829133716,-0.0007068094322080134,-6.986275541136233e-05
-0.003032516829133717,-0.001045090857681667,0.0006077251980208503
-0.003031386829133717,-0.001045090857681821,0.0006077251980211584
-0.003030256829133716,-0.0007068094322080134,0.000268931221304898
-0.003029126829133716,-0.000368528006734053,-6.98627554115164e-05
-0.003027996829133717,-3.024658126055417e-05,-0.0004086567321274686
-0.003026866829133717,-0.0007068094322080134,-6.986275541136233e-05
-0.003025736829133716,-0.001045090857681821,0.000268931221304898
-0.003024606829133716,-0.001045090857681667,0.000268931221304744
-0.003023476829133717,-0.0007068094322081672,-6.986275541120827e-05
-0.003022346829133717,-0.001045090857681821,-6.986275541136233e-05
-0.003021216829133716,-0.0007068094322080134,-6.986275541136233e-05
-0.003020086829133716,-0.001045090857681821,-6.986275541136233e-05
-0.003018956829133717,-0.001045090857681821,-6.986275541136233e-05
-0.003017826829133716,-0.001045090857681821,0.000268931221304898
-0.003016696829133716,-0.0007068094322080134,0.0006077251980211584
-0.003015566829133716,-0.0007068094322081672,0.000268931221304744
-0.003014436829133717,-0.001045090857681821,-6.986275541136233e-05
-0.003013306829133716,-0.0007068094322080134,-6.986275541136233e-05
-0.003012176829133716,-0.0003685280067342069,0.000268931221304898
-0.003011046829133717,-3.024658126055417e-05,0.000268931221304898
-0.003009916829133717,-0.0003685280067342069,-6.986275541136233e-05
-0.003008786829133716,-0.001045090857681821,0.000268931221304898
-0.003007656829133716,-0.0007068094322080134,0.000268931221304898
-0.003006526829133717,-0.0007068094322080134,0.000268931221304898
-0.003005396829133717,-0.0007068094322080134,-6.986275541136233e-05
-0.003004266829133716,-0.001045090857681821,-6.986275541136233e-05
-0.003003136829133716,-0.001045090857681667,0.000268931221304898
-0.003002006829133717,-0.0007068094322081672,0.000268931221304898
-0.003000876829133717,-0.0003685280067342069,-6.986275541136233e-05
-0.002999746829133716,-0.0003685280067342069,-0.0004086567321276227
-0.002998616829133716,-0.001045090857681667,0.000268931221304898
-0.002997486829133717,-0.0007068094322081672,0.000268931221304898
-0.002996356829133716,-0.0003685280067342069,-6.986275541136233e-05
-0.002995226829133716,-0.0003685280067342069,-6.986275541136233e-05
-0.002994096829133716,-0.0003685280067343607,0.000268931221304744
-0.002992966829133717,-0.0007068094322080134,-6.986275541136233e-05
-0.002991836829133716,-0.0007068094322080134,0.0006077251980211584
-0.002990706829133716,-0.001045090857681821,-6.986275541136233e-05
-0.002989576829133717,-0.001045090857681821,0.000268931221304744
-0.002988446829133717,-0.001045090857681821,0.000268931221304898
-0.002987316829133716,-0.0007068094322080134,-6.986275541136233e-05
-0.002986186829133716,-0.0007068094322078595,0.000268931221304744
-0.002985056829133717,-0.0003685280067343607,-6.986275541120827e-05
-0.002983926829133717,-0.001045090857681821,-0.0004086567321276227
-0.002982796829133716,-0.0007068094322080134,-6.986275541136233e-05
-0.002981666829133716,-0.0007068094322081672,0.000268931221304744
-0.002980536829133717,-0.001045090857681667,-6.986275541120827e-05
-0.002979406829133717,-0.001045090857681821,-6.986275541136233e-05
-0.002978276829133716,-0.001045090857681821,-6.986275541136233e-05
-0.002977146829133716,-0.001045090857681821,-0.0004086567321274686
-0.002976016829133717,-0.001045090857681821,-6.98627554115164e-05
-0.002974886829133716,-0.0007068094322080134,-6.986275541136233e-05
-0.002973756829133716,-0.0007068094322080134,-6.986275541136233e-05
-0.002972626829133716,-0.001045090857681513,-6.986275541136233e-05
-0.002971496829133717,-0.0003685280067342069,-6.986275541136233e-05
-0.002970366829133716,-0.0007068094322080134,-6.986275541136233e-05
-0.002969236829133716,-0.001045090857681821,0.000268931221304898
-0.002968106829133717,-0.0007068094322081672,-6.986275541120827e-05
-0.002966976829133717,-0.001045090857681821,-6.986275541136233e-05
-0.002965846829133716,-0.0007068094322080134,-6.986275541136233e-05
-0.002964716829133716,-0.0007068094322078595,-6.986275541136233e-05
-0.002963586829133717,-0.0003685280067343607,-6.986275541136233e-05
-0.002962456829133717,-0.0007068094322080134,-6.986275541136233e-05
-0.002961326829133716,-0.001045090857681821,-6.986275541136233e-05
-0.002960196829133716,-0.001045090857681821,0.000268931221304898
-0.002959066829133717,-0.001045090857681821,0.000268931221304898
-0.002957936829133717,-0.0007068094322080134,0.000268931221304898
-0.002956806829133716,-0.0003685280067342069,-6.986275541136233e-05
-0.002955676829133716,-0.0003685280067343607,-6.98627554110542e-05
-0.002954546829133717,-0.0007068094322078595,0.0006077251980208503
-0.002953416829133716,-0.0003685280067342069,0.000268931221304898
-0.002952286829133716,-0.0007068094322080134,0.000268931221304898
-0.002951156829133716,-0.0007068094322081672,-6.986275541120827e-05
-0.002950026829133717,-0.001045090857681821,0.000268931221304898
-0.002948896829133716,-0.0007068094322080134,0.000268931221304898
-0.002947766829133716,-0.0003685280067342069,-6.986275541136233e-05
-0.002946636829133717,-0.0007068094322078595,-0.0004086567321274686
-0.002945506829133717,-0.001045090857681821,-0.0004086567321276227
-0.002944376829133716,-0.001045090857681821,-6.986275541136233e-05
-0.002943246829133716,-0.0007068094322080134,-6.986275541136233e-05
-0.002942116829133717,-0.001045090857681667,-6.986275541136233e-05
-0.002940986829133717,-0.001045090857681821,-6.986275541136233e-05
-0.002939856829133716,-0.0007068094322080134,-6.986275541136233e-05
-0.002938726829133716,-0.0007068094322081672,-0.0004086567321273146
-0.002937596829133717,-0.001045090857681667,0.0002689312213045899
-0.002936466829133717,-0.001383372283155627,0.000268931221304898
-0.002935336829133716,-0.001045090857681821,-6.986275541136233e-05
-0.002934206829133716,-0.0007068094322080134,0.000268931221304898
-0.002933076829133717,-0.0007068094322080134,0.000268931221304898
-0.002931946829133716,-0.0007068094322080134,0.000268931221304898
-0.002930816829133716,-0.0007068094322080134,0.000268931221304898
-0.002929686829133716,-0.0007068094322080134,-6.986275541120827e-05
-0.002928556829133717,-0.0007068094322080134,0.000268931221304898
-0.002927426829133716,-0.001045090857681821,0.000268931221304898
-0.002926296829133716,-0.001045090857681821,0.000268931221304898
-0.002925166829133717,-0.001045090857681821,0.000268931221304898
-0.002924036829133717,-0.0007068094322080134,-6.986275541136233e-05
-0.002922906829133716,-0.0003685280067342069,-6.986275541136233e-05
-0.002921776829133716,-0.001045090857681821,0.000268931221304898
-0.002920646829133717,-0.0007068094322081672,0.000268931221304898
-0.002919516829133717,-0.0007068094322080134,-6.986275541136233e-05
-0.002918386829133716,-0.001383372283155627,-6.986275541136233e-05
-0.002917256829133716,-0.001383372283155627,-6.986275541120827e-05
-0.002916126829133717,-0.001383372283155627,0.000268931221304744
-0.002914996829133717,-0.0007068094322080134,0.000268931221304898
-0.002913866829133716,-0.0007068094322080134,-6.986275541136233e-05
-0.002912736829133716,-0.001045090857681821,-6.986275541136233e-05
-0.002911606829133717,-0.001045090857681821,-6.986275541136233e-05
-0.002910476829133716,-0.0007068094322080134,0.000268931221304898
-0.002909346829133716,-0.0003685280067342069,-6.986275541136233e-05
-0.002908216829133716,-0.0007068094322081672,0.0006077251980208503
-0.002907086829133717,-0.001045090857681821,-6.986275541136233e-05
-0.002905956829133716,-0.001045090857681821,-6.986275541136233e-05
-0.002904826829133716,-0.0007068094322080134,0.000268931221304898
-0.002903696829133716,-0.0003685280067342069,0.000268931221304898
-0.002902566829133717,-0.0003685280067342069,0.000268931221304898
-0.002901436829133716,-0.0007068094322080134,-6.986275541136233e-05
-0.002900306829133716,-0.0007068094322080134,0.000268931221304898
-0.002899176829133717,-0.001045090857681667,0.000268931221304898
-0.002898046829133717,-0.0007068094322080134,0.000268931221304898
-0.002896916829133716,-0.0003685280067342069,0.000268931221304898
-0.002895786829133716,-0.0007068094322081672,-6.986275541136233e-05
-0.002894656829133717,-0.001045090857681667,-6.986275541136233e-05
-0.002893526829133717,-0.0007068094322080134,0.000268931221304898
-0.002892396829133716,-0.0007068094322080134,-6.986275541136233e-05
-0.002891266829133716,-0.001045090857681821,-0.0004086567321274686
-0.002890136829133717,-0.001045090857681821,-6.98627554115164e-05
-0.002889006829133716,-0.0007068094322080134,0.000268931221304898
-0.002887876829133716,-0.0007068094322080134,0.000268931221304898
-0.002886746829133716,-0.0007068094322080134,-6.986275541136233e-05
-0.002885616829133717,-0.0007068094322080134,-6.986275541136233e-05
-0.002884486829133716,-0.001045090857681821,-0.0004086567321276227
-0.002883356829133716,-0.0007068094322080134,-6.986275541136233e-05
-0.002882226829133716,-0.0003685280067342069,0.000268931221304744
-0.002881096829133717,-0.0003685280067342069,-6.986275541136233e-05
-0.002879966829133716,-0.0007068094322080134,0.000268931221304898
-0.002878836829133716,-0.001045090857681821,-6.986275541136233e-05
-0.002877706829133717,-0.0007068094322081672,-6.986275541136233e-05
-0.002876576829133717,-0.0007068094322080134,0.0006077251980211584
-0.002875446829133716,-0.0007068094322080134,-6.986275541136233e-05
-0.002874316829133716,-0.001045090857681667,-6.986275541136233e-05
-0.002873186829133717,-0.0007068094322081672,-6.986275541136233e-05
-0.002872056829133717,-0.0007068094322080134,-6.986275541136233e-05
-0.002870926829133716,-0.0003685280067342069,0.000268931221304898
-0.002869796829133716,-0.0007068094322081672,0.000268931221304898
-0.002868666829133717,-0.001045090857681667,0.000268931221304898
